
2018工作计划

时间	02.26-06.30

工作块

	Lego新版核心逻辑
	elogic接入
	资源管理
	账号系统
	iphone demo
	编辑器


阶段一【02.26-04.27】Lego新版核心逻辑，elogic接入，编辑器对接

2.23 - 2.24（2天）
2.26 - 3.2
3.5  - 3.9
3.12 - 3.16
3.19 - 3.23
3.26 - 3.30
4.2  - 4.4 （3天）
4.8  - 4.13 （6天）
4.16 - 4.20
4.23 - 4.27

	目标1，出包，2.26 - 3.9，明确需求

		1.明确需求（产品需求，流程化需求），明确资源规范文档，告知外包改动需求。
		2.新建项目项目，只包含核心逻辑并把现有可用逻辑移植过去。
		3.导入美术资源，并对核心逻辑初步升级，整体跑一遍资源。

	目标2，出包，3.12 - 3.23，资源验证和预处理

		1.对核心逻辑模型动画部分进行分析。主要分两部分，验证和预处理。
		2.开发带有验证功能的资源预处理工具。

	目标3，出包，3.26 - 4.4，核心逻辑完成

		1.新版核心逻辑，实现，优化。
		Ps，空格真，抖动问题，自动播放问题，动画初始位置问题，都在此版本解决。

	目标4，不出包（独立项目），4.8 - 4.20，数据验证和导出

		1.对核心逻辑的数据部分进行分析。主要分两部分，验证和导出。提前发现数据问题。
		2.开发带有验证功能的导出工具。
		3.将原先项目中这部分功能单独拆分到另一个项目。
		4.从数据源到可用表的工具。
		Ps：此部分功能用java或python做，原先是放在了U3D项目中用C#做的。

	目标5，出包，4.23 - 4.27，测试

		1.新版lego测试时间。

阶段二【05.07-06.29】资源管理，账号系统

