%YAML 1.1
%TAG !u! tag:unity3d.com,2011:
--- !u!74 &7400000
AnimationClip:
  m_ObjectHideFlags: 0
  m_PrefabParentObject: {fileID: 0}
  m_PrefabInternal: {fileID: 0}
  m_Name: Anim_10500090
  serializedVersion: 6
  m_Legacy: 0
  m_Compressed: 0
  m_UseHighQualityCurve: 1
  m_RotationCurves:
  - curve:
      serializedVersion: 2
      m_Curve:
      - serializedVersion: 2
        time: 0
        value: {x: -0.72502095, y: 0.0000028607808, z: 0.68872684, w: 0.0000028871998}
        inSlope: {x: 0, y: 0, z: 0, w: 0}
        outSlope: {x: 0, y: 0, z: 0, w: 0}
        tangentMode: 0
      - serializedVersion: 2
        time: 0.46666622
        value: {x: -0.72502095, y: 0.0000028607808, z: 0.68872684, w: 0.0000028871998}
        inSlope: {x: 0, y: 0, z: 0, w: 0}
        outSlope: {x: 0, y: 0, z: 0, w: 0}
        tangentMode: 0
      m_PreInfinity: 2
      m_PostInfinity: 2
      m_RotationOrder: 4
    path: Tool_Tweezers02
  - curve:
      serializedVersion: 2
      m_Curve:
      - serializedVersion: 2
        time: 0
        value: {x: 0, y: -0.024193589, z: -0, w: 0.99970734}
        inSlope: {x: 0, y: 0, z: 0, w: 0}
        outSlope: {x: 0, y: 0, z: 0, w: 0}
        tangentMode: 0
      - serializedVersion: 2
        time: 0.16666698
        value: {x: 0, y: -0.03080592, z: -0, w: 0.99952537}
        inSlope: {x: 0, y: -0.19834536, z: 0, w: -0.0061136633}
        outSlope: {x: 0, y: -0.19834536, z: 0, w: -0.0061136633}
        tangentMode: 0
      - serializedVersion: 2
        time: 0.33333302
        value: {x: 0, y: -0.0374166, z: -0, w: 0.99929976}
        inSlope: {x: 0, y: 0, z: 0, w: 0}
        outSlope: {x: 0, y: 0, z: 0, w: 0}
        tangentMode: 0
      - serializedVersion: 2
        time: 0.3666668
        value: {x: 0, y: -0.0374166, z: -0, w: 0.99929976}
        inSlope: {x: 0, y: 0.18133065, z: 0, w: 0.0056917346}
        outSlope: {x: 0, y: 0.18133065, z: 0, w: 0.0056917346}
        tangentMode: 0
      - serializedVersion: 2
        time: 0.39999962
        value: {x: 0, y: -0.025328074, z: -0, w: 0.9996792}
        inSlope: {x: 0, y: 0.18133065, z: 0, w: 0.0056917346}
        outSlope: {x: 0, y: 0.18133065, z: 0, w: 0.0056917346}
        tangentMode: 0
      - serializedVersion: 2
        time: 0.46666622
        value: {x: 0, y: -0.022305856, z: 0, w: 0.9997741}
        inSlope: {x: 0, y: -0.045332015, z: 0, w: -0.0014233501}
        outSlope: {x: 0, y: -0.045332015, z: 0, w: -0.0014233501}
        tangentMode: 0
      m_PreInfinity: 2
      m_PostInfinity: 2
      m_RotationOrder: 4
    path: Tool_Tweezers02/Tool_Tweezers03
  m_CompressedRotationCurves: []
  m_EulerCurves: []
  m_PositionCurves:
  - curve:
      serializedVersion: 2
      m_Curve:
      - serializedVersion: 2
        time: 0
        value: {x: 0.01972282, y: 0.17060694, z: 0.34886798}
        inSlope: {x: 0, y: 0, z: 0}
        outSlope: {x: 0, y: 0, z: 0}
        tangentMode: 0
      - serializedVersion: 2
        time: 0.09999943
        value: {x: 0.01972282, y: 0.17060694, z: 0.348868}
        inSlope: {x: -0, y: 2.230393e-15, z: 1.4869286e-15}
        outSlope: {x: -0.000103633065, y: 0.00007653879, z: -0.0000074939485}
        tangentMode: 0
      - serializedVersion: 2
        time: 0.1333332
        value: {x: -0.1539756, y: 0.2914413, z: 0.3295809}
        inSlope: {x: 0.000074912394, y: -0.000046926325, z: -0.64449537}
        outSlope: {x: -1.9825712e-15, y: 3.9651425e-15, z: -0.6446551}
        tangentMode: 0
      - serializedVersion: 2
        time: 0.19999981
        value: {x: -0.1539756, y: 0.2914413, z: 0.2917391}
        inSlope: {x: 1.9825147e-15, y: -3.9650294e-15, z: -0.0000005369874}
        outSlope: {x: -1.9825712e-15, y: 3.9651425e-15, z: 3.4694999e-15}
        tangentMode: 0
      - serializedVersion: 2
        time: 0.23333263
        value: {x: -0.1539756, y: 0.2914413, z: 0.2917391}
        inSlope: {x: 1.9825712e-15, y: -3.9651425e-15, z: 1.4869286e-15}
        outSlope: {x: -1.9825147e-15, y: -0.0000014868222, z: -0.000006846543}
        tangentMode: 0
      - serializedVersion: 2
        time: 0.2666664
        value: {x: -0.1539756, y: 0.2902206, z: 0.32201254}
        inSlope: {x: 1.9825147e-15, y: -0.10986415, z: 0.00000592571}
        outSlope: {x: -1.9825712e-15, y: -0.11009654, z: -0.000000508231}
        tangentMode: 0
      - serializedVersion: 2
        time: 0.29999924
        value: {x: -0.1539756, y: 0.245787, z: 0.32115805}
        inSlope: {x: 1.9825712e-15, y: -1.3140947, z: -0.06409351}
        outSlope: {x: 0.0000020031555, y: -1.3137407, z: -0.06408469}
        tangentMode: 0
      - serializedVersion: 2
        time: 0.33333302
        value: {x: -0.15437996, y: 0.20263514, z: 0.31774008}
        inSlope: {x: 0.0000020031555, y: -0.000014431901, z: -0.3076175}
        outSlope: {x: -1.7347499e-15, y: 0.000007127696, z: -0.30785796}
        tangentMode: 0
      - serializedVersion: 2
        time: 0.36666584
        value: {x: -0.15437996, y: 0.20400843, z: 0.2769686}
        inSlope: {x: -7.434643e-16, y: 0.123609886, z: -0.00028479015}
        outSlope: {x: -0.0000049684536, y: 0.12359126, z: 0.0000006372017}
        tangentMode: 0
      - serializedVersion: 2
        time: 0.39999962
        value: {x: -0.1262446, y: 0.22644407, z: 0.2877301}
        inSlope: {x: 1.2056361, y: 0.8966872, z: 0.4611471}
        outSlope: {x: 1.205876, y: 0.8968566, z: 0.46123654}
        tangentMode: 0
      - serializedVersion: 2
        time: 0.43333244
        value: {x: -0.07400561, y: 0.26378644, z: 0.307711}
        inSlope: {x: 1.2059654, y: 0.85572875, z: 0.4612706}
        outSlope: {x: 1.2055527, y: 0.8554347, z: 0.46111196}
        tangentMode: 0
      - serializedVersion: 2
        time: 0.46666622
        value: {x: -0.045870267, y: 0.2834762, z: 0.3184725}
        inSlope: {x: 0.000011614186, y: 0.0000045604565, z: 0.000003830264}
        outSlope: {x: -8.673502e-16, y: 3.4694008e-15, z: 6.9388016e-15}
        tangentMode: 0
      m_PreInfinity: 2
      m_PostInfinity: 2
      m_RotationOrder: 4
    path: Tool_Tweezers02
  - curve:
      serializedVersion: 2
      m_Curve:
      - serializedVersion: 2
        time: 0
        value: {x: 0.0080988705, y: -0.00030517645, z: -0.001225255}
        inSlope: {x: 0, y: 0, z: 0}
        outSlope: {x: 0, y: 0, z: 0}
        tangentMode: 0
      - serializedVersion: 2
        time: 0.46666622
        value: {x: 0.008098871, y: -0.00030517642, z: -0.001225255}
        inSlope: {x: 0, y: 0, z: 0}
        outSlope: {x: 0, y: 0, z: 0}
        tangentMode: 0
      m_PreInfinity: 2
      m_PostInfinity: 2
      m_RotationOrder: 4
    path: Tool_Tweezers02/Tool_Tweezers03
  m_ScaleCurves:
  - curve:
      serializedVersion: 2
      m_Curve:
      - serializedVersion: 2
        time: 0
        value: {x: 1, y: 1, z: 1}
        inSlope: {x: 0, y: 0, z: 0}
        outSlope: {x: 0, y: 0, z: 0}
        tangentMode: 0
      - serializedVersion: 2
        time: 0.46666622
        value: {x: 1, y: 1, z: 1}
        inSlope: {x: 0, y: 0, z: 0}
        outSlope: {x: 0, y: 0, z: 0}
        tangentMode: 0
      m_PreInfinity: 2
      m_PostInfinity: 2
      m_RotationOrder: 4
    path: Tool_Tweezers02
  - curve:
      serializedVersion: 2
      m_Curve:
      - serializedVersion: 2
        time: 0
        value: {x: 1, y: 1, z: 1}
        inSlope: {x: 0, y: 0, z: 0}
        outSlope: {x: 0, y: 0, z: 0}
        tangentMode: 0
      - serializedVersion: 2
        time: 0.46666622
        value: {x: 1, y: 1, z: 1}
        inSlope: {x: 0, y: 0, z: 0}
        outSlope: {x: 0, y: 0, z: 0}
        tangentMode: 0
      m_PreInfinity: 2
      m_PostInfinity: 2
      m_RotationOrder: 4
    path: Tool_Tweezers02/Tool_Tweezers03
  m_FloatCurves: []
  m_PPtrCurves: []
  m_SampleRate: 30
  m_WrapMode: 0
  m_Bounds:
    m_Center: {x: 0, y: 0, z: 0}
    m_Extent: {x: 0, y: 0, z: 0}
  m_ClipBindingConstant:
    genericBindings:
    - serializedVersion: 2
      path: 4162974765
      attribute: 1
      script: {fileID: 0}
      typeID: 4
      customType: 0
      isPPtrCurve: 0
    - serializedVersion: 2
      path: 3787453774
      attribute: 2
      script: {fileID: 0}
      typeID: 4
      customType: 0
      isPPtrCurve: 0
    - serializedVersion: 2
      path: 3787453774
      attribute: 1
      script: {fileID: 0}
      typeID: 4
      customType: 0
      isPPtrCurve: 0
    - serializedVersion: 2
      path: 4162974765
      attribute: 2
      script: {fileID: 0}
      typeID: 4
      customType: 0
      isPPtrCurve: 0
    - serializedVersion: 2
      path: 4162974765
      attribute: 3
      script: {fileID: 0}
      typeID: 4
      customType: 0
      isPPtrCurve: 0
    - serializedVersion: 2
      path: 3787453774
      attribute: 3
      script: {fileID: 0}
      typeID: 4
      customType: 0
      isPPtrCurve: 0
    pptrCurveMapping: []
  m_AnimationClipSettings:
    serializedVersion: 2
    m_AdditiveReferencePoseClip: {fileID: 0}
    m_AdditiveReferencePoseTime: 0
    m_StartTime: 0
    m_StopTime: 0.46666622
    m_OrientationOffsetY: 0
    m_Level: 0
    m_CycleOffset: 0
    m_HasAdditiveReferencePose: 0
    m_LoopTime: 0
    m_LoopBlend: 0
    m_LoopBlendOrientation: 0
    m_LoopBlendPositionY: 0
    m_LoopBlendPositionXZ: 0
    m_KeepOriginalOrientation: 0
    m_KeepOriginalPositionY: 0
    m_KeepOriginalPositionXZ: 0
    m_HeightFromFeet: 0
    m_Mirror: 0
  m_EditorCurves: []
  m_EulerEditorCurves: []
  m_HasGenericRootTransform: 0
  m_HasMotionFloatCurves: 0
  m_GenerateMotionCurves: 0
  m_Events:
  - time: 0
    functionName: OnClipStart
    data: 
    objectReferenceParameter: {fileID: 0}
    floatParameter: 0
    intParameter: 10500090
    messageOptions: 0
  - time: 0.46666622
    functionName: OnClipEnd
    data: 
    objectReferenceParameter: {fileID: 0}
    floatParameter: 0
    intParameter: 10500090
    messageOptions: 0
