%YAML 1.1
%TAG !u! tag:unity3d.com,2011:
--- !u!74 &7400000
AnimationClip:
  m_ObjectHideFlags: 0
  m_PrefabParentObject: {fileID: 0}
  m_PrefabInternal: {fileID: 0}
  m_Name: Anim_10500124
  serializedVersion: 6
  m_Legacy: 0
  m_Compressed: 0
  m_UseHighQualityCurve: 1
  m_RotationCurves:
  - curve:
      serializedVersion: 2
      m_Curve:
      - serializedVersion: 2
        time: 0
        value: {x: 0.6628796, y: -0.6628795, z: -0.24615172, w: 0.24615175}
        inSlope: {x: 0, y: 0, z: 0, w: 0}
        outSlope: {x: 0, y: 0, z: 0, w: 0}
        tangentMode: 0
      - serializedVersion: 2
        time: 0.36666727
        value: {x: 0.6628796, y: -0.6628795, z: -0.24615172, w: 0.24615175}
        inSlope: {x: 0, y: 0, z: 0, w: 0}
        outSlope: {x: 0, y: 0, z: 0, w: 0}
        tangentMode: 0
      - serializedVersion: 2
        time: 0.40000057
        value: {x: 0.6628796, y: -0.6628795, z: -0.24615172, w: 0.24615175}
        inSlope: {x: -4.215383, y: 1.01629, z: -2.0355952, w: -12.619441}
        outSlope: {x: -4.215383, y: 1.01629, z: -2.0355952, w: -12.619441}
        tangentMode: 0
      - serializedVersion: 2
        time: 0.43333387
        value: {x: 0.38185433, y: -0.5951269, z: -0.38185793, w: -0.5951435}
        inSlope: {x: -9.943203, y: 9.943202, z: 3.692279, w: -18.692295}
        outSlope: {x: -9.943203, y: 9.943202, z: 3.692279, w: -18.692295}
        tangentMode: 0
      - serializedVersion: 2
        time: 0.46666718
        value: {x: -0, y: -0, z: 0, w: -1}
        inSlope: {x: -11.455641, y: 17.853825, z: 11.455749, w: -12.145707}
        outSlope: {x: -11.455641, y: 17.853825, z: 11.455749, w: -12.145707}
        tangentMode: 0
      m_PreInfinity: 2
      m_PostInfinity: 2
      m_RotationOrder: 4
    path: Tool_HandPress02
  m_CompressedRotationCurves: []
  m_EulerCurves: []
  m_PositionCurves:
  - curve:
      serializedVersion: 2
      m_Curve:
      - serializedVersion: 2
        time: 0
        value: {x: 0.27119607, y: -0.048425525, z: 0.26543218}
        inSlope: {x: 0, y: 0, z: 0}
        outSlope: {x: 0, y: 0, z: 0}
        tangentMode: 0
      - serializedVersion: 2
        time: 0.099999905
        value: {x: 0.27119607, y: -0.048425525, z: 0.26543218}
        inSlope: {x: 1.4869074e-15, y: -5.5759025e-16, z: 2.230361e-15}
        outSlope: {x: -0.000086202126, y: 0.000041327385, z: -0.00001392018}
        tangentMode: 0
      - serializedVersion: 2
        time: 0.1333332
        value: {x: 0.12182473, y: 0.020788342, z: 0.22494903}
        inSlope: {x: -0.7760883, y: -0.00002991886, z: -0.7988212}
        outSlope: {x: -0.77612275, y: 2.1684065e-16, z: -0.7988074}
        tangentMode: 0
      - serializedVersion: 2
        time: 0.16666651
        value: {x: 0.1132008, y: 0.020788342, z: 0.21217588}
        inSlope: {x: -0.11098648, y: 9.293171e-17, z: -0.26602015}
        outSlope: {x: -0.11099198, y: 2.1684065e-16, z: -0.26602197}
        tangentMode: 0
      - serializedVersion: 2
        time: 0.2666669
        value: {x: 0.115681544, y: 0.020788342, z: 0.20352823}
        inSlope: {x: 0.055518307, y: 9.293171e-17, z: -0.09932032}
        outSlope: {x: 0.05552373, y: 2.1684065e-16, z: -0.099330425}
        tangentMode: 0
      - serializedVersion: 2
        time: 0.3333335
        value: {x: 0.116795436, y: 0.020788342, z: 0.19750282}
        inSlope: {x: 1.1151805e-15, y: 9.293171e-17, z: -0.00000009930795}
        outSlope: {x: 2.6020878e-15, y: 2.1684065e-16, z: 1.7347252e-15}
        tangentMode: 0
      - serializedVersion: 2
        time: 0.4000001
        value: {x: 0.116795436, y: 0.020788342, z: 0.19750282}
        inSlope: {x: 1.1151805e-15, y: 9.293171e-17, z: 7.434537e-16}
        outSlope: {x: -0.0003945921, y: -0.00009571063, z: -0.00008353731}
        tangentMode: 0
      - serializedVersion: 2
        time: 0.4333334
        value: {x: -0.35262445, y: -0.09397595, z: 0.09875141}
        inSlope: {x: -14.081709, y: -3.4427104, z: -2.9623542}
        outSlope: {x: -14.0819235, y: -3.4427617, z: -2.962398}
        tangentMode: 0
      - serializedVersion: 2
        time: 0.4666667
        value: {x: -0.8220444, y: -0.20874023, z: 0}
        inSlope: {x: -0.00031716985, y: -0.00007497206, z: -0.00006550955}
        outSlope: {x: -0.00031716985, y: -0.00007497206, z: -0.00006550955}
        tangentMode: 0
      m_PreInfinity: 2
      m_PostInfinity: 2
      m_RotationOrder: 4
    path: Tool_HandPress02
  m_ScaleCurves:
  - curve:
      serializedVersion: 2
      m_Curve:
      - serializedVersion: 2
        time: 0
        value: {x: 1, y: 1, z: 1}
        inSlope: {x: 0, y: 0, z: 0}
        outSlope: {x: 0, y: 0, z: 0}
        tangentMode: 0
      - serializedVersion: 2
        time: 0.46666718
        value: {x: 1, y: 1, z: 1}
        inSlope: {x: 0, y: 0, z: 0}
        outSlope: {x: 0, y: 0, z: 0}
        tangentMode: 0
      m_PreInfinity: 2
      m_PostInfinity: 2
      m_RotationOrder: 4
    path: Tool_HandPress02
  m_FloatCurves: []
  m_PPtrCurves: []
  m_SampleRate: 30
  m_WrapMode: 0
  m_Bounds:
    m_Center: {x: 0, y: 0, z: 0}
    m_Extent: {x: 0, y: 0, z: 0}
  m_ClipBindingConstant:
    genericBindings:
    - serializedVersion: 2
      path: 2019931156
      attribute: 1
      script: {fileID: 0}
      typeID: 4
      customType: 0
      isPPtrCurve: 0
    - serializedVersion: 2
      path: 2019931156
      attribute: 2
      script: {fileID: 0}
      typeID: 4
      customType: 0
      isPPtrCurve: 0
    - serializedVersion: 2
      path: 2019931156
      attribute: 3
      script: {fileID: 0}
      typeID: 4
      customType: 0
      isPPtrCurve: 0
    pptrCurveMapping: []
  m_AnimationClipSettings:
    serializedVersion: 2
    m_AdditiveReferencePoseClip: {fileID: 0}
    m_AdditiveReferencePoseTime: 0
    m_StartTime: 0
    m_StopTime: 0.46666718
    m_OrientationOffsetY: 0
    m_Level: 0
    m_CycleOffset: 0
    m_HasAdditiveReferencePose: 0
    m_LoopTime: 0
    m_LoopBlend: 0
    m_LoopBlendOrientation: 0
    m_LoopBlendPositionY: 0
    m_LoopBlendPositionXZ: 0
    m_KeepOriginalOrientation: 0
    m_KeepOriginalPositionY: 0
    m_KeepOriginalPositionXZ: 0
    m_HeightFromFeet: 0
    m_Mirror: 0
  m_EditorCurves: []
  m_EulerEditorCurves: []
  m_HasGenericRootTransform: 0
  m_HasMotionFloatCurves: 0
  m_GenerateMotionCurves: 0
  m_Events:
  - time: 0
    functionName: OnClipStart
    data: 
    objectReferenceParameter: {fileID: 0}
    floatParameter: 0
    intParameter: 10500124
    messageOptions: 0
  - time: 0.46666718
    functionName: OnClipEnd
    data: 
    objectReferenceParameter: {fileID: 0}
    floatParameter: 0
    intParameter: 10500124
    messageOptions: 0
