%YAML 1.1
%TAG !u! tag:unity3d.com,2011:
--- !u!74 &7400000
AnimationClip:
  m_ObjectHideFlags: 0
  m_PrefabParentObject: {fileID: 0}
  m_PrefabInternal: {fileID: 0}
  m_Name: Anim_10500206
  serializedVersion: 6
  m_Legacy: 0
  m_Compressed: 0
  m_UseHighQualityCurve: 1
  m_RotationCurves:
  - curve:
      serializedVersion: 2
      m_Curve:
      - serializedVersion: 2
        time: 0
        value: {x: 0.00000012538226, y: -0.65859765, z: -0.00000025041453, w: -0.7524953}
        inSlope: {x: 0, y: 0, z: 0, w: 0}
        outSlope: {x: 0, y: 0, z: 0, w: 0}
        tangentMode: 0
      - serializedVersion: 2
        time: 0.0666666
        value: {x: 0.00000012538226, y: -0.65859765, z: -0.00000025041453, w: -0.7524953}
        inSlope: {x: 0, y: 0, z: 0, w: 0}
        outSlope: {x: 0, y: 0, z: 0, w: 0}
        tangentMode: 0
      - serializedVersion: 2
        time: 0.10000038
        value: {x: 0.00000012538226, y: -0.65859765, z: -0.00000025041453, w: -0.7524953}
        inSlope: {x: -7.9815326, y: 1.8975639, z: -6.985574, w: 18.2732}
        outSlope: {x: -7.9815326, y: 1.8975639, z: -6.985574, w: 18.2732}
        tangentMode: 0
      - serializedVersion: 2
        time: 0.1333332
        value: {x: -0.53209394, y: -0.5320953, z: -0.46569806, w: 0.46569937}
        inSlope: {x: -7.9815326, y: 1.8975639, z: -6.985574, w: 18.2732}
        outSlope: {x: -7.9815326, y: 1.8975639, z: -6.985574, w: 18.2732}
        tangentMode: 0
      - serializedVersion: 2
        time: 0.16666698
        value: {x: -0.53209394, y: -0.5320953, z: -0.46569806, w: 0.46569937}
        inSlope: {x: 0, y: 0, z: 0, w: 0}
        outSlope: {x: 0, y: 0, z: 0, w: 0}
        tangentMode: 0
      - serializedVersion: 2
        time: 0.19999981
        value: {x: -0.53209394, y: -0.5320953, z: -0.46569806, w: 0.46569937}
        inSlope: {x: 0, y: 0, z: 0, w: 0}
        outSlope: {x: 0, y: 0, z: 0, w: 0}
        tangentMode: 0
      - serializedVersion: 2
        time: 0.23333359
        value: {x: -0.53209394, y: -0.5320953, z: -0.46569806, w: 0.46569937}
        inSlope: {x: 7.9815454, y: -3.3060527, z: 6.9855914, w: 2.8935156}
        outSlope: {x: 7.9815454, y: -3.3060527, z: 6.9855914, w: 2.8935156}
        tangentMode: 0
      - serializedVersion: 2
        time: 0.2666664
        value: {x: 0.0000009519952, y: -0.75249547, z: 0.00000092698866, w: 0.65859747}
        inSlope: {x: 7.9815454, y: -3.3060527, z: 6.9855914, w: 2.8935156}
        outSlope: {x: 7.9815454, y: -3.3060527, z: 6.9855914, w: 2.8935156}
        tangentMode: 0
      - serializedVersion: 2
        time: 0.3000002
        value: {x: 0.0000009519952, y: -0.75249547, z: 0.00000092698866, w: 0.65859747}
        inSlope: {x: 0, y: 0, z: 0, w: 0}
        outSlope: {x: 0, y: 0, z: 0, w: 0}
        tangentMode: 0
      - serializedVersion: 2
        time: 0.46666622
        value: {x: 0.0000009519952, y: -0.75249547, z: 0.00000092698866, w: 0.65859747}
        inSlope: {x: 0, y: 0, z: 0, w: 0}
        outSlope: {x: 0, y: 0, z: 0, w: 0}
        tangentMode: 0
      m_PreInfinity: 2
      m_PostInfinity: 2
      m_RotationOrder: 4
    path: Tool_Tweezers02
  - curve:
      serializedVersion: 2
      m_Curve:
      - serializedVersion: 2
        time: 0
        value: {x: 0, y: -0.045146618, z: -0, w: 0.9989804}
        inSlope: {x: 0, y: 0, z: 0, w: 0}
        outSlope: {x: 0, y: 0, z: 0, w: 0}
        tangentMode: 0
      - serializedVersion: 2
        time: 0.16666698
        value: {x: 0, y: -0.054045364, z: -0, w: 0.9985385}
        inSlope: {x: 0, y: -0.2668924, z: 0, w: -0.014445514}
        outSlope: {x: 0, y: -0.2668924, z: 0, w: -0.014445514}
        tangentMode: 0
      - serializedVersion: 2
        time: 0.3666668
        value: {x: 0, y: -0.06293943, z: -0, w: 0.9980174}
        inSlope: {x: 0, y: 0, z: 0, w: 0}
        outSlope: {x: 0, y: 0, z: 0, w: 0}
        tangentMode: 0
      - serializedVersion: 2
        time: 0.39999962
        value: {x: 0, y: -0.06293943, z: -0, w: 0.9980174}
        inSlope: {x: 0, y: 0.230397, z: 0, w: 0.012751051}
        outSlope: {x: 0, y: 0.230397, z: 0, w: 0.012751051}
        tangentMode: 0
      - serializedVersion: 2
        time: 0.4333334
        value: {x: 0, y: -0.047579423, z: -0, w: 0.99886745}
        inSlope: {x: 0, y: 0.230397, z: 0, w: 0.012751051}
        outSlope: {x: 0, y: 0.230397, z: 0, w: 0.012751051}
        tangentMode: 0
      - serializedVersion: 2
        time: 0.46666622
        value: {x: 0, y: -0.04416612, z: 0, w: 0.99905634}
        inSlope: {x: 0, y: 0.0000029057153, z: 0, w: 0}
        outSlope: {x: 0, y: 0.0000029057153, z: 0, w: 0}
        tangentMode: 0
      m_PreInfinity: 2
      m_PostInfinity: 2
      m_RotationOrder: 4
    path: Tool_Tweezers02/Tool_Tweezers03
  m_CompressedRotationCurves: []
  m_EulerCurves: []
  m_PositionCurves:
  - curve:
      serializedVersion: 2
      m_Curve:
      - serializedVersion: 2
        time: 0
        value: {x: -0.25420558, y: 0.21967092, z: 0.25330442}
        inSlope: {x: 0, y: 0, z: 0}
        outSlope: {x: 0, y: 0, z: 0}
        tangentMode: 0
      - serializedVersion: 2
        time: 0.09999943
        value: {x: -0.25420558, y: 0.21967092, z: 0.25330445}
        inSlope: {x: -1.4869286e-15, y: 7.434643e-16, z: -0}
        outSlope: {x: 0.00010332413, y: -0.000010436429, z: -0.00027119648}
        tangentMode: 0
      - serializedVersion: 2
        time: 0.1333332
        value: {x: -0.08293712, y: 0.20090261, z: -0.20323852}
        inSlope: {x: -0.00007335871, y: 0.0000087219505, z: 0.00019924818}
        outSlope: {x: -2.602125e-15, y: 0.00002480072, z: 0.000092656635}
        tangentMode: 0
      - serializedVersion: 2
        time: 0.16666603
        value: {x: -0.08293712, y: 0.20554128, z: -0.18700317}
        inSlope: {x: -1.1151965e-15, y: 0.13918674, z: 0.4871637}
        outSlope: {x: -2.6020505e-15, y: 0.13915987, z: 0.4870577}
        tangentMode: 0
      - serializedVersion: 2
        time: 0.19999981
        value: {x: -0.08293712, y: 0.21017995, z: -0.17076781}
        inSlope: {x: -1.1151646e-15, y: -0.00000021231995, z: -0.0000015413857}
        outSlope: {x: -2.602125e-15, y: 1.7347499e-15, z: -0.00001671707}
        tangentMode: 0
      - serializedVersion: 2
        time: 0.23333263
        value: {x: -0.08293712, y: 0.21017995, z: -0.17357543}
        inSlope: {x: -1.1151965e-15, y: 7.434643e-16, z: -0.00001671707}
        outSlope: {x: -0.0000011652822, y: 0.0000020991895, z: 0.0000026703865}
        tangentMode: 0
      - serializedVersion: 2
        time: 0.2666664
        value: {x: -0.06610668, y: 0.17600027, z: -0.17137817}
        inSlope: {x: 0.00000415649, y: -0.000010673064, z: 0.0000026703865}
        outSlope: {x: -8.6737497e-16, y: -0, z: -0.000025588475}
        tangentMode: 0
      - serializedVersion: 2
        time: 0.29999924
        value: {x: -0.06610668, y: 0.17600027, z: -0.17796996}
        inSlope: {x: -3.7173216e-16, y: -0, z: -0.4944345}
        outSlope: {x: -8.673502e-16, y: -0, z: -0.49436295}
        tangentMode: 0
      - serializedVersion: 2
        time: 0.33333302
        value: {x: -0.06610668, y: 0.17600027, z: -0.20433715}
        inSlope: {x: -3.7172152e-16, y: -0, z: -0.000008643571}
        outSlope: {x: 0.00040296174, y: -0, z: -1.7347499e-15}
        tangentMode: 0
      - serializedVersion: 2
        time: 0.36666584
        value: {x: 0.003046155, y: 0.17600027, z: -0.20433715}
        inSlope: {x: 0.00049822417, y: -0, z: -7.434643e-16}
        outSlope: {x: 2.7104694e-17, y: -0, z: -0.00002935321}
        tangentMode: 0
      - serializedVersion: 2
        time: 0.39999962
        value: {x: 0.003046155, y: 0.17600027, z: -0.16893676}
        inSlope: {x: 1.16162975e-17, y: -0, z: 0.000030250636}
        outSlope: {x: 2.7105468e-17, y: -0, z: -3.4694999e-15}
        tangentMode: 0
      - serializedVersion: 2
        time: 0.43333244
        value: {x: 0.003046155, y: 0.17600027, z: -0.16893676}
        inSlope: {x: 1.161663e-17, y: -0, z: -1.4869286e-15}
        outSlope: {x: -0.00007038989, y: -0.0001116346, z: 0.000020914376}
        tangentMode: 0
      - serializedVersion: 2
        time: 0.46666622
        value: {x: 0.06582081, y: 0.27615896, z: -0.18675902}
        inSlope: {x: 0.00007995017, y: 0.0001289095, z: -0.0000216598}
        outSlope: {x: 1.3010252e-15, y: 3.4694008e-15, z: -3.4694008e-15}
        tangentMode: 0
      m_PreInfinity: 2
      m_PostInfinity: 2
      m_RotationOrder: 4
    path: Tool_Tweezers02
  - curve:
      serializedVersion: 2
      m_Curve:
      - serializedVersion: 2
        time: 0
        value: {x: 0.008098871, y: 5.6736277e-10, z: -0.0012252554}
        inSlope: {x: 0, y: 0, z: 0}
        outSlope: {x: 0, y: 0, z: 0}
        tangentMode: 0
      - serializedVersion: 2
        time: 0.46666622
        value: {x: 0.008098871, y: 5.6736277e-10, z: -0.0012252554}
        inSlope: {x: 0, y: 0, z: 0}
        outSlope: {x: 0, y: 0, z: 0}
        tangentMode: 0
      m_PreInfinity: 2
      m_PostInfinity: 2
      m_RotationOrder: 4
    path: Tool_Tweezers02/Tool_Tweezers03
  m_ScaleCurves:
  - curve:
      serializedVersion: 2
      m_Curve:
      - serializedVersion: 2
        time: 0
        value: {x: 1, y: 1, z: 1}
        inSlope: {x: 0, y: 0, z: 0}
        outSlope: {x: 0, y: 0, z: 0}
        tangentMode: 0
      - serializedVersion: 2
        time: 0.46666622
        value: {x: 1, y: 1, z: 1}
        inSlope: {x: 0, y: 0, z: 0}
        outSlope: {x: 0, y: 0, z: 0}
        tangentMode: 0
      m_PreInfinity: 2
      m_PostInfinity: 2
      m_RotationOrder: 4
    path: Tool_Tweezers02
  - curve:
      serializedVersion: 2
      m_Curve:
      - serializedVersion: 2
        time: 0
        value: {x: 1, y: 1, z: 1}
        inSlope: {x: 0, y: 0, z: 0}
        outSlope: {x: 0, y: 0, z: 0}
        tangentMode: 0
      - serializedVersion: 2
        time: 0.46666622
        value: {x: 1, y: 1, z: 1}
        inSlope: {x: 0, y: 0, z: 0}
        outSlope: {x: 0, y: 0, z: 0}
        tangentMode: 0
      m_PreInfinity: 2
      m_PostInfinity: 2
      m_RotationOrder: 4
    path: Tool_Tweezers02/Tool_Tweezers03
  m_FloatCurves: []
  m_PPtrCurves: []
  m_SampleRate: 30
  m_WrapMode: 0
  m_Bounds:
    m_Center: {x: 0, y: 0, z: 0}
    m_Extent: {x: 0, y: 0, z: 0}
  m_ClipBindingConstant:
    genericBindings:
    - serializedVersion: 2
      path: 4162974765
      attribute: 1
      script: {fileID: 0}
      typeID: 4
      customType: 0
      isPPtrCurve: 0
    - serializedVersion: 2
      path: 4162974765
      attribute: 2
      script: {fileID: 0}
      typeID: 4
      customType: 0
      isPPtrCurve: 0
    - serializedVersion: 2
      path: 3787453774
      attribute: 2
      script: {fileID: 0}
      typeID: 4
      customType: 0
      isPPtrCurve: 0
    - serializedVersion: 2
      path: 3787453774
      attribute: 1
      script: {fileID: 0}
      typeID: 4
      customType: 0
      isPPtrCurve: 0
    - serializedVersion: 2
      path: 4162974765
      attribute: 3
      script: {fileID: 0}
      typeID: 4
      customType: 0
      isPPtrCurve: 0
    - serializedVersion: 2
      path: 3787453774
      attribute: 3
      script: {fileID: 0}
      typeID: 4
      customType: 0
      isPPtrCurve: 0
    pptrCurveMapping: []
  m_AnimationClipSettings:
    serializedVersion: 2
    m_AdditiveReferencePoseClip: {fileID: 0}
    m_AdditiveReferencePoseTime: 0
    m_StartTime: 0
    m_StopTime: 0.46666622
    m_OrientationOffsetY: 0
    m_Level: 0
    m_CycleOffset: 0
    m_HasAdditiveReferencePose: 0
    m_LoopTime: 0
    m_LoopBlend: 0
    m_LoopBlendOrientation: 0
    m_LoopBlendPositionY: 0
    m_LoopBlendPositionXZ: 0
    m_KeepOriginalOrientation: 0
    m_KeepOriginalPositionY: 0
    m_KeepOriginalPositionXZ: 0
    m_HeightFromFeet: 0
    m_Mirror: 0
  m_EditorCurves: []
  m_EulerEditorCurves: []
  m_HasGenericRootTransform: 0
  m_HasMotionFloatCurves: 0
  m_GenerateMotionCurves: 0
  m_Events:
  - time: 0
    functionName: OnClipStart
    data: 
    objectReferenceParameter: {fileID: 0}
    floatParameter: 0
    intParameter: 10500206
    messageOptions: 0
  - time: 0.46666622
    functionName: OnClipEnd
    data: 
    objectReferenceParameter: {fileID: 0}
    floatParameter: 0
    intParameter: 10500206
    messageOptions: 0
