%YAML 1.1
%TAG !u! tag:unity3d.com,2011:
--- !u!74 &7400000
AnimationClip:
  m_ObjectHideFlags: 0
  m_PrefabParentObject: {fileID: 0}
  m_PrefabInternal: {fileID: 0}
  m_Name: Anim_10500038
  serializedVersion: 6
  m_Legacy: 0
  m_Compressed: 0
  m_UseHighQualityCurve: 1
  m_RotationCurves:
  - curve:
      serializedVersion: 2
      m_Curve:
      - serializedVersion: 2
        time: 0
        value: {x: 0.41014633, y: 0.41014633, z: 0.5760035, w: 0.5760035}
        inSlope: {x: 0, y: 0, z: 0, w: 0}
        outSlope: {x: 0, y: 0, z: 0, w: 0}
        tangentMode: 0
      - serializedVersion: 2
        time: 0.06666666
        value: {x: 0.41014633, y: 0.41014633, z: 0.5760035, w: 0.5760035}
        inSlope: {x: 0, y: 0, z: 0, w: 0}
        outSlope: {x: 0, y: 0, z: 0, w: 0}
        tangentMode: 0
      - serializedVersion: 2
        time: 0.100000024
        value: {x: 0.41014633, y: 0.41014633, z: 0.5760035, w: 0.5760035}
        inSlope: {x: 2.7777605, y: 2.7777605, z: -2.9167736, w: -2.9167736}
        outSlope: {x: 2.7777605, y: 2.7777605, z: -2.9167736, w: -2.9167736}
        tangentMode: 0
      - serializedVersion: 2
        time: 0.13333333
        value: {x: 0.5953302, y: 0.5953302, z: 0.3815521, w: 0.3815521}
        inSlope: {x: 2.7777605, y: 2.7777605, z: -2.9167736, w: -2.9167736}
        outSlope: {x: 2.7777605, y: 2.7777605, z: -2.9167736, w: -2.9167736}
        tangentMode: 0
      - serializedVersion: 2
        time: 0.16666669
        value: {x: 0.5953302, y: 0.5953302, z: 0.3815521, w: 0.3815521}
        inSlope: {x: 0, y: 0, z: 0, w: 0}
        outSlope: {x: 0, y: 0, z: 0, w: 0}
        tangentMode: 0
      - serializedVersion: 2
        time: 0.46666664
        value: {x: 0.5953302, y: 0.5953302, z: 0.3815521, w: 0.3815521}
        inSlope: {x: 0, y: 0, z: 0, w: 0}
        outSlope: {x: 0, y: 0, z: 0, w: 0}
        tangentMode: 0
      m_PreInfinity: 2
      m_PostInfinity: 2
      m_RotationOrder: 4
    path: Tool_HandPinch02
  m_CompressedRotationCurves: []
  m_EulerCurves: []
  m_PositionCurves:
  - curve:
      serializedVersion: 2
      m_Curve:
      - serializedVersion: 2
        time: 0
        value: {x: -0.45385474, y: 0.059020996, z: 0.22158071}
        inSlope: {x: 0, y: 0, z: 0}
        outSlope: {x: 0, y: 0, z: 0}
        tangentMode: 0
      - serializedVersion: 2
        time: 0.099999964
        value: {x: -0.45385474, y: 0.059020996, z: 0.22158071}
        inSlope: {x: -4.460722e-15, y: 1.8586342e-16, z: -0}
        outSlope: {x: -0.000091212125, y: 0.000010456871, z: 0.00001806097}
        tangentMode: 0
      - serializedVersion: 2
        time: 0.13333333
        value: {x: -0.14935777, y: 0.023196924, z: 0.15238845}
        inSlope: {x: 0.6645532, y: -0.03795501, z: 0.000024447176}
        outSlope: {x: 0.664667, y: -0.03796741, z: 0.0000028463614}
        tangentMode: 0
      - serializedVersion: 2
        time: 0.16666663
        value: {x: -0.14197259, y: 0.022775061, z: 0.1538533}
        inSlope: {x: 0.4072386, y: -0.03796741, z: 0.057338312}
        outSlope: {x: 0.40723097, y: -0.03796433, z: 0.05733414}
        tangentMode: 0
      - serializedVersion: 2
        time: 0.19999999
        value: {x: -0.122208565, y: 0.010013331, z: 0.15621078}
        inSlope: {x: 0.7084428, y: -0.5063628, z: 0.058592223}
        outSlope: {x: 0.70844936, y: -0.5063692, z: 0.058596335}
        tangentMode: 0
      - serializedVersion: 2
        time: 0.23333329
        value: {x: -0.094742745, y: -0.010982763, z: 0.15775955}
        inSlope: {x: 0.88623214, y: -0.703127, z: 0.08354303}
        outSlope: {x: 0.88622093, y: -0.7031173, z: 0.08354176}
        tangentMode: 0
      - serializedVersion: 2
        time: 0.26666665
        value: {x: -0.063126534, y: -0.03686167, z: 0.16178024}
        inSlope: {x: 0.93892205, y: -0.68846947, z: 0.13080607}
        outSlope: {x: 0.9389335, y: -0.6884776, z: 0.1308037}
        tangentMode: 0
      - serializedVersion: 2
        time: 0.29999995
        value: {x: -0.032147378, y: -0.0568812, z: 0.16647995}
        inSlope: {x: 0.8831733, y: -0.6353783, z: 0.09887475}
        outSlope: {x: 0.8831603, y: -0.63536996, z: 0.09887329}
        tangentMode: 0
      - serializedVersion: 2
        time: 0.3333333
        value: {x: -0.0042485893, y: -0.07922007, z: 0.16837204}
        inSlope: {x: 0.7099843, y: -0.53283143, z: -0.0000022210884}
        outSlope: {x: 0.70999265, y: -0.53283685, z: 5.2041755e-15}
        tangentMode: 0
      - serializedVersion: 2
        time: 0.36666662
        value: {x: 0.015185386, y: -0.092403665, z: 0.16837204}
        inSlope: {x: 0.40549502, y: -0.29663193, z: 2.230361e-15}
        outSlope: {x: 0.4054896, y: -0.29662788, z: 5.204166e-15}
        tangentMode: 0
      - serializedVersion: 2
        time: 0.39999998
        value: {x: 0.022784263, y: -0.09899546, z: 0.16837204}
        inSlope: {x: -0.0000015294376, y: 0.0000018253024, z: 2.230357e-15}
        outSlope: {x: -0.000009282012, y: 0.0000038773733, z: 0.000001611351}
        tangentMode: 0
      - serializedVersion: 2
        time: 0.43333328
        value: {x: -0.21842667, y: 0.022937521, z: 0.22220504}
        inSlope: {x: -7.236377, y: 3.6580129, z: 1.6150016}
        outSlope: {x: -7.2362185, y: 3.6579378, z: 1.6149652}
        tangentMode: 0
      - serializedVersion: 2
        time: 0.46666664
        value: {x: -0.4596376, y: 0.1448705, z: 0.27603805}
        inSlope: {x: 0.000060001697, y: -0.000027122347, z: -0.000012757618}
        outSlope: {x: -6.9389007e-15, y: 1.7347252e-15, z: 5.2041755e-15}
        tangentMode: 0
      m_PreInfinity: 2
      m_PostInfinity: 2
      m_RotationOrder: 4
    path: Tool_HandPinch02
  m_ScaleCurves:
  - curve:
      serializedVersion: 2
      m_Curve:
      - serializedVersion: 2
        time: 0
        value: {x: 1, y: 1, z: 1}
        inSlope: {x: 0, y: 0, z: 0}
        outSlope: {x: 0, y: 0, z: 0}
        tangentMode: 0
      - serializedVersion: 2
        time: 0.46666664
        value: {x: 1, y: 1, z: 1}
        inSlope: {x: 0, y: 0, z: 0}
        outSlope: {x: 0, y: 0, z: 0}
        tangentMode: 0
      m_PreInfinity: 2
      m_PostInfinity: 2
      m_RotationOrder: 4
    path: Tool_HandPinch02
  m_FloatCurves: []
  m_PPtrCurves: []
  m_SampleRate: 30
  m_WrapMode: 0
  m_Bounds:
    m_Center: {x: 0, y: 0, z: 0}
    m_Extent: {x: 0, y: 0, z: 0}
  m_ClipBindingConstant:
    genericBindings:
    - serializedVersion: 2
      path: 651062355
      attribute: 1
      script: {fileID: 0}
      typeID: 4
      customType: 0
      isPPtrCurve: 0
    - serializedVersion: 2
      path: 651062355
      attribute: 2
      script: {fileID: 0}
      typeID: 4
      customType: 0
      isPPtrCurve: 0
    - serializedVersion: 2
      path: 651062355
      attribute: 3
      script: {fileID: 0}
      typeID: 4
      customType: 0
      isPPtrCurve: 0
    pptrCurveMapping: []
  m_AnimationClipSettings:
    serializedVersion: 2
    m_AdditiveReferencePoseClip: {fileID: 0}
    m_AdditiveReferencePoseTime: 0
    m_StartTime: 0
    m_StopTime: 0.46666664
    m_OrientationOffsetY: 0
    m_Level: 0
    m_CycleOffset: 0
    m_HasAdditiveReferencePose: 0
    m_LoopTime: 0
    m_LoopBlend: 0
    m_LoopBlendOrientation: 0
    m_LoopBlendPositionY: 0
    m_LoopBlendPositionXZ: 0
    m_KeepOriginalOrientation: 0
    m_KeepOriginalPositionY: 0
    m_KeepOriginalPositionXZ: 0
    m_HeightFromFeet: 0
    m_Mirror: 0
  m_EditorCurves: []
  m_EulerEditorCurves: []
  m_HasGenericRootTransform: 0
  m_HasMotionFloatCurves: 0
  m_GenerateMotionCurves: 0
  m_Events:
  - time: 0
    functionName: OnClipStart
    data: 
    objectReferenceParameter: {fileID: 0}
    floatParameter: 0
    intParameter: 10500038
    messageOptions: 0
  - time: 0.46666664
    functionName: OnClipEnd
    data: 
    objectReferenceParameter: {fileID: 0}
    floatParameter: 0
    intParameter: 10500038
    messageOptions: 0
