%YAML 1.1
%TAG !u! tag:unity3d.com,2011:
--- !u!74 &7400000
AnimationClip:
  m_ObjectHideFlags: 0
  m_PrefabParentObject: {fileID: 0}
  m_PrefabInternal: {fileID: 0}
  m_Name: Anim_10500072
  serializedVersion: 6
  m_Legacy: 0
  m_Compressed: 0
  m_UseHighQualityCurve: 1
  m_RotationCurves:
  - curve:
      serializedVersion: 2
      m_Curve:
      - serializedVersion: 2
        time: 0
        value: {x: 0.6165356, y: 0.56856096, z: 0.4035637, w: 0.36573026}
        inSlope: {x: 0, y: 0, z: 0, w: 0}
        outSlope: {x: 0, y: 0, z: 0, w: 0}
        tangentMode: 0
      - serializedVersion: 2
        time: 0.23333335
        value: {x: 0.6165356, y: 0.56856096, z: 0.4035637, w: 0.36573026}
        inSlope: {x: 0, y: 0, z: 0, w: 0}
        outSlope: {x: 0, y: 0, z: 0, w: 0}
        tangentMode: 0
      - serializedVersion: 2
        time: 0.2666667
        value: {x: 0.6165356, y: 0.56856096, z: 0.4035637, w: 0.36573026}
        inSlope: {x: -9.248044, y: 4.932266, z: 0.56547457, w: -5.4859595}
        outSlope: {x: -9.248044, y: 4.932266, z: 0.56547457, w: -5.4859595}
        tangentMode: 0
      - serializedVersion: 2
        time: 0.3
        value: {x: -0.000000053487923, y: 0.8973784, z: 0.44126198, w: -0.000000026301263}
        inSlope: {x: -9.248044, y: 4.932266, z: 0.56547457, w: -5.4859595}
        outSlope: {x: -9.248044, y: 4.932266, z: 0.56547457, w: -5.4859595}
        tangentMode: 0
      - serializedVersion: 2
        time: 0.33333337
        value: {x: -0.000000053487923, y: 0.8973784, z: 0.44126198, w: -0.000000026301263}
        inSlope: {x: 0, y: 0, z: 0, w: 0}
        outSlope: {x: 0, y: 0, z: 0, w: 0}
        tangentMode: 0
      - serializedVersion: 2
        time: 0.46666664
        value: {x: -0.000000053487923, y: 0.8973784, z: 0.44126198, w: -0.000000026301263}
        inSlope: {x: 0, y: 0, z: 0, w: 0}
        outSlope: {x: 0, y: 0, z: 0, w: 0}
        tangentMode: 0
      m_PreInfinity: 2
      m_PostInfinity: 2
      m_RotationOrder: 4
    path: Tool_HandPress02
  m_CompressedRotationCurves: []
  m_EulerCurves: []
  m_PositionCurves:
  - curve:
      serializedVersion: 2
      m_Curve:
      - serializedVersion: 2
        time: 0
        value: {x: -0.45514992, y: 0.054351807, z: 0.17466307}
        inSlope: {x: 0, y: 0, z: 0}
        outSlope: {x: 0, y: 0, z: 0}
        tangentMode: 0
      - serializedVersion: 2
        time: 0.26666665
        value: {x: -0.45514992, y: 0.054351807, z: 0.17466307}
        inSlope: {x: -0, y: 3.7172618e-16, z: 1.4869047e-15}
        outSlope: {x: 0.000028989316, y: -0.000011721745, z: 0.0000038134267}
        tangentMode: 0
      - serializedVersion: 2
        time: 0.29999995
        value: {x: -0.03374794, y: -0.15267181, z: 0.20188475}
        inSlope: {x: 0.00004601923, y: -0.000019837564, z: 0.0000038134267}
        outSlope: {x: -2.1684026e-16, y: -0.0000021588476, z: 0.00001032826}
        tangentMode: 0
      - serializedVersion: 2
        time: 0.3333333
        value: {x: -0.03374794, y: -0.13912201, z: 0.17185545}
        inSlope: {x: -9.2931545e-17, y: -0.0000021588476, z: -0.27464765}
        outSlope: {x: -2.1684065e-16, y: -1.7347252e-15, z: -0.27465898}
        tangentMode: 0
      - serializedVersion: 2
        time: 0.36666662
        value: {x: -0.03374794, y: -0.13912201, z: 0.16880369}
        inSlope: {x: -9.293171e-17, y: -7.434537e-16, z: -0.09704762}
        outSlope: {x: 0.00000039938217, y: -1.7347221e-15, z: -0.09704416}
        tangentMode: 0
      - serializedVersion: 2
        time: 0.39999998
        value: {x: -0.035823137, y: -0.13912201, z: 0.16538572}
        inSlope: {x: -0.1867674, y: -7.4345236e-16, z: 0.0000027615122}
        outSlope: {x: -0.18677361, y: 0.00000455992, z: 0.00000051258667}
        tangentMode: 0
      - serializedVersion: 2
        time: 0.43333328
        value: {x: -0.19155386, y: -0.09249115, z: 0.21262693}
        inSlope: {x: -4.6252747, y: 1.3989354, z: 1.4172428}
        outSlope: {x: -4.62518, y: 1.3989048, z: 1.4172179}
        tangentMode: 0
      - serializedVersion: 2
        time: 0.46666664
        value: {x: -0.34417275, y: -0.04586029, z: 0.25986814}
        inSlope: {x: 0.000032505468, y: -0.000011272559, z: -0.0000090667245}
        outSlope: {x: -2.4781791e-15, y: -8.673626e-16, z: 6.9389007e-15}
        tangentMode: 0
      m_PreInfinity: 2
      m_PostInfinity: 2
      m_RotationOrder: 4
    path: Tool_HandPress02
  m_ScaleCurves:
  - curve:
      serializedVersion: 2
      m_Curve:
      - serializedVersion: 2
        time: 0
        value: {x: 1, y: 1, z: 1}
        inSlope: {x: 0, y: 0, z: 0}
        outSlope: {x: 0, y: 0, z: 0}
        tangentMode: 0
      - serializedVersion: 2
        time: 0.46666664
        value: {x: 1, y: 1, z: 1}
        inSlope: {x: 0, y: 0, z: 0}
        outSlope: {x: 0, y: 0, z: 0}
        tangentMode: 0
      m_PreInfinity: 2
      m_PostInfinity: 2
      m_RotationOrder: 4
    path: Tool_HandPress02
  m_FloatCurves: []
  m_PPtrCurves: []
  m_SampleRate: 30
  m_WrapMode: 0
  m_Bounds:
    m_Center: {x: 0, y: 0, z: 0}
    m_Extent: {x: 0, y: 0, z: 0}
  m_ClipBindingConstant:
    genericBindings:
    - serializedVersion: 2
      path: 2019931156
      attribute: 1
      script: {fileID: 0}
      typeID: 4
      customType: 0
      isPPtrCurve: 0
    - serializedVersion: 2
      path: 2019931156
      attribute: 2
      script: {fileID: 0}
      typeID: 4
      customType: 0
      isPPtrCurve: 0
    - serializedVersion: 2
      path: 2019931156
      attribute: 3
      script: {fileID: 0}
      typeID: 4
      customType: 0
      isPPtrCurve: 0
    pptrCurveMapping: []
  m_AnimationClipSettings:
    serializedVersion: 2
    m_AdditiveReferencePoseClip: {fileID: 0}
    m_AdditiveReferencePoseTime: 0
    m_StartTime: 0
    m_StopTime: 0.46666664
    m_OrientationOffsetY: 0
    m_Level: 0
    m_CycleOffset: 0
    m_HasAdditiveReferencePose: 0
    m_LoopTime: 0
    m_LoopBlend: 0
    m_LoopBlendOrientation: 0
    m_LoopBlendPositionY: 0
    m_LoopBlendPositionXZ: 0
    m_KeepOriginalOrientation: 0
    m_KeepOriginalPositionY: 0
    m_KeepOriginalPositionXZ: 0
    m_HeightFromFeet: 0
    m_Mirror: 0
  m_EditorCurves: []
  m_EulerEditorCurves: []
  m_HasGenericRootTransform: 0
  m_HasMotionFloatCurves: 0
  m_GenerateMotionCurves: 0
  m_Events:
  - time: 0
    functionName: OnClipStart
    data: 
    objectReferenceParameter: {fileID: 0}
    floatParameter: 0
    intParameter: 10500072
    messageOptions: 0
  - time: 0.46666664
    functionName: OnClipEnd
    data: 
    objectReferenceParameter: {fileID: 0}
    floatParameter: 0
    intParameter: 10500072
    messageOptions: 0
