%YAML 1.1
%TAG !u! tag:unity3d.com,2011:
--- !u!74 &7400000
AnimationClip:
  m_ObjectHideFlags: 0
  m_PrefabParentObject: {fileID: 0}
  m_PrefabInternal: {fileID: 0}
  m_Name: Anim_10500105
  serializedVersion: 6
  m_Legacy: 0
  m_Compressed: 0
  m_UseHighQualityCurve: 1
  m_RotationCurves:
  - curve:
      serializedVersion: 2
      m_Curve:
      - serializedVersion: 2
        time: 0
        value: {x: 0.7071068, y: 2.0030707e-16, z: 0.7071068, w: -2.0030707e-16}
        inSlope: {x: 0, y: 0, z: 0, w: 0}
        outSlope: {x: 0, y: 0, z: 0, w: 0}
        tangentMode: 0
      - serializedVersion: 2
        time: 0.3333335
        value: {x: 0.7071068, y: 2.0030707e-16, z: 0.7071068, w: -2.0030707e-16}
        inSlope: {x: 0, y: 0, z: 0, w: 0}
        outSlope: {x: 0, y: 0, z: 0, w: 0}
        tangentMode: 0
      - serializedVersion: 2
        time: 0.3666668
        value: {x: 0.7071068, y: 2.0030707e-16, z: 0.7071068, w: -2.0030707e-16}
        inSlope: {x: -3.106617, y: 7.5000196, z: -3.106617, w: -7.5000196}
        outSlope: {x: -3.106617, y: 7.5000196, z: -3.106617, w: -7.5000196}
        tangentMode: 0
      - serializedVersion: 2
        time: 0.4000001
        value: {x: 0.49999923, y: 0.50000083, z: 0.49999923, w: -0.50000083}
        inSlope: {x: -10.6065855, y: 10.606602, z: -10.6065855, w: -10.606602}
        outSlope: {x: -10.6065855, y: 10.606602, z: -10.6065855, w: -10.606602}
        tangentMode: 0
      - serializedVersion: 2
        time: 0.43333352
        value: {x: -8.659561e-17, y: 0.7071068, z: -8.659561e-17, w: -0.7071068}
        inSlope: {x: -7.4999685, y: 3.1065817, z: -7.4999685, w: -3.1065817}
        outSlope: {x: -7.4999685, y: 3.1065817, z: -7.4999685, w: -3.1065817}
        tangentMode: 0
      - serializedVersion: 2
        time: 0.4666667
        value: {x: -8.659561e-17, y: 0.7071068, z: -8.659561e-17, w: -0.7071068}
        inSlope: {x: 0, y: 0, z: 0, w: 0}
        outSlope: {x: 0, y: 0, z: 0, w: 0}
        tangentMode: 0
      m_PreInfinity: 2
      m_PostInfinity: 2
      m_RotationOrder: 4
    path: Tool_Screwdriver02
  m_CompressedRotationCurves: []
  m_EulerCurves: []
  m_PositionCurves:
  - curve:
      serializedVersion: 2
      m_Curve:
      - serializedVersion: 2
        time: 0
        value: {x: -0.20692414, y: 0.30462563, z: 0.2250883}
        inSlope: {x: 0, y: 0, z: 0}
        outSlope: {x: 0, y: 0, z: 0}
        tangentMode: 0
      - serializedVersion: 2
        time: 0.100000024
        value: {x: -0.20692414, y: 0.30462563, z: 0.2250883}
        inSlope: {x: -0, y: 2.9738147e-15, z: 7.434537e-16}
        outSlope: {x: -0.0000014867868, y: 0.0000064769984, z: -0.00000005282315}
        tangentMode: 0
      - serializedVersion: 2
        time: 0.13333333
        value: {x: -0.19564027, y: 0.2281791, z: 0.20360392}
        inSlope: {x: 0.00000064195245, y: -0.000012681655, z: -0.63963723}
        outSlope: {x: -0, y: 5.204157e-15, z: -0.6396159}
        tangentMode: 0
      - serializedVersion: 2
        time: 0.20000005
        value: {x: -0.19564027, y: 0.2281791, z: 0.16930217}
        inSlope: {x: -0, y: 2.230361e-15, z: -0.076904505}
        outSlope: {x: 0.0000058422397, y: -0.000004452022, z: -0.07690441}
        tangentMode: 0
      - serializedVersion: 2
        time: 0.23333335
        value: {x: -0.10726136, y: 0.14310372, z: 0.16844767}
        inSlope: {x: 2.6553378, y: -2.5556433, z: -0.069581546}
        outSlope: {x: 2.6553144, y: -2.5556273, z: -0.06958086}
        tangentMode: 0
      - serializedVersion: 2
        time: 0.26666665
        value: {x: -0.018618608, y: 0.05780327, z: 0.1646635}
        inSlope: {x: 0.050498795, y: -0.000013535209, z: -0.3405779}
        outSlope: {x: 0.050485123, y: 1.3010392e-15, z: -0.3405589}
        tangentMode: 0
      - serializedVersion: 2
        time: 0.30000007
        value: {x: -0.01805766, y: 0.05780327, z: 0.14269084}
        inSlope: {x: -0.00000014253305, y: 5.575883e-16, z: -0.63718915}
        outSlope: {x: -0.00000040976636, y: 1.3010439e-15, z: -0.6372125}
        tangentMode: 0
      - serializedVersion: 2
        time: 0.33333337
        value: {x: -0.018060638, y: 0.05780327, z: 0.122183025}
        inSlope: {x: -0.00000040976636, y: 5.5759025e-16, z: -0.15380773}
        outSlope: {x: -2.1684065e-16, y: 1.3010439e-15, z: -0.15380855}
        tangentMode: 0
      - serializedVersion: 2
        time: 0.39999998
        value: {x: -0.018060638, y: 0.05780327, z: 0.12047404}
        inSlope: {x: -9.293171e-17, y: 5.5759025e-16, z: 7.434537e-16}
        outSlope: {x: -2.1683987e-16, y: 1.3010392e-15, z: 1.7347189e-15}
        tangentMode: 0
      - serializedVersion: 2
        time: 0.4333334
        value: {x: -0.018060638, y: 0.05780327, z: 0.12047404}
        inSlope: {x: -9.293138e-17, y: 5.575883e-16, z: 7.4345104e-16}
        outSlope: {x: -0.000044025335, y: 1.3010439e-15, z: 0.000029012306}
        tangentMode: 0
      - serializedVersion: 2
        time: 0.4666667
        value: {x: -0.27990144, y: 0.05780327, z: 0.27965373}
        inSlope: {x: 0.0000009442837, y: 5.5759025e-16, z: 0.0000013386951}
        outSlope: {x: -5.2041755e-15, y: 1.3010439e-15, z: 5.2041755e-15}
        tangentMode: 0
      m_PreInfinity: 2
      m_PostInfinity: 2
      m_RotationOrder: 4
    path: Tool_Screwdriver02
  m_ScaleCurves:
  - curve:
      serializedVersion: 2
      m_Curve:
      - serializedVersion: 2
        time: 0
        value: {x: 1, y: 1, z: 1}
        inSlope: {x: 0, y: 0, z: 0}
        outSlope: {x: 0, y: 0, z: 0}
        tangentMode: 0
      - serializedVersion: 2
        time: 0.4666667
        value: {x: 1, y: 1, z: 1}
        inSlope: {x: 0, y: 0, z: 0}
        outSlope: {x: 0, y: 0, z: 0}
        tangentMode: 0
      m_PreInfinity: 2
      m_PostInfinity: 2
      m_RotationOrder: 4
    path: Tool_Screwdriver02
  m_FloatCurves: []
  m_PPtrCurves: []
  m_SampleRate: 30
  m_WrapMode: 0
  m_Bounds:
    m_Center: {x: 0, y: 0, z: 0}
    m_Extent: {x: 0, y: 0, z: 0}
  m_ClipBindingConstant:
    genericBindings:
    - serializedVersion: 2
      path: 1491648166
      attribute: 1
      script: {fileID: 0}
      typeID: 4
      customType: 0
      isPPtrCurve: 0
    - serializedVersion: 2
      path: 1491648166
      attribute: 2
      script: {fileID: 0}
      typeID: 4
      customType: 0
      isPPtrCurve: 0
    - serializedVersion: 2
      path: 1491648166
      attribute: 3
      script: {fileID: 0}
      typeID: 4
      customType: 0
      isPPtrCurve: 0
    pptrCurveMapping: []
  m_AnimationClipSettings:
    serializedVersion: 2
    m_AdditiveReferencePoseClip: {fileID: 0}
    m_AdditiveReferencePoseTime: 0
    m_StartTime: 0
    m_StopTime: 0.4666667
    m_OrientationOffsetY: 0
    m_Level: 0
    m_CycleOffset: 0
    m_HasAdditiveReferencePose: 0
    m_LoopTime: 0
    m_LoopBlend: 0
    m_LoopBlendOrientation: 0
    m_LoopBlendPositionY: 0
    m_LoopBlendPositionXZ: 0
    m_KeepOriginalOrientation: 0
    m_KeepOriginalPositionY: 0
    m_KeepOriginalPositionXZ: 0
    m_HeightFromFeet: 0
    m_Mirror: 0
  m_EditorCurves: []
  m_EulerEditorCurves: []
  m_HasGenericRootTransform: 0
  m_HasMotionFloatCurves: 0
  m_GenerateMotionCurves: 0
  m_Events:
  - time: 0
    functionName: OnClipStart
    data: 
    objectReferenceParameter: {fileID: 0}
    floatParameter: 0
    intParameter: 10500105
    messageOptions: 0
  - time: 0.4666667
    functionName: OnClipEnd
    data: 
    objectReferenceParameter: {fileID: 0}
    floatParameter: 0
    intParameter: 10500105
    messageOptions: 0
