%YAML 1.1
%TAG !u! tag:unity3d.com,2011:
--- !u!74 &7400000
AnimationClip:
  m_ObjectHideFlags: 0
  m_PrefabParentObject: {fileID: 0}
  m_PrefabInternal: {fileID: 0}
  m_Name: Anim_10500014
  serializedVersion: 6
  m_Legacy: 0
  m_Compressed: 0
  m_UseHighQualityCurve: 1
  m_RotationCurves:
  - curve:
      serializedVersion: 2
      m_Curve:
      - serializedVersion: 2
        time: 0
        value: {x: -0.7071068, y: 0, z: -0, w: 0.7071068}
        inSlope: {x: 0, y: 0, z: 0, w: 0}
        outSlope: {x: 0, y: 0, z: 0, w: 0}
        tangentMode: 0
      - serializedVersion: 2
        time: 0.4666667
        value: {x: -0.7071068, y: 0, z: -0, w: 0.7071068}
        inSlope: {x: 0, y: 0, z: 0, w: 0}
        outSlope: {x: 0, y: 0, z: 0, w: 0}
        tangentMode: 0
      m_PreInfinity: 2
      m_PostInfinity: 2
      m_RotationOrder: 4
    path: 
  - curve:
      serializedVersion: 2
      m_Curve:
      - serializedVersion: 2
        time: 0.00000023841858
        value: {x: -2.290416e-18, y: -0.7255621, z: 2.290416e-18, w: 0.6881568}
        inSlope: {x: 0, y: 0, z: 0, w: 0}
        outSlope: {x: 0, y: 0, z: 0, w: 0}
        tangentMode: 0
      - serializedVersion: 2
        time: 0.4666667
        value: {x: -2.290416e-18, y: -0.7255621, z: 2.290416e-18, w: 0.6881568}
        inSlope: {x: 0, y: 0, z: 0, w: 0}
        outSlope: {x: 0, y: 0, z: 0, w: 0}
        tangentMode: 0
      m_PreInfinity: 2
      m_PostInfinity: 2
      m_RotationOrder: 4
    path: HangPoint_Display
  - curve:
      serializedVersion: 2
      m_Curve:
      - serializedVersion: 2
        time: 0
        value: {x: 0, y: -0, z: -0, w: 1}
        inSlope: {x: 0, y: 0, z: 0, w: 0}
        outSlope: {x: 0, y: 0, z: 0, w: 0}
        tangentMode: 0
      - serializedVersion: 2
        time: 0.4666667
        value: {x: 0, y: -0, z: -0, w: 1}
        inSlope: {x: 0, y: 0, z: 0, w: 0}
        outSlope: {x: 0, y: 0, z: 0, w: 0}
        tangentMode: 0
      m_PreInfinity: 2
      m_PostInfinity: 2
      m_RotationOrder: 4
    path: HangPoint_CopperFoil
  - curve:
      serializedVersion: 2
      m_Curve:
      - serializedVersion: 2
        time: 0
        value: {x: 0, y: -0, z: -0, w: 1}
        inSlope: {x: 0, y: 0, z: 0, w: 0}
        outSlope: {x: 0, y: 0, z: 0, w: 0}
        tangentMode: 0
      - serializedVersion: 2
        time: 0.16666675
        value: {x: 0, y: -0, z: -0, w: 1}
        inSlope: {x: -1.7852584e-13, y: 0, z: 0, w: 0}
        outSlope: {x: -1.7852584e-13, y: 0, z: 0, w: 0}
        tangentMode: 0
      - serializedVersion: 2
        time: 0.20000005
        value: {x: -1.1901712e-14, y: 0, z: -0, w: 1}
        inSlope: {x: -0.26178446, y: 0, z: 0, w: -0.0022843338}
        outSlope: {x: -0.26178446, y: 0, z: 0, w: -0.0022843338}
        tangentMode: 0
      - serializedVersion: 2
        time: 0.23333359
        value: {x: -0.017452406, y: 0, z: -0, w: 0.9998477}
        inSlope: {x: -0.26178446, y: -3.7509457e-12, z: -6.5473e-14, w: -0.0022843338}
        outSlope: {x: -0.26178446, y: -3.7509457e-12, z: -6.5473e-14, w: -0.0022843338}
        tangentMode: 0
      - serializedVersion: 2
        time: 0.3333335
        value: {x: -0.008725183, y: -0.017451786, z: -0.00015229902, w: 0.9998096}
        inSlope: {x: 0.17997707, y: -0.35988486, z: 0.0000001383014, w: -0.004711752}
        outSlope: {x: 0.17997707, y: -0.35988486, z: 0.0000001383014, w: -0.004711752}
        tangentMode: 0
      - serializedVersion: 2
        time: 0.4000001
        value: {x: 0, y: -0.034899496, z: -0, w: 0.99939084}
        inSlope: {x: 0.040896498, y: 0.44170517, z: 0.0012048056, w: 0.006560689}
        outSlope: {x: 0.040896498, y: 0.44170517, z: 0.0012048056, w: 0.006560689}
        tangentMode: 0
      - serializedVersion: 2
        time: 0.4333334
        value: {x: 0, y: -0, z: -0, w: 1}
        inSlope: {x: 0, y: 0.52349293, z: 0, w: 0.0091374}
        outSlope: {x: 0, y: 0.52349293, z: 0, w: 0.0091374}
        tangentMode: 0
      - serializedVersion: 2
        time: 0.4666667
        value: {x: 0, y: 0.0043624686, z: 0, w: 1.0000762}
        inSlope: {x: 0, y: -0.13087231, z: 0, w: -0.002283448}
        outSlope: {x: 0, y: -0.13087231, z: 0, w: -0.002283448}
        tangentMode: 0
      m_PreInfinity: 2
      m_PostInfinity: 2
      m_RotationOrder: 4
    path: HangPoint_MiddleBracket
  - curve:
      serializedVersion: 2
      m_Curve:
      - serializedVersion: 2
        time: 0
        value: {x: 0, y: -0, z: -0, w: 1}
        inSlope: {x: 0, y: 0, z: 0, w: 0}
        outSlope: {x: 0, y: 0, z: 0, w: 0}
        tangentMode: 0
      - serializedVersion: 2
        time: 0.4666667
        value: {x: 0, y: -0, z: -0, w: 1}
        inSlope: {x: 0, y: 0, z: 0, w: 0}
        outSlope: {x: 0, y: 0, z: 0, w: 0}
        tangentMode: 0
      m_PreInfinity: 2
      m_PostInfinity: 2
      m_RotationOrder: 4
    path: HangPoint_SpeakerBox
  - curve:
      serializedVersion: 2
      m_Curve:
      - serializedVersion: 2
        time: 0
        value: {x: 0, y: -0, z: -0, w: 1}
        inSlope: {x: 0, y: 0, z: 0, w: 0}
        outSlope: {x: 0, y: 0, z: 0, w: 0}
        tangentMode: 0
      - serializedVersion: 2
        time: 0.4666667
        value: {x: 0, y: -0, z: -0, w: 1}
        inSlope: {x: 0, y: 0, z: 0, w: 0}
        outSlope: {x: 0, y: 0, z: 0, w: 0}
        tangentMode: 0
      m_PreInfinity: 2
      m_PostInfinity: 2
      m_RotationOrder: 4
    path: HangPoint_Mainboard
  - curve:
      serializedVersion: 2
      m_Curve:
      - serializedVersion: 2
        time: 0
        value: {x: 0, y: -0, z: -0, w: 1}
        inSlope: {x: 0, y: 0, z: 0, w: 0}
        outSlope: {x: 0, y: 0, z: 0, w: 0}
        tangentMode: 0
      - serializedVersion: 2
        time: 0.4666667
        value: {x: 0, y: -0, z: -0, w: 1}
        inSlope: {x: 0, y: 0, z: 0, w: 0}
        outSlope: {x: 0, y: 0, z: 0, w: 0}
        tangentMode: 0
      m_PreInfinity: 2
      m_PostInfinity: 2
      m_RotationOrder: 4
    path: HangPoint_RearHousing
  - curve:
      serializedVersion: 2
      m_Curve:
      - serializedVersion: 2
        time: 0
        value: {x: 0, y: -0, z: -0, w: 1}
        inSlope: {x: 0, y: 0, z: 0, w: 0}
        outSlope: {x: 0, y: 0, z: 0, w: 0}
        tangentMode: 0
      - serializedVersion: 2
        time: 0.4666667
        value: {x: 0, y: -0, z: -0, w: 1}
        inSlope: {x: 0, y: 0, z: 0, w: 0}
        outSlope: {x: 0, y: 0, z: 0, w: 0}
        tangentMode: 0
      m_PreInfinity: 2
      m_PostInfinity: 2
      m_RotationOrder: 4
    path: HangPoint_SimTray
  m_CompressedRotationCurves: []
  m_EulerCurves: []
  m_PositionCurves:
  - curve:
      serializedVersion: 2
      m_Curve:
      - serializedVersion: 2
        time: 0
        value: {x: 0, y: 0, z: 0}
        inSlope: {x: 0, y: 0, z: 0}
        outSlope: {x: 0, y: 0, z: 0}
        tangentMode: 0
      - serializedVersion: 2
        time: 0.4666667
        value: {x: 0, y: 0, z: 0}
        inSlope: {x: 0, y: 0, z: 0}
        outSlope: {x: 0, y: 0, z: 0}
        tangentMode: 0
      m_PreInfinity: 2
      m_PostInfinity: 2
      m_RotationOrder: 4
    path: 
  - curve:
      serializedVersion: 2
      m_Curve:
      - serializedVersion: 2
        time: 0
        value: {x: -0.034240577, y: -0.0009151194, z: 0.040496256}
        inSlope: {x: 0, y: 0, z: 0}
        outSlope: {x: 0, y: 0, z: 0}
        tangentMode: 0
      - serializedVersion: 2
        time: 0.4666667
        value: {x: -0.03424058, y: -0.0009151194, z: 0.040496256}
        inSlope: {x: 0, y: 0, z: 0}
        outSlope: {x: 0, y: 0, z: 0}
        tangentMode: 0
      m_PreInfinity: 2
      m_PostInfinity: 2
      m_RotationOrder: 4
    path: HangPoint_Display
  - curve:
      serializedVersion: 2
      m_Curve:
      - serializedVersion: 2
        time: 0
        value: {x: -0.000000014901161, y: 0, z: 0}
        inSlope: {x: 0, y: 0, z: 0}
        outSlope: {x: 0, y: 0, z: 0}
        tangentMode: 0
      - serializedVersion: 2
        time: 0.4666667
        value: {x: -0.000000014901161, y: 0, z: 0}
        inSlope: {x: 0, y: 0, z: 0}
        outSlope: {x: 0, y: 0, z: 0}
        tangentMode: 0
      m_PreInfinity: 2
      m_PostInfinity: 2
      m_RotationOrder: 4
    path: HangPoint_CopperFoil
  - curve:
      serializedVersion: 2
      m_Curve:
      - serializedVersion: 2
        time: 0
        value: {x: -0.0003424585, y: 0.0000410825, z: 0}
        inSlope: {x: 0, y: 0, z: 0}
        outSlope: {x: 0, y: 0, z: 0}
        tangentMode: 0
      - serializedVersion: 2
        time: 0.20000005
        value: {x: -0.0003424585, y: 0.0000410825, z: 0}
        inSlope: {x: -0, y: 3.630145e-19, z: -0}
        outSlope: {x: -0, y: 8.470338e-19, z: 0.00000009812158}
        tangentMode: 0
      - serializedVersion: 2
        time: 0.23333335
        value: {x: -0.0003424585, y: 0.0000410825, z: 0.0024414062}
        inSlope: {x: -0, y: 3.630145e-19, z: 0.21972695}
        outSlope: {x: 0.00000043370989, y: 8.470338e-19, z: 0.21972594}
        tangentMode: 0
      - serializedVersion: 2
        time: 0.26666665
        value: {x: 0.0030755103, y: 0.0000410825, z: 0.029052734}
        inSlope: {x: 0.30761883, y: 3.630145e-19, z: 0.81905365}
        outSlope: {x: 0.30761504, y: 8.470338e-19, z: 0.8190412}
        tangentMode: 0
      - serializedVersion: 2
        time: 0.29999995
        value: {x: 0.04118018, y: 0.0000410825, z: 0.05704446}
        inSlope: {x: 1.6288294, y: 3.630145e-19, z: 0.8770344}
        outSlope: {x: 1.6287884, y: 8.470338e-19, z: 0.8770143}
        tangentMode: 0
      - serializedVersion: 2
        time: 0.33333325
        value: {x: 0.111662716, y: 0.0000410825, z: 0.08752099}
        inSlope: {x: 2.0760834, y: 3.630145e-19, z: 0.82463664}
        outSlope: {x: 2.0759397, y: 8.470277e-19, z: 0.82458276}
        tangentMode: 0
      - serializedVersion: 2
        time: 0.3666668
        value: {x: 0.17958312, y: 0.0000410825, z: 0.11201919}
        inSlope: {x: 1.474956, y: 3.630119e-19, z: 0.5182104}
        outSlope: {x: 1.4750688, y: 8.470338e-19, z: 0.51825243}
        tangentMode: 0
      - serializedVersion: 2
        time: 0.4000001
        value: {x: 0.20999908, y: 0.0000410825, z: 0.12207058}
        inSlope: {x: -0.0000027588405, y: 3.630145e-19, z: 0.0000012919874}
        outSlope: {x: -0, y: 8.470338e-19, z: -0.0000019735119}
        tangentMode: 0
      - serializedVersion: 2
        time: 0.4333334
        value: {x: 0.20999908, y: 0.0000410825, z: 0.11694363}
        inSlope: {x: -0, y: 3.630145e-19, z: 0.00000015522745}
        outSlope: {x: -0, y: 8.470338e-19, z: 2.6020878e-15}
        tangentMode: 0
      - serializedVersion: 2
        time: 0.4666667
        value: {x: 0.20999908, y: 0.000041082505, z: 0.11694363}
        inSlope: {x: 0, y: 0, z: 0}
        outSlope: {x: 0, y: 0, z: 0}
        tangentMode: 0
      m_PreInfinity: 2
      m_PostInfinity: 2
      m_RotationOrder: 4
    path: HangPoint_MiddleBracket
  - curve:
      serializedVersion: 2
      m_Curve:
      - serializedVersion: 2
        time: 0
        value: {x: -0, y: 0.002105713, z: 0}
        inSlope: {x: -0, y: -0, z: -0}
        outSlope: {x: -0, y: -0, z: -0}
        tangentMode: 0
      - serializedVersion: 2
        time: 0.4666667
        value: {x: -0, y: 0.002105713, z: 0}
        inSlope: {x: -0, y: -0, z: -0}
        outSlope: {x: -0, y: -0, z: -0}
        tangentMode: 0
      m_PreInfinity: 2
      m_PostInfinity: 2
      m_RotationOrder: 4
    path: HangPoint_SpeakerBox
  - curve:
      serializedVersion: 2
      m_Curve:
      - serializedVersion: 2
        time: 0
        value: {x: -0, y: 0, z: 0}
        inSlope: {x: -0, y: -0, z: -0}
        outSlope: {x: -0, y: -0, z: -0}
        tangentMode: 0
      - serializedVersion: 2
        time: 0.4666667
        value: {x: -0, y: 0, z: 0}
        inSlope: {x: -0, y: -0, z: -0}
        outSlope: {x: -0, y: -0, z: -0}
        tangentMode: 0
      m_PreInfinity: 2
      m_PostInfinity: 2
      m_RotationOrder: 4
    path: HangPoint_Mainboard
  - curve:
      serializedVersion: 2
      m_Curve:
      - serializedVersion: 2
        time: 0
        value: {x: -0, y: 0, z: 0}
        inSlope: {x: -0, y: -0, z: -0}
        outSlope: {x: -0, y: -0, z: -0}
        tangentMode: 0
      - serializedVersion: 2
        time: 0.4666667
        value: {x: -0, y: 0, z: 0}
        inSlope: {x: -0, y: -0, z: -0}
        outSlope: {x: -0, y: -0, z: -0}
        tangentMode: 0
      m_PreInfinity: 2
      m_PostInfinity: 2
      m_RotationOrder: 4
    path: HangPoint_RearHousing
  - curve:
      serializedVersion: 2
      m_Curve:
      - serializedVersion: 2
        time: 0
        value: {x: 0.2665279, y: 0.1900467, z: 0}
        inSlope: {x: 0.000000022807898, y: 0.0000008940696, z: 0}
        outSlope: {x: 0.000000022807898, y: 0.0000008940696, z: 0}
        tangentMode: 0
      - serializedVersion: 2
        time: 0.10000014
        value: {x: 0.2665279, y: 0.1900468, z: 0}
        inSlope: {x: 2.9737936e-15, y: 0.0000011495111, z: -0}
        outSlope: {x: 0.0000022990387, y: 5.2041755e-15, z: -0}
        tangentMode: 0
      - serializedVersion: 2
        time: 0.4666667
        value: {x: 0.26652843, y: 0.19004674, z: 0}
        inSlope: {x: 0.00000064373023, y: -0.000000295043, z: 0}
        outSlope: {x: 0.00000064373023, y: -0.000000295043, z: 0}
        tangentMode: 0
      m_PreInfinity: 2
      m_PostInfinity: 2
      m_RotationOrder: 4
    path: HangPoint_SimTray
  m_ScaleCurves:
  - curve:
      serializedVersion: 2
      m_Curve:
      - serializedVersion: 2
        time: 0
        value: {x: 1, y: 1, z: 1}
        inSlope: {x: 0, y: 0, z: 0}
        outSlope: {x: 0, y: 0, z: 0}
        tangentMode: 0
      - serializedVersion: 2
        time: 0.4666667
        value: {x: 1, y: 1, z: 1}
        inSlope: {x: 0, y: 0, z: 0}
        outSlope: {x: 0, y: 0, z: 0}
        tangentMode: 0
      m_PreInfinity: 2
      m_PostInfinity: 2
      m_RotationOrder: 4
    path: 
  - curve:
      serializedVersion: 2
      m_Curve:
      - serializedVersion: 2
        time: 0
        value: {x: 1, y: 1, z: 1}
        inSlope: {x: 0, y: 0, z: 0}
        outSlope: {x: 0, y: 0, z: 0}
        tangentMode: 0
      - serializedVersion: 2
        time: 0.4666667
        value: {x: 1, y: 1, z: 1}
        inSlope: {x: 0, y: 0, z: 0}
        outSlope: {x: 0, y: 0, z: 0}
        tangentMode: 0
      m_PreInfinity: 2
      m_PostInfinity: 2
      m_RotationOrder: 4
    path: HangPoint_Display
  - curve:
      serializedVersion: 2
      m_Curve:
      - serializedVersion: 2
        time: 0
        value: {x: 1, y: 1, z: 1}
        inSlope: {x: 0, y: 0, z: 0}
        outSlope: {x: 0, y: 0, z: 0}
        tangentMode: 0
      - serializedVersion: 2
        time: 0.4666667
        value: {x: 1, y: 1, z: 1}
        inSlope: {x: 0, y: 0, z: 0}
        outSlope: {x: 0, y: 0, z: 0}
        tangentMode: 0
      m_PreInfinity: 2
      m_PostInfinity: 2
      m_RotationOrder: 4
    path: HangPoint_CopperFoil
  - curve:
      serializedVersion: 2
      m_Curve:
      - serializedVersion: 2
        time: 0
        value: {x: 1, y: 1, z: 1}
        inSlope: {x: 0, y: 0, z: 0}
        outSlope: {x: 0, y: 0, z: 0}
        tangentMode: 0
      - serializedVersion: 2
        time: 0.4666667
        value: {x: 1, y: 1, z: 1}
        inSlope: {x: 0, y: 0, z: 0}
        outSlope: {x: 0, y: 0, z: 0}
        tangentMode: 0
      m_PreInfinity: 2
      m_PostInfinity: 2
      m_RotationOrder: 4
    path: HangPoint_MiddleBracket
  - curve:
      serializedVersion: 2
      m_Curve:
      - serializedVersion: 2
        time: 0
        value: {x: 1, y: 1, z: 1}
        inSlope: {x: 0, y: 0, z: 0}
        outSlope: {x: 0, y: 0, z: 0}
        tangentMode: 0
      - serializedVersion: 2
        time: 0.4666667
        value: {x: 1, y: 1, z: 1}
        inSlope: {x: 0, y: 0, z: 0}
        outSlope: {x: 0, y: 0, z: 0}
        tangentMode: 0
      m_PreInfinity: 2
      m_PostInfinity: 2
      m_RotationOrder: 4
    path: HangPoint_SpeakerBox
  - curve:
      serializedVersion: 2
      m_Curve:
      - serializedVersion: 2
        time: 0
        value: {x: 1, y: 1, z: 1}
        inSlope: {x: 0, y: 0, z: 0}
        outSlope: {x: 0, y: 0, z: 0}
        tangentMode: 0
      - serializedVersion: 2
        time: 0.4666667
        value: {x: 1, y: 1, z: 1}
        inSlope: {x: 0, y: 0, z: 0}
        outSlope: {x: 0, y: 0, z: 0}
        tangentMode: 0
      m_PreInfinity: 2
      m_PostInfinity: 2
      m_RotationOrder: 4
    path: HangPoint_Mainboard
  - curve:
      serializedVersion: 2
      m_Curve:
      - serializedVersion: 2
        time: 0
        value: {x: 1, y: 1, z: 1}
        inSlope: {x: 0, y: 0, z: 0}
        outSlope: {x: 0, y: 0, z: 0}
        tangentMode: 0
      - serializedVersion: 2
        time: 0.4666667
        value: {x: 1, y: 1, z: 1}
        inSlope: {x: 0, y: 0, z: 0}
        outSlope: {x: 0, y: 0, z: 0}
        tangentMode: 0
      m_PreInfinity: 2
      m_PostInfinity: 2
      m_RotationOrder: 4
    path: HangPoint_RearHousing
  - curve:
      serializedVersion: 2
      m_Curve:
      - serializedVersion: 2
        time: 0
        value: {x: 1, y: 1, z: 1}
        inSlope: {x: 0, y: 0, z: 0}
        outSlope: {x: 0, y: 0, z: 0}
        tangentMode: 0
      - serializedVersion: 2
        time: 0.4666667
        value: {x: 1, y: 1, z: 1}
        inSlope: {x: 0, y: 0, z: 0}
        outSlope: {x: 0, y: 0, z: 0}
        tangentMode: 0
      m_PreInfinity: 2
      m_PostInfinity: 2
      m_RotationOrder: 4
    path: HangPoint_SimTray
  m_FloatCurves: []
  m_PPtrCurves: []
  m_SampleRate: 30
  m_WrapMode: 0
  m_Bounds:
    m_Center: {x: 0, y: 0, z: 0}
    m_Extent: {x: 0, y: 0, z: 0}
  m_ClipBindingConstant:
    genericBindings:
    - serializedVersion: 2
      path: 2743447775
      attribute: 1
      script: {fileID: 0}
      typeID: 4
      customType: 0
      isPPtrCurve: 0
    - serializedVersion: 2
      path: 792608138
      attribute: 1
      script: {fileID: 0}
      typeID: 4
      customType: 0
      isPPtrCurve: 0
    - serializedVersion: 2
      path: 2743447775
      attribute: 2
      script: {fileID: 0}
      typeID: 4
      customType: 0
      isPPtrCurve: 0
    - serializedVersion: 2
      path: 0
      attribute: 1
      script: {fileID: 0}
      typeID: 4
      customType: 0
      isPPtrCurve: 0
    - serializedVersion: 2
      path: 1803485242
      attribute: 1
      script: {fileID: 0}
      typeID: 4
      customType: 0
      isPPtrCurve: 0
    - serializedVersion: 2
      path: 318346607
      attribute: 1
      script: {fileID: 0}
      typeID: 4
      customType: 0
      isPPtrCurve: 0
    - serializedVersion: 2
      path: 1481298510
      attribute: 1
      script: {fileID: 0}
      typeID: 4
      customType: 0
      isPPtrCurve: 0
    - serializedVersion: 2
      path: 4215812051
      attribute: 1
      script: {fileID: 0}
      typeID: 4
      customType: 0
      isPPtrCurve: 0
    - serializedVersion: 2
      path: 2186626381
      attribute: 1
      script: {fileID: 0}
      typeID: 4
      customType: 0
      isPPtrCurve: 0
    - serializedVersion: 2
      path: 0
      attribute: 2
      script: {fileID: 0}
      typeID: 4
      customType: 0
      isPPtrCurve: 0
    - serializedVersion: 2
      path: 1803485242
      attribute: 2
      script: {fileID: 0}
      typeID: 4
      customType: 0
      isPPtrCurve: 0
    - serializedVersion: 2
      path: 318346607
      attribute: 2
      script: {fileID: 0}
      typeID: 4
      customType: 0
      isPPtrCurve: 0
    - serializedVersion: 2
      path: 1481298510
      attribute: 2
      script: {fileID: 0}
      typeID: 4
      customType: 0
      isPPtrCurve: 0
    - serializedVersion: 2
      path: 4215812051
      attribute: 2
      script: {fileID: 0}
      typeID: 4
      customType: 0
      isPPtrCurve: 0
    - serializedVersion: 2
      path: 2186626381
      attribute: 2
      script: {fileID: 0}
      typeID: 4
      customType: 0
      isPPtrCurve: 0
    - serializedVersion: 2
      path: 792608138
      attribute: 2
      script: {fileID: 0}
      typeID: 4
      customType: 0
      isPPtrCurve: 0
    - serializedVersion: 2
      path: 0
      attribute: 3
      script: {fileID: 0}
      typeID: 4
      customType: 0
      isPPtrCurve: 0
    - serializedVersion: 2
      path: 1803485242
      attribute: 3
      script: {fileID: 0}
      typeID: 4
      customType: 0
      isPPtrCurve: 0
    - serializedVersion: 2
      path: 318346607
      attribute: 3
      script: {fileID: 0}
      typeID: 4
      customType: 0
      isPPtrCurve: 0
    - serializedVersion: 2
      path: 2743447775
      attribute: 3
      script: {fileID: 0}
      typeID: 4
      customType: 0
      isPPtrCurve: 0
    - serializedVersion: 2
      path: 1481298510
      attribute: 3
      script: {fileID: 0}
      typeID: 4
      customType: 0
      isPPtrCurve: 0
    - serializedVersion: 2
      path: 4215812051
      attribute: 3
      script: {fileID: 0}
      typeID: 4
      customType: 0
      isPPtrCurve: 0
    - serializedVersion: 2
      path: 2186626381
      attribute: 3
      script: {fileID: 0}
      typeID: 4
      customType: 0
      isPPtrCurve: 0
    - serializedVersion: 2
      path: 792608138
      attribute: 3
      script: {fileID: 0}
      typeID: 4
      customType: 0
      isPPtrCurve: 0
    pptrCurveMapping: []
  m_AnimationClipSettings:
    serializedVersion: 2
    m_AdditiveReferencePoseClip: {fileID: 0}
    m_AdditiveReferencePoseTime: 0
    m_StartTime: 0
    m_StopTime: 0.4666667
    m_OrientationOffsetY: 0
    m_Level: 0
    m_CycleOffset: 0
    m_HasAdditiveReferencePose: 0
    m_LoopTime: 0
    m_LoopBlend: 0
    m_LoopBlendOrientation: 0
    m_LoopBlendPositionY: 0
    m_LoopBlendPositionXZ: 0
    m_KeepOriginalOrientation: 0
    m_KeepOriginalPositionY: 0
    m_KeepOriginalPositionXZ: 0
    m_HeightFromFeet: 0
    m_Mirror: 0
  m_EditorCurves: []
  m_EulerEditorCurves: []
  m_HasGenericRootTransform: 1
  m_HasMotionFloatCurves: 0
  m_GenerateMotionCurves: 0
  m_Events:
  - time: 0
    functionName: OnClipStart
    data: 
    objectReferenceParameter: {fileID: 0}
    floatParameter: 0
    intParameter: 10500014
    messageOptions: 0
  - time: 0.4666667
    functionName: OnClipEnd
    data: 
    objectReferenceParameter: {fileID: 0}
    floatParameter: 0
    intParameter: 10500014
    messageOptions: 0
