%YAML 1.1
%TAG !u! tag:unity3d.com,2011:
--- !u!74 &7400000
AnimationClip:
  m_ObjectHideFlags: 0
  m_PrefabParentObject: {fileID: 0}
  m_PrefabInternal: {fileID: 0}
  m_Name: Anim_10500079
  serializedVersion: 6
  m_Legacy: 0
  m_Compressed: 0
  m_UseHighQualityCurve: 1
  m_RotationCurves:
  - curve:
      serializedVersion: 2
      m_Curve:
      - serializedVersion: 2
        time: 0
        value: {x: 0, y: -0.000000007450581, z: -0, w: 1}
        inSlope: {x: 0, y: 0, z: 0, w: 0}
        outSlope: {x: 0, y: 0, z: 0, w: 0}
        tangentMode: 0
      - serializedVersion: 2
        time: 0.10000038
        value: {x: 0, y: -0.000000007450581, z: -0, w: 1}
        inSlope: {x: 0, y: 1.6583417e-10, z: 0, w: 0}
        outSlope: {x: 0, y: 1.6583417e-10, z: 0, w: 0}
        tangentMode: 0
      - serializedVersion: 2
        time: 0.13333368
        value: {x: 0, y: -0.000000007439525, z: -0, w: 1}
        inSlope: {x: 0, y: 1.2142572, z: 0, w: -0.04922842}
        outSlope: {x: 0, y: 1.2142572, z: 0, w: -0.04922842}
        tangentMode: 0
      - serializedVersion: 2
        time: 0.16666698
        value: {x: 0, y: 0.080950394, z: -0, w: 0.9967181}
        inSlope: {x: 0, y: 2.4205136, z: 0, w: -0.19658375}
        outSlope: {x: 0, y: 2.4205136, z: 0, w: -0.19658375}
        tangentMode: 0
      - serializedVersion: 2
        time: 0.20000029
        value: {x: 0, y: 0.1613674, z: -0, w: 0.9868944}
        inSlope: {x: 0, y: 1.2062563, z: 0, w: -0.14735533}
        outSlope: {x: 0, y: 1.2062563, z: 0, w: -0.14735533}
        tangentMode: 0
      - serializedVersion: 2
        time: 0.23333359
        value: {x: 0, y: 0.1613674, z: -0, w: 0.9868944}
        inSlope: {x: 0, y: -0.6632706, z: 0, w: 0.09329894}
        outSlope: {x: 0, y: -0.6632706, z: 0, w: 0.09329894}
        tangentMode: 0
      - serializedVersion: 2
        time: 0.2666669
        value: {x: 0, y: 0.117149405, z: -0, w: 0.99311435}
        inSlope: {x: 0, y: -0.6632706, z: 0, w: 0.09329894}
        outSlope: {x: 0, y: -0.6632706, z: 0, w: 0.09329894}
        tangentMode: 0
      - serializedVersion: 2
        time: 0.3000002
        value: {x: 0, y: 0.117149405, z: -0, w: 0.99311435}
        inSlope: {x: 0, y: -0.45428506, z: 0, w: 0.046588227}
        outSlope: {x: 0, y: -0.45428506, z: 0, w: 0.046588227}
        tangentMode: 0
      - serializedVersion: 2
        time: 0.3333335
        value: {x: 0, y: 0.08686376, z: -0, w: 0.99622023}
        inSlope: {x: 0, y: -1.3006335, z: 0, w: 0.096333414}
        outSlope: {x: 0, y: -1.3006335, z: 0, w: 0.096333414}
        tangentMode: 0
      - serializedVersion: 2
        time: 0.3666668
        value: {x: 0, y: 0.030440586, z: -0, w: 0.9995366}
        inSlope: {x: 0, y: -1.3029578, z: 0, w: 0.05669659}
        outSlope: {x: 0, y: -1.3029578, z: 0, w: 0.05669659}
        tangentMode: 0
      - serializedVersion: 2
        time: 0.46666718
        value: {x: 0, y: -0, z: -0, w: 1}
        inSlope: {x: 0, y: 0, z: 0, w: 0}
        outSlope: {x: 0, y: 0, z: 0, w: 0}
        tangentMode: 0
      m_PreInfinity: 2
      m_PostInfinity: 2
      m_RotationOrder: 4
    path: HangPoint_Battery
  m_CompressedRotationCurves: []
  m_EulerCurves: []
  m_PositionCurves:
  - curve:
      serializedVersion: 2
      m_Curve:
      - serializedVersion: 2
        time: 0
        value: {x: 0.08786187, y: -0.12561035, z: 0.016747903}
        inSlope: {x: 0, y: 0, z: 0}
        outSlope: {x: 0, y: 0, z: 0}
        tangentMode: 0
      - serializedVersion: 2
        time: 0.1333332
        value: {x: 0.08786187, y: -0.12561035, z: 0.016747903}
        inSlope: {x: 3.7173216e-16, y: -1.4869286e-15, z: 1.3939956e-16}
        outSlope: {x: -0.00020387444, y: 0.00030916225, z: 0.000084156716}
        tangentMode: 0
      - serializedVersion: 2
        time: 0.19999981
        value: {x: 0.001891084, y: 0.0043945312, z: 0.052026223}
        inSlope: {x: -0.0001663587, y: 0.00025200832, z: 0.00006839559}
        outSlope: {x: 2.7104694e-17, y: 8.131408e-17, z: -0.00037716315}
        tangentMode: 0
      - serializedVersion: 2
        time: 0.23333359
        value: {x: 0.001891084, y: 0.0043945312, z: 0.015265413}
        inSlope: {x: 1.16162975e-17, y: 3.4848894e-17, z: -0.67373407}
        outSlope: {x: -0.000008318409, y: -0.00004942904, z: -0.6734142}
        tangentMode: 0
      - serializedVersion: 2
        time: 0.2666669
        value: {x: 0.0011520386, y: 0, z: 0.0071238726}
        inSlope: {x: -0.000008551239, y: -0.000050892548, z: -0.000049738337}
        outSlope: {x: 1.355254e-17, y: -0, z: 5.421016e-17}
        tangentMode: 0
      - serializedVersion: 2
        time: 0.3000002
        value: {x: 0.0011520386, y: 0, z: 0.0071238726}
        inSlope: {x: 5.808232e-18, y: -0, z: 2.3232928e-17}
        outSlope: {x: -0.00000065294375, y: -0, z: -0.0000040488353}
        tangentMode: 0
      - serializedVersion: 2
        time: 0.4000001
        value: {x: -0, y: 0, z: 0}
        inSlope: {x: -0.000000596186, y: -0, z: -0.0000037002126}
        outSlope: {x: -0, y: -0, z: -0}
        tangentMode: 0
      - serializedVersion: 2
        time: 0.4666667
        value: {x: -0, y: 0, z: 0}
        inSlope: {x: -0, y: -0, z: -0}
        outSlope: {x: -0, y: -0, z: -0}
        tangentMode: 0
      m_PreInfinity: 2
      m_PostInfinity: 2
      m_RotationOrder: 4
    path: HangPoint_Battery
  m_ScaleCurves:
  - curve:
      serializedVersion: 2
      m_Curve:
      - serializedVersion: 2
        time: 0
        value: {x: 1, y: 1, z: 1}
        inSlope: {x: 0, y: 0, z: 0}
        outSlope: {x: 0, y: 0, z: 0}
        tangentMode: 0
      - serializedVersion: 2
        time: 0.46666718
        value: {x: 1, y: 1, z: 1}
        inSlope: {x: 0, y: 0, z: 0}
        outSlope: {x: 0, y: 0, z: 0}
        tangentMode: 0
      m_PreInfinity: 2
      m_PostInfinity: 2
      m_RotationOrder: 4
    path: HangPoint_Battery
  m_FloatCurves: []
  m_PPtrCurves: []
  m_SampleRate: 30
  m_WrapMode: 0
  m_Bounds:
    m_Center: {x: 0, y: 0, z: 0}
    m_Extent: {x: 0, y: 0, z: 0}
  m_ClipBindingConstant:
    genericBindings:
    - serializedVersion: 2
      path: 3078653495
      attribute: 1
      script: {fileID: 0}
      typeID: 4
      customType: 0
      isPPtrCurve: 0
    - serializedVersion: 2
      path: 3078653495
      attribute: 2
      script: {fileID: 0}
      typeID: 4
      customType: 0
      isPPtrCurve: 0
    - serializedVersion: 2
      path: 3078653495
      attribute: 3
      script: {fileID: 0}
      typeID: 4
      customType: 0
      isPPtrCurve: 0
    pptrCurveMapping: []
  m_AnimationClipSettings:
    serializedVersion: 2
    m_AdditiveReferencePoseClip: {fileID: 0}
    m_AdditiveReferencePoseTime: 0
    m_StartTime: 0
    m_StopTime: 0.46666718
    m_OrientationOffsetY: 0
    m_Level: 0
    m_CycleOffset: 0
    m_HasAdditiveReferencePose: 0
    m_LoopTime: 0
    m_LoopBlend: 0
    m_LoopBlendOrientation: 0
    m_LoopBlendPositionY: 0
    m_LoopBlendPositionXZ: 0
    m_KeepOriginalOrientation: 0
    m_KeepOriginalPositionY: 0
    m_KeepOriginalPositionXZ: 0
    m_HeightFromFeet: 0
    m_Mirror: 0
  m_EditorCurves: []
  m_EulerEditorCurves: []
  m_HasGenericRootTransform: 0
  m_HasMotionFloatCurves: 0
  m_GenerateMotionCurves: 0
  m_Events:
  - time: 0
    functionName: OnClipStart
    data: 
    objectReferenceParameter: {fileID: 0}
    floatParameter: 0
    intParameter: 10500079
    messageOptions: 0
  - time: 0.46666718
    functionName: OnClipEnd
    data: 
    objectReferenceParameter: {fileID: 0}
    floatParameter: 0
    intParameter: 10500079
    messageOptions: 0
