%YAML 1.1
%TAG !u! tag:unity3d.com,2011:
--- !u!74 &7400000
AnimationClip:
  m_ObjectHideFlags: 0
  m_PrefabParentObject: {fileID: 0}
  m_PrefabInternal: {fileID: 0}
  m_Name: Anim_10500223
  serializedVersion: 6
  m_Legacy: 0
  m_Compressed: 0
  m_UseHighQualityCurve: 1
  m_RotationCurves:
  - curve:
      serializedVersion: 2
      m_Curve:
      - serializedVersion: 2
        time: 0
        value: {x: -0.53209394, y: -0.5320953, z: -0.46569806, w: 0.46569937}
        inSlope: {x: 0, y: 0, z: 0, w: 0}
        outSlope: {x: 0, y: 0, z: 0, w: 0}
        tangentMode: 0
      - serializedVersion: 2
        time: 0.0666666
        value: {x: -0.53209394, y: -0.5320953, z: -0.46569806, w: 0.46569937}
        inSlope: {x: 0, y: 0, z: 0, w: 0}
        outSlope: {x: 0, y: 0, z: 0, w: 0}
        tangentMode: 0
      - serializedVersion: 2
        time: 0.10000038
        value: {x: -0.53209394, y: -0.5320953, z: -0.46569806, w: 0.46569937}
        inSlope: {x: 14.967127, y: 14.967128, z: -0.99597484, w: 0.9959355}
        outSlope: {x: 14.967127, y: 14.967128, z: -0.99597484, w: 0.9959355}
        tangentMode: 0
      - serializedVersion: 2
        time: 0.1333332
        value: {x: 0.46569932, y: 0.46569797, z: -0.5320954, w: 0.53209406}
        inSlope: {x: 14.967127, y: 14.967128, z: -0.99597484, w: 0.9959355}
        outSlope: {x: 14.967127, y: 14.967128, z: -0.99597484, w: 0.9959355}
        tangentMode: 0
      - serializedVersion: 2
        time: 0.16666698
        value: {x: 0.46569932, y: 0.46569797, z: -0.5320954, w: 0.53209406}
        inSlope: {x: 0, y: 0, z: 0, w: 0}
        outSlope: {x: 0, y: 0, z: 0, w: 0}
        tangentMode: 0
      - serializedVersion: 2
        time: 0.46666622
        value: {x: 0.46569932, y: 0.46569797, z: -0.5320954, w: 0.53209406}
        inSlope: {x: 0, y: 0, z: 0, w: 0}
        outSlope: {x: 0, y: 0, z: 0, w: 0}
        tangentMode: 0
      m_PreInfinity: 2
      m_PostInfinity: 2
      m_RotationOrder: 4
    path: Tool_Tweezers02
  - curve:
      serializedVersion: 2
      m_Curve:
      - serializedVersion: 2
        time: 0
        value: {x: 0, y: -0.057076354, z: 0, w: 0.99836946}
        inSlope: {x: 0, y: -0.007032833, z: 0, w: -0.00042289536}
        outSlope: {x: 0, y: -0.007032833, z: 0, w: -0.00042289536}
        tangentMode: 0
      - serializedVersion: 2
        time: 0.3666668
        value: {x: 0, y: -0.06309341, z: -0, w: 0.99800766}
        inSlope: {x: 0, y: 0, z: 0, w: 0}
        outSlope: {x: 0, y: 0, z: 0, w: 0}
        tangentMode: 0
      - serializedVersion: 2
        time: 0.46666622
        value: {x: 0, y: -0.060157537, z: 0, w: 0.99818456}
        inSlope: {x: 0, y: 0.044038486, z: 0, w: 0.0026541974}
        outSlope: {x: 0, y: 0.044038486, z: 0, w: 0.0026541974}
        tangentMode: 0
      m_PreInfinity: 2
      m_PostInfinity: 2
      m_RotationOrder: 4
    path: Tool_Tweezers02/Tool_Tweezers03
  m_CompressedRotationCurves: []
  m_EulerCurves: []
  m_PositionCurves:
  - curve:
      serializedVersion: 2
      m_Curve:
      - serializedVersion: 2
        time: 0
        value: {x: -0.16427535, y: 0.28278127, z: -0.19701293}
        inSlope: {x: 0, y: 0, z: 0}
        outSlope: {x: 0, y: 0, z: 0}
        tangentMode: 0
      - serializedVersion: 2
        time: 0.09999943
        value: {x: -0.16427536, y: 0.28278127, z: -0.19701293}
        inSlope: {x: -1.4869286e-15, y: 7.682464e-15, z: -7.434643e-16}
        outSlope: {x: 0.00008217132, y: -0.00017290935, z: 0.00023211427}
        tangentMode: 0
      - serializedVersion: 2
        time: 0.1333332
        value: {x: -0.026471326, y: -0.0182136, z: 0.19190308}
        inSlope: {x: -0.000059653907, y: -0.5957883, z: -0.0001702117}
        outSlope: {x: -4.3368749e-16, y: -0.5959796, z: -0.000049007565}
        tangentMode: 0
      - serializedVersion: 2
        time: 0.16666603
        value: {x: -0.026471326, y: -0.024835061, z: 0.18311402}
        inSlope: {x: -1.8586608e-16, y: -0.0852441, z: -0.26372695}
        outSlope: {x: -4.336751e-16, y: -0.0852198, z: -0.2636715}
        tangentMode: 0
      - serializedVersion: 2
        time: 0.19999981
        value: {x: -0.026471326, y: -0.02578196, z: 0.17432496}
        inSlope: {x: -1.8586076e-16, y: -0.00000013582634, z: -0.0000011102132}
        outSlope: {x: -4.3368749e-16, y: -2.1684374e-16, z: 0.000048772312}
        tangentMode: 0
      - serializedVersion: 2
        time: 0.2666664
        value: {x: -0.026471326, y: -0.02578196, z: 0.19239137}
        inSlope: {x: -1.8586076e-16, y: -9.293038e-17, z: 0.000001939318}
        outSlope: {x: -4.3368749e-16, y: -0.00008134325, z: 3.4694999e-15}
        tangentMode: 0
      - serializedVersion: 2
        time: 0.29999924
        value: {x: -0.026471326, y: -0.041193336, z: 0.19239137}
        inSlope: {x: -1.8586608e-16, y: -0.462452, z: 1.4869286e-15}
        outSlope: {x: -4.336751e-16, y: -0.4623264, z: 3.4694008e-15}
        tangentMode: 0
      - serializedVersion: 2
        time: 0.33333302
        value: {x: -0.026471326, y: -0.056604713, z: 0.19239137}
        inSlope: {x: -1.8586076e-16, y: -0.0000054391408, z: 1.4868861e-15}
        outSlope: {x: -4.3368749e-16, y: -1.3010625e-15, z: -0.000044898497}
        tangentMode: 0
      - serializedVersion: 2
        time: 0.39999962
        value: {x: -0.026471326, y: -0.056604713, z: 0.1745691}
        inSlope: {x: -1.8586076e-16, y: -5.575823e-16, z: -0.0000049839173}
        outSlope: {x: -4.3368749e-16, y: -1.3010625e-15, z: 3.4694999e-15}
        tangentMode: 0
      - serializedVersion: 2
        time: 0.43333244
        value: {x: -0.026471326, y: -0.056604713, z: 0.1745691}
        inSlope: {x: -1.8586608e-16, y: -5.5759824e-16, z: 1.4869286e-15}
        outSlope: {x: -0.00030605585, y: -0.000052573152, z: -0.00009182814}
        tangentMode: 0
      - serializedVersion: 2
        time: 0.46666622
        value: {x: 0.2459896, y: -0.010095924, z: 0.25708863}
        inSlope: {x: 0.00034719167, y: 0.00005918406, z: 0.000106141786}
        outSlope: {x: 6.9388016e-15, y: -1.3939555e-16, z: 5.204101e-15}
        tangentMode: 0
      m_PreInfinity: 2
      m_PostInfinity: 2
      m_RotationOrder: 4
    path: Tool_Tweezers02
  - curve:
      serializedVersion: 2
      m_Curve:
      - serializedVersion: 2
        time: 0
        value: {x: 0.008098871, y: 5.6736277e-10, z: -0.0012252554}
        inSlope: {x: 0, y: 0, z: 0}
        outSlope: {x: 0, y: 0, z: 0}
        tangentMode: 0
      - serializedVersion: 2
        time: 0.46666622
        value: {x: 0.008098871, y: 5.6736277e-10, z: -0.0012252554}
        inSlope: {x: 0, y: 0, z: 0}
        outSlope: {x: 0, y: 0, z: 0}
        tangentMode: 0
      m_PreInfinity: 2
      m_PostInfinity: 2
      m_RotationOrder: 4
    path: Tool_Tweezers02/Tool_Tweezers03
  m_ScaleCurves:
  - curve:
      serializedVersion: 2
      m_Curve:
      - serializedVersion: 2
        time: 0
        value: {x: 1, y: 1, z: 1}
        inSlope: {x: 0, y: 0, z: 0}
        outSlope: {x: 0, y: 0, z: 0}
        tangentMode: 0
      - serializedVersion: 2
        time: 0.46666622
        value: {x: 1, y: 1, z: 1}
        inSlope: {x: 0, y: 0, z: 0}
        outSlope: {x: 0, y: 0, z: 0}
        tangentMode: 0
      m_PreInfinity: 2
      m_PostInfinity: 2
      m_RotationOrder: 4
    path: Tool_Tweezers02
  - curve:
      serializedVersion: 2
      m_Curve:
      - serializedVersion: 2
        time: 0
        value: {x: 1, y: 1, z: 1}
        inSlope: {x: 0, y: 0, z: 0}
        outSlope: {x: 0, y: 0, z: 0}
        tangentMode: 0
      - serializedVersion: 2
        time: 0.46666622
        value: {x: 1, y: 1, z: 1}
        inSlope: {x: 0, y: 0, z: 0}
        outSlope: {x: 0, y: 0, z: 0}
        tangentMode: 0
      m_PreInfinity: 2
      m_PostInfinity: 2
      m_RotationOrder: 4
    path: Tool_Tweezers02/Tool_Tweezers03
  m_FloatCurves: []
  m_PPtrCurves: []
  m_SampleRate: 30
  m_WrapMode: 0
  m_Bounds:
    m_Center: {x: 0, y: 0, z: 0}
    m_Extent: {x: 0, y: 0, z: 0}
  m_ClipBindingConstant:
    genericBindings:
    - serializedVersion: 2
      path: 4162974765
      attribute: 1
      script: {fileID: 0}
      typeID: 4
      customType: 0
      isPPtrCurve: 0
    - serializedVersion: 2
      path: 4162974765
      attribute: 2
      script: {fileID: 0}
      typeID: 4
      customType: 0
      isPPtrCurve: 0
    - serializedVersion: 2
      path: 3787453774
      attribute: 2
      script: {fileID: 0}
      typeID: 4
      customType: 0
      isPPtrCurve: 0
    - serializedVersion: 2
      path: 3787453774
      attribute: 1
      script: {fileID: 0}
      typeID: 4
      customType: 0
      isPPtrCurve: 0
    - serializedVersion: 2
      path: 4162974765
      attribute: 3
      script: {fileID: 0}
      typeID: 4
      customType: 0
      isPPtrCurve: 0
    - serializedVersion: 2
      path: 3787453774
      attribute: 3
      script: {fileID: 0}
      typeID: 4
      customType: 0
      isPPtrCurve: 0
    pptrCurveMapping: []
  m_AnimationClipSettings:
    serializedVersion: 2
    m_AdditiveReferencePoseClip: {fileID: 0}
    m_AdditiveReferencePoseTime: 0
    m_StartTime: 0
    m_StopTime: 0.46666622
    m_OrientationOffsetY: 0
    m_Level: 0
    m_CycleOffset: 0
    m_HasAdditiveReferencePose: 0
    m_LoopTime: 0
    m_LoopBlend: 0
    m_LoopBlendOrientation: 0
    m_LoopBlendPositionY: 0
    m_LoopBlendPositionXZ: 0
    m_KeepOriginalOrientation: 0
    m_KeepOriginalPositionY: 0
    m_KeepOriginalPositionXZ: 0
    m_HeightFromFeet: 0
    m_Mirror: 0
  m_EditorCurves: []
  m_EulerEditorCurves: []
  m_HasGenericRootTransform: 0
  m_HasMotionFloatCurves: 0
  m_GenerateMotionCurves: 0
  m_Events:
  - time: 0
    functionName: OnClipStart
    data: 
    objectReferenceParameter: {fileID: 0}
    floatParameter: 0
    intParameter: 10500223
    messageOptions: 0
  - time: 0.46666622
    functionName: OnClipEnd
    data: 
    objectReferenceParameter: {fileID: 0}
    floatParameter: 0
    intParameter: 10500223
    messageOptions: 0
