%YAML 1.1
%TAG !u! tag:unity3d.com,2011:
--- !u!74 &7400000
AnimationClip:
  m_ObjectHideFlags: 0
  m_PrefabParentObject: {fileID: 0}
  m_PrefabInternal: {fileID: 0}
  m_Name: Anim_10500202
  serializedVersion: 6
  m_Legacy: 0
  m_Compressed: 0
  m_UseHighQualityCurve: 1
  m_RotationCurves:
  - curve:
      serializedVersion: 2
      m_Curve:
      - serializedVersion: 2
        time: 0
        value: {x: 0.86785966, y: 0.000000099645895, z: 0.49680945, w: -0.00000044550416}
        inSlope: {x: 0, y: 0, z: 0, w: 0}
        outSlope: {x: 0, y: 0, z: 0, w: 0}
        tangentMode: 0
      - serializedVersion: 2
        time: 0.0666666
        value: {x: 0.86785966, y: 0.000000099645895, z: 0.49680945, w: -0.00000044550416}
        inSlope: {x: 0, y: 0, z: 0, w: 0}
        outSlope: {x: 0, y: 0, z: 0, w: 0}
        tangentMode: 0
      - serializedVersion: 2
        time: 0.10000038
        value: {x: 0.86785966, y: 0.000000099645895, z: 0.49680945, w: -0.00000044550416}
        inSlope: {x: -5.036551, y: -7.9815435, z: -0.46666634, w: 6.985593}
        outSlope: {x: -5.036551, y: -7.9815435, z: -0.46666634, w: 6.985593}
        tangentMode: 0
      - serializedVersion: 2
        time: 0.1333332
        value: {x: 0.5320947, y: -0.53209466, z: 0.46569884, w: 0.46569863}
        inSlope: {x: -5.036551, y: -7.9815435, z: -0.46666634, w: 6.985593}
        outSlope: {x: -5.036551, y: -7.9815435, z: -0.46666634, w: 6.985593}
        tangentMode: 0
      - serializedVersion: 2
        time: 0.16666698
        value: {x: 0.5320947, y: -0.53209466, z: 0.46569884, w: 0.46569863}
        inSlope: {x: 0, y: 0, z: 0, w: 0}
        outSlope: {x: 0, y: 0, z: 0, w: 0}
        tangentMode: 0
      - serializedVersion: 2
        time: 0.46666622
        value: {x: 0.5320947, y: -0.53209466, z: 0.46569884, w: 0.46569863}
        inSlope: {x: 0, y: 0, z: 0, w: 0}
        outSlope: {x: 0, y: 0, z: 0, w: 0}
        tangentMode: 0
      m_PreInfinity: 2
      m_PostInfinity: 2
      m_RotationOrder: 4
    path: Tool_Tweezers02
  - curve:
      serializedVersion: 2
      m_Curve:
      - serializedVersion: 2
        time: 0
        value: {x: 0, y: -0.04963946, z: 0, w: 0.9987972}
        inSlope: {x: 0, y: -0.051789705, z: 0, w: -0.0031131536}
        outSlope: {x: 0, y: -0.051789705, z: 0, w: -0.0031131536}
        tangentMode: 0
      - serializedVersion: 2
        time: 0.0666666
        value: {x: 0, y: -0.053092103, z: -0, w: 0.99858963}
        inSlope: {x: 0, y: 0, z: 0, w: 0}
        outSlope: {x: 0, y: 0, z: 0, w: 0}
        tangentMode: 0
      - serializedVersion: 2
        time: 0.16666698
        value: {x: 0, y: -0.05999899, z: -0, w: 0.99819845}
        inSlope: {x: 0, y: -0.20715877, z: 0, w: -0.012451731}
        outSlope: {x: 0, y: -0.20715877, z: 0, w: -0.012451731}
        tangentMode: 0
      - serializedVersion: 2
        time: 0.3666668
        value: {x: 0, y: -0.066902675, z: -0, w: 0.9977595}
        inSlope: {x: 0, y: 0, z: 0, w: 0}
        outSlope: {x: 0, y: 0, z: 0, w: 0}
        tangentMode: 0
      - serializedVersion: 2
        time: 0.39999962
        value: {x: 0, y: -0.066902675, z: -0, w: 0.9977595}
        inSlope: {x: 0, y: 0.23174071, z: 0, w: 0.013738985}
        outSlope: {x: 0, y: 0.23174071, z: 0, w: 0.013738985}
        tangentMode: 0
      - serializedVersion: 2
        time: 0.4333334
        value: {x: 0, y: -0.051453087, z: -0, w: 0.99867547}
        inSlope: {x: 0, y: 0.23174071, z: 0, w: 0.013738985}
        outSlope: {x: 0, y: 0.23174071, z: 0, w: 0.013738985}
        tangentMode: 0
      - serializedVersion: 2
        time: 0.46666622
        value: {x: 0, y: -0.04801988, z: 0, w: 0.998879}
        inSlope: {x: 0, y: 0.0000029802209, z: 0, w: 0}
        outSlope: {x: 0, y: 0.0000029802209, z: 0, w: 0}
        tangentMode: 0
      m_PreInfinity: 2
      m_PostInfinity: 2
      m_RotationOrder: 4
    path: Tool_Tweezers02/Tool_Tweezers03
  m_CompressedRotationCurves: []
  m_EulerCurves: []
  m_PositionCurves:
  - curve:
      serializedVersion: 2
      m_Curve:
      - serializedVersion: 2
        time: 0
        value: {x: -0.2777532, y: 0.3041337, z: -0.22349478}
        inSlope: {x: 0, y: 0, z: 0}
        outSlope: {x: 0, y: 0, z: 0}
        tangentMode: 0
      - serializedVersion: 2
        time: 0.09999943
        value: {x: -0.2777532, y: 0.3041337, z: -0.2234948}
        inSlope: {x: -7.682464e-15, y: 1.4869286e-15, z: -2.230393e-15}
        outSlope: {x: 0.0000980682, y: -0.000036006215, z: 0.000018713774}
        tangentMode: 0
      - serializedVersion: 2
        time: 0.1333332
        value: {x: -0.10685477, y: 0.2384904, z: -0.18052605}
        inSlope: {x: -0.00007648592, y: 0.000032112468, z: 0.672795}
        outSlope: {x: -2.602125e-15, y: 0.0000055503597, z: 0.6728826}
        tangentMode: 0
      - serializedVersion: 2
        time: 0.16666603
        value: {x: -0.10685477, y: 0.23977214, z: -0.1730502}
        inSlope: {x: -1.1151965e-15, y: 0.038461775, z: 0.0962436}
        outSlope: {x: -2.6020505e-15, y: 0.038451627, z: 0.09621549}
        tangentMode: 0
      - serializedVersion: 2
        time: 0.19999981
        value: {x: -0.10685477, y: 0.24105388, z: -0.17198113}
        inSlope: {x: -1.1151646e-15, y: -0.0000013681034, z: -0.000000024154504}
        outSlope: {x: -2.602125e-15, y: 6.9389998e-15, z: -0.000063536696}
        tangentMode: 0
      - serializedVersion: 2
        time: 0.2666664
        value: {x: -0.10685477, y: 0.24105388, z: -0.19419792}
        inSlope: {x: -1.1151646e-15, y: 2.9737722e-15, z: -0.0000023344962}
        outSlope: {x: -0.00005153584, y: 0.000109282606, z: -3.4694999e-15}
        tangentMode: 0
      - serializedVersion: 2
        time: 0.29999924
        value: {x: -0.11715911, y: 0.26198894, z: -0.19419792}
        inSlope: {x: -0.36994657, y: 0.6282028, z: -1.4869286e-15}
        outSlope: {x: -0.36986372, y: 0.62803155, z: -3.4694008e-15}
        tangentMode: 0
      - serializedVersion: 2
        time: 0.33333302
        value: {x: -0.13151297, y: 0.282924, z: -0.19419792}
        inSlope: {x: -0.30378965, y: 0.00000710145, z: -1.4868861e-15}
        outSlope: {x: -0.30381718, y: 5.20425e-15, z: 0.000057511137}
        tangentMode: 0
      - serializedVersion: 2
        time: 0.39999962
        value: {x: -0.13926062, y: 0.282924, z: -0.17146996}
        inSlope: {x: 0.0000017307099, y: 2.2303292e-15, z: 0.0000058882974}
        outSlope: {x: -2.602125e-15, y: 5.20425e-15, z: -3.4694999e-15}
        tangentMode: 0
      - serializedVersion: 2
        time: 0.43333244
        value: {x: -0.13926062, y: 0.282924, z: -0.17146996}
        inSlope: {x: -1.1151965e-15, y: 2.230393e-15, z: -1.4869286e-15}
        outSlope: {x: 0.000055476376, y: -0.000025335205, z: 0.000035645353}
        tangentMode: 0
      - serializedVersion: 2
        time: 0.46666622
        value: {x: -0.19126257, y: 0.3073991, z: -0.20125511}
        inSlope: {x: -0.00007011744, y: 0.000034268644, z: -0.000038859456}
        outSlope: {x: -5.204101e-15, y: 6.9388016e-15, z: -5.204101e-15}
        tangentMode: 0
      m_PreInfinity: 2
      m_PostInfinity: 2
      m_RotationOrder: 4
    path: Tool_Tweezers02
  - curve:
      serializedVersion: 2
      m_Curve:
      - serializedVersion: 2
        time: 0
        value: {x: 0.008098871, y: 5.6736277e-10, z: -0.0012252554}
        inSlope: {x: 0, y: 0, z: 0}
        outSlope: {x: 0, y: 0, z: 0}
        tangentMode: 0
      - serializedVersion: 2
        time: 0.46666622
        value: {x: 0.008098871, y: 5.6736277e-10, z: -0.0012252554}
        inSlope: {x: 0, y: 0, z: 0}
        outSlope: {x: 0, y: 0, z: 0}
        tangentMode: 0
      m_PreInfinity: 2
      m_PostInfinity: 2
      m_RotationOrder: 4
    path: Tool_Tweezers02/Tool_Tweezers03
  m_ScaleCurves:
  - curve:
      serializedVersion: 2
      m_Curve:
      - serializedVersion: 2
        time: 0
        value: {x: 1, y: 1, z: 1}
        inSlope: {x: 0, y: 0, z: 0}
        outSlope: {x: 0, y: 0, z: 0}
        tangentMode: 0
      - serializedVersion: 2
        time: 0.46666622
        value: {x: 1, y: 1, z: 1}
        inSlope: {x: 0, y: 0, z: 0}
        outSlope: {x: 0, y: 0, z: 0}
        tangentMode: 0
      m_PreInfinity: 2
      m_PostInfinity: 2
      m_RotationOrder: 4
    path: Tool_Tweezers02
  - curve:
      serializedVersion: 2
      m_Curve:
      - serializedVersion: 2
        time: 0
        value: {x: 1, y: 1, z: 1}
        inSlope: {x: 0, y: 0, z: 0}
        outSlope: {x: 0, y: 0, z: 0}
        tangentMode: 0
      - serializedVersion: 2
        time: 0.46666622
        value: {x: 1, y: 1, z: 1}
        inSlope: {x: 0, y: 0, z: 0}
        outSlope: {x: 0, y: 0, z: 0}
        tangentMode: 0
      m_PreInfinity: 2
      m_PostInfinity: 2
      m_RotationOrder: 4
    path: Tool_Tweezers02/Tool_Tweezers03
  m_FloatCurves: []
  m_PPtrCurves: []
  m_SampleRate: 30
  m_WrapMode: 0
  m_Bounds:
    m_Center: {x: 0, y: 0, z: 0}
    m_Extent: {x: 0, y: 0, z: 0}
  m_ClipBindingConstant:
    genericBindings:
    - serializedVersion: 2
      path: 4162974765
      attribute: 1
      script: {fileID: 0}
      typeID: 4
      customType: 0
      isPPtrCurve: 0
    - serializedVersion: 2
      path: 4162974765
      attribute: 2
      script: {fileID: 0}
      typeID: 4
      customType: 0
      isPPtrCurve: 0
    - serializedVersion: 2
      path: 3787453774
      attribute: 2
      script: {fileID: 0}
      typeID: 4
      customType: 0
      isPPtrCurve: 0
    - serializedVersion: 2
      path: 3787453774
      attribute: 1
      script: {fileID: 0}
      typeID: 4
      customType: 0
      isPPtrCurve: 0
    - serializedVersion: 2
      path: 4162974765
      attribute: 3
      script: {fileID: 0}
      typeID: 4
      customType: 0
      isPPtrCurve: 0
    - serializedVersion: 2
      path: 3787453774
      attribute: 3
      script: {fileID: 0}
      typeID: 4
      customType: 0
      isPPtrCurve: 0
    pptrCurveMapping: []
  m_AnimationClipSettings:
    serializedVersion: 2
    m_AdditiveReferencePoseClip: {fileID: 0}
    m_AdditiveReferencePoseTime: 0
    m_StartTime: 0
    m_StopTime: 0.46666622
    m_OrientationOffsetY: 0
    m_Level: 0
    m_CycleOffset: 0
    m_HasAdditiveReferencePose: 0
    m_LoopTime: 0
    m_LoopBlend: 0
    m_LoopBlendOrientation: 0
    m_LoopBlendPositionY: 0
    m_LoopBlendPositionXZ: 0
    m_KeepOriginalOrientation: 0
    m_KeepOriginalPositionY: 0
    m_KeepOriginalPositionXZ: 0
    m_HeightFromFeet: 0
    m_Mirror: 0
  m_EditorCurves: []
  m_EulerEditorCurves: []
  m_HasGenericRootTransform: 0
  m_HasMotionFloatCurves: 0
  m_GenerateMotionCurves: 0
  m_Events:
  - time: 0
    functionName: OnClipStart
    data: 
    objectReferenceParameter: {fileID: 0}
    floatParameter: 0
    intParameter: 10500202
    messageOptions: 0
  - time: 0.46666622
    functionName: OnClipEnd
    data: 
    objectReferenceParameter: {fileID: 0}
    floatParameter: 0
    intParameter: 10500202
    messageOptions: 0
