%YAML 1.1
%TAG !u! tag:unity3d.com,2011:
--- !u!74 &7400000
AnimationClip:
  m_ObjectHideFlags: 0
  m_PrefabParentObject: {fileID: 0}
  m_PrefabInternal: {fileID: 0}
  m_Name: Anim_10500341
  serializedVersion: 6
  m_Legacy: 0
  m_Compressed: 0
  m_UseHighQualityCurve: 1
  m_RotationCurves:
  - curve:
      serializedVersion: 2
      m_Curve:
      - serializedVersion: 2
        time: 0
        value: {x: 0.37787807, y: -2.3138358e-17, z: -0.9258554, w: -5.669229e-17}
        inSlope: {x: 0, y: 0, z: 0, w: 0}
        outSlope: {x: 0, y: 0, z: 0, w: 0}
        tangentMode: 0
      - serializedVersion: 2
        time: 0.46666718
        value: {x: 0.37787807, y: -2.3138358e-17, z: -0.9258554, w: -5.669229e-17}
        inSlope: {x: 0, y: 0, z: 0, w: 0}
        outSlope: {x: 0, y: 0, z: 0, w: 0}
        tangentMode: 0
      m_PreInfinity: 2
      m_PostInfinity: 2
      m_RotationOrder: 4
    path: Tool_Tweezers02
  - curve:
      serializedVersion: 2
      m_Curve:
      - serializedVersion: 2
        time: 0
        value: {x: 0, y: -0.03279971, z: 0, w: 0.9995135}
        inSlope: {x: 0, y: -0.10134451, z: 0, w: -0.00504263}
        outSlope: {x: 0, y: -0.10134451, z: 0, w: -0.00504263}
        tangentMode: 0
      - serializedVersion: 2
        time: 0.033334732
        value: {x: 0, y: -0.036178388, z: -0, w: 0.99934536}
        inSlope: {x: 0, y: 0, z: 0, w: 0}
        outSlope: {x: 0, y: 0, z: 0, w: 0}
        tangentMode: 0
      - serializedVersion: 2
        time: 0.16666794
        value: {x: 0, y: -0.051306106, z: -0, w: 0.998683}
        inSlope: {x: 0, y: -0.4536516, z: 0, w: -0.02330607}
        outSlope: {x: 0, y: -0.4536516, z: 0, w: -0.02330607}
        tangentMode: 0
      - serializedVersion: 2
        time: 0.2333355
        value: {x: 0, y: -0.06642137, z: -0, w: 0.99779165}
        inSlope: {x: 0, y: 0, z: 0, w: 0}
        outSlope: {x: 0, y: 0, z: 0, w: 0}
        tangentMode: 0
      - serializedVersion: 2
        time: 0.46666718
        value: {x: 0, y: -0.06515972, z: 0, w: 0.99787307}
        inSlope: {x: 0, y: 0.009053728, z: 0, w: 0.0005840629}
        outSlope: {x: 0, y: 0.009053728, z: 0, w: 0.0005840629}
        tangentMode: 0
      m_PreInfinity: 2
      m_PostInfinity: 2
      m_RotationOrder: 4
    path: Tool_Tweezers02/Tool_Tweezers03
  m_CompressedRotationCurves: []
  m_EulerCurves: []
  m_PositionCurves:
  - curve:
      serializedVersion: 2
      m_Curve:
      - serializedVersion: 2
        time: 0
        value: {x: 0.2654606, y: -0.36560026, z: 0.22204754}
        inSlope: {x: 0, y: 0, z: 0}
        outSlope: {x: 0, y: 0, z: 0}
        tangentMode: 0
      - serializedVersion: 2
        time: 0.10000038
        value: {x: 0.2654606, y: -0.36560023, z: 0.22204754}
        inSlope: {x: -3.9651425e-15, y: -2.9738573e-15, z: 2.230393e-15}
        outSlope: {x: -0.0005407669, y: 0.0008982613, z: 0.00017120069}
        tangentMode: 0
      - serializedVersion: 2
        time: 0.1333332
        value: {x: 0.14445427, y: -0.16425489, z: 0.26079446}
        inSlope: {x: -0.20314217, y: 0.0017306103, z: 0.0003329872}
        outSlope: {x: -0.20207837, y: -1.7346507e-15, z: 0.000029231547}
        tangentMode: 0
      - serializedVersion: 2
        time: 0.20000076
        value: {x: 0.13996324, y: -0.16425489, z: 0.24894004}
        inSlope: {x: -0.20210059, y: -7.434643e-16, z: -0.00002656184}
        outSlope: {x: -0.20217662, y: -1.7347499e-15, z: 0.0000093157505}
        tangentMode: 0
      - serializedVersion: 2
        time: 0.23333359
        value: {x: 0.1235354, y: -0.16425489, z: 0.25048012}
        inSlope: {x: -0.70046735, y: -7.434643e-16, z: 0.0000093157505}
        outSlope: {x: -0.7004723, y: -1.7347499e-15, z: -0.000017740085}
        tangentMode: 0
      - serializedVersion: 2
        time: 0.2666664
        value: {x: 0.09327216, y: -0.16425489, z: 0.24597767}
        inSlope: {x: -0.7222209, y: -7.434643e-16, z: -0.3455639}
        outSlope: {x: -0.7218478, y: -1.7346507e-15, z: -0.3453729}
        tangentMode: 0
      - serializedVersion: 2
        time: 0.30000114
        value: {x: 0.07540378, y: -0.16425489, z: 0.2274461}
        inSlope: {x: -0.4575314, y: -7.4342176e-16, z: -0.026052285}
        outSlope: {x: -0.45767662, y: -1.7347499e-15, z: -0.026157536}
        tangentMode: 0
      - serializedVersion: 2
        time: 0.33333397
        value: {x: 0.06276344, y: -0.16425489, z: 0.22715548}
        inSlope: {x: -1.0630604, y: -7.434643e-16, z: -0.026155407}
        outSlope: {x: -1.0633513, y: -0.00027623007, z: -0.026451023}
        tangentMode: 0
      - serializedVersion: 2
        time: 0.3666668
        value: {x: 0.0045358986, y: -0.21208356, z: 0.17027071}
        inSlope: {x: -0.2812109, y: -0.06757516, z: -1.4762582}
        outSlope: {x: -0.2808401, y: -0.067229845, z: -1.4759196}
        tangentMode: 0
      - serializedVersion: 2
        time: 0.39999962
        value: {x: 0.0014154762, y: -0.21283056, z: 0.1287668}
        inSlope: {x: -0.000004827763, y: -0.0000011688197, z: -0.00027560347}
        outSlope: {x: 2.7103918e-17, y: -0, z: 1.7346507e-15}
        tangentMode: 0
      - serializedVersion: 2
        time: 0.43333435
        value: {x: 0.0014154762, y: -0.21283056, z: 0.1287668}
        inSlope: {x: 1.1615965e-17, y: -0, z: 7.4342176e-16}
        outSlope: {x: 0.0013036986, y: -0, z: 0.0008749897}
        tangentMode: 0
      - serializedVersion: 2
        time: 0.46666718
        value: {x: 0.16657661, y: -0.21283056, z: 0.23960665}
        inSlope: {x: 0.0008513351, y: -0, z: 0.00057057565}
        outSlope: {x: -0, y: -0, z: 5.20425e-15}
        tangentMode: 0
      m_PreInfinity: 2
      m_PostInfinity: 2
      m_RotationOrder: 4
    path: Tool_Tweezers02
  - curve:
      serializedVersion: 2
      m_Curve:
      - serializedVersion: 2
        time: 0
        value: {x: 0.008098871, y: 5.6736277e-10, z: -0.0012252554}
        inSlope: {x: 0, y: 0, z: 0}
        outSlope: {x: 0, y: 0, z: 0}
        tangentMode: 0
      - serializedVersion: 2
        time: 0.46666718
        value: {x: 0.008098871, y: 5.6736277e-10, z: -0.0012252554}
        inSlope: {x: 0, y: 0, z: 0}
        outSlope: {x: 0, y: 0, z: 0}
        tangentMode: 0
      m_PreInfinity: 2
      m_PostInfinity: 2
      m_RotationOrder: 4
    path: Tool_Tweezers02/Tool_Tweezers03
  m_ScaleCurves:
  - curve:
      serializedVersion: 2
      m_Curve:
      - serializedVersion: 2
        time: 0
        value: {x: 1, y: 1, z: 1}
        inSlope: {x: 0, y: 0, z: 0}
        outSlope: {x: 0, y: 0, z: 0}
        tangentMode: 0
      - serializedVersion: 2
        time: 0.46666718
        value: {x: 1, y: 1, z: 1}
        inSlope: {x: 0, y: 0, z: 0}
        outSlope: {x: 0, y: 0, z: 0}
        tangentMode: 0
      m_PreInfinity: 2
      m_PostInfinity: 2
      m_RotationOrder: 4
    path: Tool_Tweezers02
  - curve:
      serializedVersion: 2
      m_Curve:
      - serializedVersion: 2
        time: 0
        value: {x: 1, y: 1, z: 1}
        inSlope: {x: 0, y: 0, z: 0}
        outSlope: {x: 0, y: 0, z: 0}
        tangentMode: 0
      - serializedVersion: 2
        time: 0.46666718
        value: {x: 1, y: 1, z: 1}
        inSlope: {x: 0, y: 0, z: 0}
        outSlope: {x: 0, y: 0, z: 0}
        tangentMode: 0
      m_PreInfinity: 2
      m_PostInfinity: 2
      m_RotationOrder: 4
    path: Tool_Tweezers02/Tool_Tweezers03
  m_FloatCurves: []
  m_PPtrCurves: []
  m_SampleRate: 30
  m_WrapMode: 0
  m_Bounds:
    m_Center: {x: 0, y: 0, z: 0}
    m_Extent: {x: 0, y: 0, z: 0}
  m_ClipBindingConstant:
    genericBindings:
    - serializedVersion: 2
      path: 4162974765
      attribute: 1
      script: {fileID: 0}
      typeID: 4
      customType: 0
      isPPtrCurve: 0
    - serializedVersion: 2
      path: 3787453774
      attribute: 2
      script: {fileID: 0}
      typeID: 4
      customType: 0
      isPPtrCurve: 0
    - serializedVersion: 2
      path: 3787453774
      attribute: 1
      script: {fileID: 0}
      typeID: 4
      customType: 0
      isPPtrCurve: 0
    - serializedVersion: 2
      path: 4162974765
      attribute: 2
      script: {fileID: 0}
      typeID: 4
      customType: 0
      isPPtrCurve: 0
    - serializedVersion: 2
      path: 4162974765
      attribute: 3
      script: {fileID: 0}
      typeID: 4
      customType: 0
      isPPtrCurve: 0
    - serializedVersion: 2
      path: 3787453774
      attribute: 3
      script: {fileID: 0}
      typeID: 4
      customType: 0
      isPPtrCurve: 0
    pptrCurveMapping: []
  m_AnimationClipSettings:
    serializedVersion: 2
    m_AdditiveReferencePoseClip: {fileID: 0}
    m_AdditiveReferencePoseTime: 0
    m_StartTime: 0
    m_StopTime: 0.46666718
    m_OrientationOffsetY: 0
    m_Level: 0
    m_CycleOffset: 0
    m_HasAdditiveReferencePose: 0
    m_LoopTime: 0
    m_LoopBlend: 0
    m_LoopBlendOrientation: 0
    m_LoopBlendPositionY: 0
    m_LoopBlendPositionXZ: 0
    m_KeepOriginalOrientation: 0
    m_KeepOriginalPositionY: 0
    m_KeepOriginalPositionXZ: 0
    m_HeightFromFeet: 0
    m_Mirror: 0
  m_EditorCurves: []
  m_EulerEditorCurves: []
  m_HasGenericRootTransform: 0
  m_HasMotionFloatCurves: 0
  m_GenerateMotionCurves: 0
  m_Events:
  - time: 0
    functionName: OnClipStart
    data: 
    objectReferenceParameter: {fileID: 0}
    floatParameter: 0
    intParameter: 10500341
    messageOptions: 0
  - time: 0.46666718
    functionName: OnClipEnd
    data: 
    objectReferenceParameter: {fileID: 0}
    floatParameter: 0
    intParameter: 10500341
    messageOptions: 0
