%YAML 1.1
%TAG !u! tag:unity3d.com,2011:
--- !u!74 &7400000
AnimationClip:
  m_ObjectHideFlags: 0
  m_PrefabParentObject: {fileID: 0}
  m_PrefabInternal: {fileID: 0}
  m_Name: Anim_10500015
  serializedVersion: 6
  m_Legacy: 0
  m_Compressed: 0
  m_UseHighQualityCurve: 1
  m_RotationCurves:
  - curve:
      serializedVersion: 2
      m_Curve:
      - serializedVersion: 2
        time: 0
        value: {x: 0, y: 0, z: -0, w: 1}
        inSlope: {x: 0, y: -0, z: 0, w: 0}
        outSlope: {x: 0, y: -0, z: 0, w: 0}
        tangentMode: 0
      - serializedVersion: 2
        time: 0.06666668
        value: {x: 0, y: -0, z: -0, w: 1}
        inSlope: {x: 1.8094363e-25, y: 1.766458e-12, z: -1.5364954e-12, w: 0}
        outSlope: {x: 1.8094363e-25, y: 1.766458e-12, z: -1.5364954e-12, w: 0}
        tangentMode: 0
      - serializedVersion: 2
        time: 0.10000001
        value: {x: 1.2062908e-26, y: 1.1776386e-13, z: -1.0243302e-13, w: 1}
        inSlope: {x: 8.3278265, y: 8.3278265, z: -6.5686617, w: -8.431338}
        outSlope: {x: 8.3278265, y: 8.3278265, z: -6.5686617, w: -8.431338}
        tangentMode: 0
      - serializedVersion: 2
        time: 0.13333334
        value: {x: 0.5551884, y: 0.5551884, z: -0.43791077, w: 0.43791077}
        inSlope: {x: 8.3278265, y: 8.3278265, z: -6.5686617, w: -8.431338}
        outSlope: {x: 8.3278265, y: 8.3278265, z: -6.5686617, w: -8.431338}
        tangentMode: 0
      - serializedVersion: 2
        time: 0.16666669
        value: {x: 0.5551884, y: 0.5551884, z: -0.43791077, w: 0.43791077}
        inSlope: {x: 0, y: 0, z: 0, w: 0}
        outSlope: {x: 0, y: 0, z: 0, w: 0}
        tangentMode: 0
      - serializedVersion: 2
        time: 0.46666667
        value: {x: 0.5551884, y: 0.5551884, z: -0.43791077, w: 0.43791077}
        inSlope: {x: 0, y: 0, z: 0, w: 0}
        outSlope: {x: 0, y: 0, z: 0, w: 0}
        tangentMode: 0
      m_PreInfinity: 2
      m_PostInfinity: 2
      m_RotationOrder: 4
    path: Tool_PlasticSpudger02
  m_CompressedRotationCurves: []
  m_EulerCurves: []
  m_PositionCurves:
  - curve:
      serializedVersion: 2
      m_Curve:
      - serializedVersion: 2
        time: 0
        value: {x: -0.66567993, y: -0.4116211, z: 0}
        inSlope: {x: 0, y: 0, z: 0}
        outSlope: {x: 0, y: 0, z: 0}
        tangentMode: 0
      - serializedVersion: 2
        time: 0.10000001
        value: {x: -0.66567993, y: -0.4116211, z: 0}
        inSlope: {x: -8.921435e-15, y: -1.3877786e-14, z: -0}
        outSlope: {x: 0.000073911986, y: 0.000035274996, z: 0.00000905072}
        tangentMode: 0
      - serializedVersion: 2
        time: 0.13333334
        value: {x: -0.0033950806, y: -0.07997131, z: 0.08117676}
        inSlope: {x: 0.000033465974, y: 0.47219774, z: 0.000003994969}
        outSlope: {x: -2.7105056e-17, y: 0.4721796, z: -0.0000008943504}
        tangentMode: 0
      - serializedVersion: 2
        time: 0.16666667
        value: {x: -0.0033950806, y: -0.07472487, z: 0.07409668}
        inSlope: {x: -1.1616453e-17, y: 0.06752259, z: -0.21240312}
        outSlope: {x: -2.7105056e-17, y: 0.067524165, z: -0.21240312}
        tangentMode: 0
      - serializedVersion: 2
        time: 0.2
        value: {x: -0.0033950806, y: -0.07397461, z: 0.0670166}
        inSlope: {x: -1.1616453e-17, y: 0.00000061532154, z: -0.0000008943504}
        outSlope: {x: -2.7105044e-17, y: -8.673614e-16, z: -0.0000005090934}
        tangentMode: 0
      - serializedVersion: 2
        time: 0.23333335
        value: {x: -0.0033950806, y: -0.07397461, z: 0.0703125}
        inSlope: {x: -1.1616448e-17, y: -3.7172634e-16, z: 0.29662934}
        outSlope: {x: -2.7105056e-17, y: -8.673618e-16, z: 0.2966287}
        tangentMode: 0
      - serializedVersion: 2
        time: 0.26666668
        value: {x: -0.0033950806, y: -0.07397461, z: 0.0970459}
        inSlope: {x: -1.1616453e-17, y: -3.717265e-16, z: 0.818477}
        outSlope: {x: -0.0000029846262, y: -8.673618e-16, z: 0.8184789}
        tangentMode: 0
      - serializedVersion: 2
        time: 0.3
        value: {x: 0.034589767, y: -0.07397461, z: 0.12487793}
        inSlope: {x: 1.6396159, y: -3.717265e-16, z: 0.8605906}
        outSlope: {x: 1.6396186, y: -8.673618e-16, z: 0.8605919}
        tangentMode: 0
      - serializedVersion: 2
        time: 0.33333334
        value: {x: 0.10591316, y: -0.07397461, z: 0.15441895}
        inSlope: {x: 2.0714266, y: -3.717265e-16, z: 0.7873463}
        outSlope: {x: 2.0714355, y: -0.00000014835679, z: 0.78734946}
        tangentMode: 0
      - serializedVersion: 2
        time: 0.36666667
        value: {x: 0.17268562, y: -0.07409668, z: 0.17736816}
        inSlope: {x: 1.4584292, y: -0.00000014835679, z: 0.49621266}
        outSlope: {x: 1.4584316, y: -8.673618e-16, z: 0.49621728}
        tangentMode: 0
      - serializedVersion: 2
        time: 0.4
        value: {x: 0.20314217, y: -0.07409668, z: 0.1875}
        inSlope: {x: 0.12358978, y: -3.717265e-16, z: 0.00000008816127}
        outSlope: {x: 0.12359683, y: 0.00000029671358, z: 0.0000041159888}
        tangentMode: 0
      - serializedVersion: 2
        time: 0.43333334
        value: {x: 0.20451546, y: -0.07385254, z: 0.1821289}
        inSlope: {x: 0.12359683, y: 0.00000029671358, z: 0.0000041159888}
        outSlope: {x: 0.12358273, y: 0.000006967483, z: -0.000004279698}
        tangentMode: 0
      - serializedVersion: 2
        time: 0.46666667
        value: {x: 0.31437874, y: -0.14252663, z: 0.21801758}
        inSlope: {x: -0.000013890279, y: 0.000006967483, z: -0.000004279698}
        outSlope: {x: 3.4694442e-15, y: -2.602083e-15, z: 5.204166e-15}
        tangentMode: 0
      m_PreInfinity: 2
      m_PostInfinity: 2
      m_RotationOrder: 4
    path: Tool_PlasticSpudger02
  m_ScaleCurves:
  - curve:
      serializedVersion: 2
      m_Curve:
      - serializedVersion: 2
        time: 0
        value: {x: 1, y: 1, z: 1}
        inSlope: {x: 0, y: 0, z: 0}
        outSlope: {x: 0, y: 0, z: 0}
        tangentMode: 0
      - serializedVersion: 2
        time: 0.46666667
        value: {x: 1, y: 1, z: 1}
        inSlope: {x: 0, y: 0, z: 0}
        outSlope: {x: 0, y: 0, z: 0}
        tangentMode: 0
      m_PreInfinity: 2
      m_PostInfinity: 2
      m_RotationOrder: 4
    path: Tool_PlasticSpudger02
  m_FloatCurves: []
  m_PPtrCurves: []
  m_SampleRate: 30
  m_WrapMode: 0
  m_Bounds:
    m_Center: {x: 0, y: 0, z: 0}
    m_Extent: {x: 0, y: 0, z: 0}
  m_ClipBindingConstant:
    genericBindings:
    - serializedVersion: 2
      path: 2719527444
      attribute: 1
      script: {fileID: 0}
      typeID: 4
      customType: 0
      isPPtrCurve: 0
    - serializedVersion: 2
      path: 2719527444
      attribute: 2
      script: {fileID: 0}
      typeID: 4
      customType: 0
      isPPtrCurve: 0
    - serializedVersion: 2
      path: 2719527444
      attribute: 3
      script: {fileID: 0}
      typeID: 4
      customType: 0
      isPPtrCurve: 0
    pptrCurveMapping: []
  m_AnimationClipSettings:
    serializedVersion: 2
    m_AdditiveReferencePoseClip: {fileID: 0}
    m_AdditiveReferencePoseTime: 0
    m_StartTime: 0
    m_StopTime: 0.46666667
    m_OrientationOffsetY: 0
    m_Level: 0
    m_CycleOffset: 0
    m_HasAdditiveReferencePose: 0
    m_LoopTime: 0
    m_LoopBlend: 0
    m_LoopBlendOrientation: 0
    m_LoopBlendPositionY: 0
    m_LoopBlendPositionXZ: 0
    m_KeepOriginalOrientation: 0
    m_KeepOriginalPositionY: 0
    m_KeepOriginalPositionXZ: 0
    m_HeightFromFeet: 0
    m_Mirror: 0
  m_EditorCurves: []
  m_EulerEditorCurves: []
  m_HasGenericRootTransform: 0
  m_HasMotionFloatCurves: 0
  m_GenerateMotionCurves: 0
  m_Events:
  - time: 0
    functionName: OnClipStart
    data: 
    objectReferenceParameter: {fileID: 0}
    floatParameter: 0
    intParameter: 10500015
    messageOptions: 0
  - time: 0.46666667
    functionName: OnClipEnd
    data: 
    objectReferenceParameter: {fileID: 0}
    floatParameter: 0
    intParameter: 10500015
    messageOptions: 0
