%YAML 1.1
%TAG !u! tag:unity3d.com,2011:
--- !u!74 &7400000
AnimationClip:
  m_ObjectHideFlags: 0
  m_PrefabParentObject: {fileID: 0}
  m_PrefabInternal: {fileID: 0}
  m_Name: Anim_10500157
  serializedVersion: 6
  m_Legacy: 0
  m_Compressed: 0
  m_UseHighQualityCurve: 1
  m_RotationCurves:
  - curve:
      serializedVersion: 2
      m_Curve:
      - serializedVersion: 2
        time: 0
        value: {x: 4.458854e-17, y: 0.97025824, z: -4.458854e-17, w: -0.24207215}
        inSlope: {x: 0, y: 0, z: 0, w: 0}
        outSlope: {x: 0, y: 0, z: 0, w: 0}
        tangentMode: 0
      - serializedVersion: 2
        time: 0.06666684
        value: {x: 4.458854e-17, y: 0.97025824, z: -4.458854e-17, w: -0.24207215}
        inSlope: {x: -9.529142e-11, y: 0, z: -3.81941e-10, w: 0}
        outSlope: {x: -9.529142e-11, y: 0, z: -3.81941e-10, w: 0}
        tangentMode: 0
      - serializedVersion: 2
        time: 0.10000014
        value: {x: -6.3527105e-12, y: 0.97025824, z: -2.5462755e-11, w: -0.24207215}
        inSlope: {x: -6.324692, y: -6.039283, z: -8.514605, w: -2.6936064}
        outSlope: {x: -6.324692, y: -6.039283, z: -8.514605, w: -2.6936064}
        tangentMode: 0
      - serializedVersion: 2
        time: 0.13333344
        value: {x: -0.42164573, y: 0.56763977, z: -0.56763977, w: -0.42164573}
        inSlope: {x: -6.324692, y: -6.039283, z: -8.514605, w: -2.6936064}
        outSlope: {x: -6.324692, y: -6.039283, z: -8.514605, w: -2.6936064}
        tangentMode: 0
      - serializedVersion: 2
        time: 0.16666675
        value: {x: -0.42164573, y: 0.56763977, z: -0.56763977, w: -0.42164573}
        inSlope: {x: 0, y: 0, z: 0, w: 0}
        outSlope: {x: 0, y: 0, z: 0, w: 0}
        tangentMode: 0
      - serializedVersion: 2
        time: 0.4666667
        value: {x: -0.42164573, y: 0.56763977, z: -0.56763977, w: -0.42164573}
        inSlope: {x: 0, y: 0, z: 0, w: 0}
        outSlope: {x: 0, y: 0, z: 0, w: 0}
        tangentMode: 0
      m_PreInfinity: 2
      m_PostInfinity: 2
      m_RotationOrder: 4
    path: Tool_Tweezers02
  - curve:
      serializedVersion: 2
      m_Curve:
      - serializedVersion: 2
        time: 0
        value: {x: 0, y: -0.047669925, z: 0, w: 0.9988898}
        inSlope: {x: 0, y: -0.048875395, z: 0, w: -0.0028118468}
        outSlope: {x: 0, y: -0.048875395, z: 0, w: -0.0028118468}
        tangentMode: 0
      - serializedVersion: 2
        time: 0.06666684
        value: {x: 0, y: -0.05092831, z: -0, w: 0.99870235}
        inSlope: {x: 0, y: 0, z: 0, w: 0}
        outSlope: {x: 0, y: 0, z: 0, w: 0}
        tangentMode: 0
      - serializedVersion: 2
        time: 0.30000007
        value: {x: 0, y: -0.062046822, z: -0, w: 0.9980733}
        inSlope: {x: 0, y: 0, z: 0, w: 0}
        outSlope: {x: 0, y: 0, z: 0, w: 0}
        tangentMode: 0
      - serializedVersion: 2
        time: 0.4000001
        value: {x: 0, y: -0.062046822, z: -0, w: 0.9980733}
        inSlope: {x: 0, y: 0.16677725, z: 0, w: 0.009435986}
        outSlope: {x: 0, y: 0.16677725, z: 0, w: 0.009435986}
        tangentMode: 0
      - serializedVersion: 2
        time: 0.4666667
        value: {x: 0, y: -0.05092831, z: -0, w: 0.99870235}
        inSlope: {x: 0, y: 0, z: 0, w: 0}
        outSlope: {x: 0, y: 0, z: 0, w: 0}
        tangentMode: 0
      m_PreInfinity: 2
      m_PostInfinity: 2
      m_RotationOrder: 4
    path: Tool_Tweezers02/Tool_Tweezers03
  m_CompressedRotationCurves: []
  m_EulerCurves: []
  m_PositionCurves:
  - curve:
      serializedVersion: 2
      m_Curve:
      - serializedVersion: 2
        time: 0
        value: {x: 0.29790437, y: -0.38977584, z: 0.0085437745}
        inSlope: {x: 0, y: 0, z: 0}
        outSlope: {x: 0, y: 0, z: 0}
        tangentMode: 0
      - serializedVersion: 2
        time: 0.100000024
        value: {x: 0.29790437, y: -0.38977584, z: 0.0085437745}
        inSlope: {x: 2.9738147e-15, y: -1.4869074e-15, z: -1.2390893e-16}
        outSlope: {x: 0.0000114069335, y: -0.000006661191, z: 0.0000028161924}
        tangentMode: 0
      - serializedVersion: 2
        time: 0.13333333
        value: {x: 0.05046785, y: -0.20549545, z: -0.051278308}
        inSlope: {x: -0.000051390874, y: 0.37249506, z: -0.00001268369}
        outSlope: {x: 1.3010392e-15, y: 0.37245414, z: -0.0000052759706}
        tangentMode: 0
      - serializedVersion: 2
        time: 0.16666675
        value: {x: 0.05046785, y: -0.20135704, z: -0.042489246}
        inSlope: {x: 5.575883e-16, y: 0.053261474, z: 0.26366475}
        outSlope: {x: 1.3010439e-15, y: 0.05326129, z: 0.26367447}
        tangentMode: 0
      - serializedVersion: 2
        time: 0.20000005
        value: {x: 0.05046785, y: -0.20076522, z: -0.033700183}
        inSlope: {x: 5.5759025e-16, y: -0.0000018961655, z: -0.0000007524178}
        outSlope: {x: 1.3010439e-15, y: -2.2303608e-15, z: -0.000000038764135}
        tangentMode: 0
      - serializedVersion: 2
        time: 0.23333335
        value: {x: 0.05046785, y: -0.20076522, z: -0.039840568}
        inSlope: {x: 5.5759025e-16, y: 4.7085397e-15, z: -0.26311967}
        outSlope: {x: 1.3010439e-15, y: -2.2303608e-15, z: -0.26311857}
        tangentMode: 0
      - serializedVersion: 2
        time: 0.26666665
        value: {x: 0.05046785, y: -0.20076522, z: -0.05124144}
        inSlope: {x: 5.5759025e-16, y: 4.7085397e-15, z: -0.26312175}
        outSlope: {x: 1.3010392e-15, y: -2.2303527e-15, z: -0.2631146}
        tangentMode: 0
      - serializedVersion: 2
        time: 0.30000007
        value: {x: 0.05046785, y: -0.20076522, z: -0.057381824}
        inSlope: {x: 5.575883e-16, y: 4.7085227e-15, z: 0.000002489105}
        outSlope: {x: 1.3010439e-15, y: 0.0000014615969, z: 0.00000042151757}
        tangentMode: 0
      - serializedVersion: 2
        time: 0.33333337
        value: {x: 0.05046785, y: -0.18857941, z: -0.05113878}
        inSlope: {x: 5.5759025e-16, y: 0.5221663, z: 0.26751697}
        outSlope: {x: 1.3010439e-15, y: 0.52216804, z: 0.26751786}
        tangentMode: 0
      - serializedVersion: 2
        time: 0.36666667
        value: {x: 0.05046785, y: -0.16595396, z: -0.039547313}
        inSlope: {x: 5.5759025e-16, y: 0.5221701, z: 0.2675189}
        outSlope: {x: 1.3010439e-15, y: 0.5221663, z: 0.2675167}
        tangentMode: 0
      - serializedVersion: 2
        time: 0.39999998
        value: {x: 0.05046785, y: -0.15376815, z: -0.033304274}
        inSlope: {x: 5.5759025e-16, y: 0.0000014615969, z: 0.0000012410823}
        outSlope: {x: 1.3010392e-15, y: -1.4869021e-15, z: -5.885654e-16}
        tangentMode: 0
      - serializedVersion: 2
        time: 0.4333334
        value: {x: 0.05046785, y: -0.15376815, z: -0.033304274}
        inSlope: {x: 5.575883e-16, y: -3.4694378e-15, z: -9.602909e-16}
        outSlope: {x: 0.000030143687, y: -1.4869074e-15, z: -0.0000069188704}
        tangentMode: 0
      - serializedVersion: 2
        time: 0.4666667
        value: {x: 0.23882234, y: -0.15376815, z: -0.07785994}
        inSlope: {x: -0.0000007230325, y: -3.4694503e-15, z: 0.0000010639018}
        outSlope: {x: 1.7347252e-15, y: -1.4869074e-15, z: -8.673626e-16}
        tangentMode: 0
      m_PreInfinity: 2
      m_PostInfinity: 2
      m_RotationOrder: 4
    path: Tool_Tweezers02
  - curve:
      serializedVersion: 2
      m_Curve:
      - serializedVersion: 2
        time: 0
        value: {x: 0.008098871, y: 5.6736277e-10, z: -0.0012252554}
        inSlope: {x: 0, y: 0, z: 0}
        outSlope: {x: 0, y: 0, z: 0}
        tangentMode: 0
      - serializedVersion: 2
        time: 0.4666667
        value: {x: 0.008098871, y: 5.6736277e-10, z: -0.0012252554}
        inSlope: {x: 0, y: 0, z: 0}
        outSlope: {x: 0, y: 0, z: 0}
        tangentMode: 0
      m_PreInfinity: 2
      m_PostInfinity: 2
      m_RotationOrder: 4
    path: Tool_Tweezers02/Tool_Tweezers03
  m_ScaleCurves:
  - curve:
      serializedVersion: 2
      m_Curve:
      - serializedVersion: 2
        time: 0
        value: {x: 1, y: 1, z: 1}
        inSlope: {x: 0, y: 0, z: 0}
        outSlope: {x: 0, y: 0, z: 0}
        tangentMode: 0
      - serializedVersion: 2
        time: 0.4666667
        value: {x: 1, y: 1, z: 1}
        inSlope: {x: 0, y: 0, z: 0}
        outSlope: {x: 0, y: 0, z: 0}
        tangentMode: 0
      m_PreInfinity: 2
      m_PostInfinity: 2
      m_RotationOrder: 4
    path: Tool_Tweezers02
  - curve:
      serializedVersion: 2
      m_Curve:
      - serializedVersion: 2
        time: 0
        value: {x: 1, y: 1, z: 1}
        inSlope: {x: 0, y: 0, z: 0}
        outSlope: {x: 0, y: 0, z: 0}
        tangentMode: 0
      - serializedVersion: 2
        time: 0.4666667
        value: {x: 1, y: 1, z: 1}
        inSlope: {x: 0, y: 0, z: 0}
        outSlope: {x: 0, y: 0, z: 0}
        tangentMode: 0
      m_PreInfinity: 2
      m_PostInfinity: 2
      m_RotationOrder: 4
    path: Tool_Tweezers02/Tool_Tweezers03
  m_FloatCurves: []
  m_PPtrCurves: []
  m_SampleRate: 30
  m_WrapMode: 0
  m_Bounds:
    m_Center: {x: 0, y: 0, z: 0}
    m_Extent: {x: 0, y: 0, z: 0}
  m_ClipBindingConstant:
    genericBindings:
    - serializedVersion: 2
      path: 4162974765
      attribute: 1
      script: {fileID: 0}
      typeID: 4
      customType: 0
      isPPtrCurve: 0
    - serializedVersion: 2
      path: 4162974765
      attribute: 2
      script: {fileID: 0}
      typeID: 4
      customType: 0
      isPPtrCurve: 0
    - serializedVersion: 2
      path: 3787453774
      attribute: 2
      script: {fileID: 0}
      typeID: 4
      customType: 0
      isPPtrCurve: 0
    - serializedVersion: 2
      path: 3787453774
      attribute: 1
      script: {fileID: 0}
      typeID: 4
      customType: 0
      isPPtrCurve: 0
    - serializedVersion: 2
      path: 4162974765
      attribute: 3
      script: {fileID: 0}
      typeID: 4
      customType: 0
      isPPtrCurve: 0
    - serializedVersion: 2
      path: 3787453774
      attribute: 3
      script: {fileID: 0}
      typeID: 4
      customType: 0
      isPPtrCurve: 0
    pptrCurveMapping: []
  m_AnimationClipSettings:
    serializedVersion: 2
    m_AdditiveReferencePoseClip: {fileID: 0}
    m_AdditiveReferencePoseTime: 0
    m_StartTime: 0
    m_StopTime: 0.4666667
    m_OrientationOffsetY: 0
    m_Level: 0
    m_CycleOffset: 0
    m_HasAdditiveReferencePose: 0
    m_LoopTime: 0
    m_LoopBlend: 0
    m_LoopBlendOrientation: 0
    m_LoopBlendPositionY: 0
    m_LoopBlendPositionXZ: 0
    m_KeepOriginalOrientation: 0
    m_KeepOriginalPositionY: 0
    m_KeepOriginalPositionXZ: 0
    m_HeightFromFeet: 0
    m_Mirror: 0
  m_EditorCurves: []
  m_EulerEditorCurves: []
  m_HasGenericRootTransform: 0
  m_HasMotionFloatCurves: 0
  m_GenerateMotionCurves: 0
  m_Events:
  - time: 0
    functionName: OnClipStart
    data: 
    objectReferenceParameter: {fileID: 0}
    floatParameter: 0
    intParameter: 10500157
    messageOptions: 0
  - time: 0.4666667
    functionName: OnClipEnd
    data: 
    objectReferenceParameter: {fileID: 0}
    floatParameter: 0
    intParameter: 10500157
    messageOptions: 0
