%YAML 1.1
%TAG !u! tag:unity3d.com,2011:
--- !u!74 &7400000
AnimationClip:
  m_ObjectHideFlags: 0
  m_PrefabParentObject: {fileID: 0}
  m_PrefabInternal: {fileID: 0}
  m_Name: Anim_10500332
  serializedVersion: 6
  m_Legacy: 0
  m_Compressed: 0
  m_UseHighQualityCurve: 1
  m_RotationCurves:
  - curve:
      serializedVersion: 2
      m_Curve:
      - serializedVersion: 2
        time: 0
        value: {x: 0.66509455, y: -4.0725294e-17, z: -0.7467592, w: -4.572581e-17}
        inSlope: {x: 0, y: 0, z: 0, w: 0}
        outSlope: {x: 0, y: 0, z: 0, w: 0}
        tangentMode: 0
      - serializedVersion: 2
        time: 0.06666756
        value: {x: 0.66509455, y: -4.0725294e-17, z: -0.7467592, w: -4.572581e-17}
        inSlope: {x: 0, y: 0, z: 0, w: 0}
        outSlope: {x: 0, y: 0, z: 0, w: 0}
        tangentMode: 0
      - serializedVersion: 2
        time: 0.10000229
        value: {x: 0.66509455, y: -4.0725294e-17, z: -0.7467592, w: -4.572581e-17}
        inSlope: {x: -9.432689, y: 5.7758557e-16, z: -3.7888076, w: -2.319976e-16}
        outSlope: {x: -9.432689, y: 5.7758557e-16, z: -3.7888076, w: -2.319976e-16}
        tangentMode: 0
      - serializedVersion: 2
        time: 0.13333511
        value: {x: 0.036258206, y: -2.2201747e-18, z: -0.9993425, w: -6.119208e-17}
        inSlope: {x: -9.432689, y: 5.7758557e-16, z: -3.7888076, w: -2.319976e-16}
        outSlope: {x: -9.432689, y: 5.7758557e-16, z: -3.7888076, w: -2.319976e-16}
        tangentMode: 0
      - serializedVersion: 2
        time: 0.16666794
        value: {x: 0.036258206, y: -2.2201747e-18, z: -0.9993425, w: -6.119208e-17}
        inSlope: {x: 0, y: 0, z: 0, w: 0}
        outSlope: {x: 0, y: 0, z: 0, w: 0}
        tangentMode: 0
      - serializedVersion: 2
        time: 0.20000076
        value: {x: 0.036258206, y: -2.2201747e-18, z: -0.9993425, w: -6.119208e-17}
        inSlope: {x: 5.6951036, y: -3.4872455e-16, z: 1.3492528, w: 8.261798e-17}
        outSlope: {x: 5.6951036, y: -3.4872455e-16, z: 1.3492528, w: 8.261798e-17}
        tangentMode: 0
      - serializedVersion: 2
        time: 0.2333355
        value: {x: 0.41594774, y: -2.5469454e-17, z: -0.90938854, w: -5.5683986e-17}
        inSlope: {x: 10.440164, y: -1.2647767e-15, z: 4.7750826, w: -3.8020924e-16}
        outSlope: {x: 10.440164, y: -1.2647767e-15, z: 4.7750826, w: -3.8020924e-16}
        tangentMode: 0
      - serializedVersion: 2
        time: 0.26666832
        value: {x: 0.73228025, y: -8.653866e-17, z: -0.6810034, w: -8.653866e-17}
        inSlope: {x: -7.7884655, y: 4.769059e-16, z: -1.2789834, w: -7.8315184e-17}
        outSlope: {x: -7.7884655, y: 4.769059e-16, z: -1.2789834, w: -7.8315184e-17}
        tangentMode: 0
      - serializedVersion: 2
        time: 0.30000114
        value: {x: -0.10327534, y: 6.3237904e-18, z: -0.9946528, w: -6.090492e-17}
        inSlope: {x: -10.44061, y: 1.264804e-15, z: -4.7751555, w: 3.8020477e-16}
        outSlope: {x: -10.44061, y: 1.264804e-15, z: -4.7751555, w: 3.8020477e-16}
        tangentMode: 0
      - serializedVersion: 2
        time: 0.33333588
        value: {x: 0.036258206, y: -2.2201747e-18, z: -0.9993425, w: -6.119208e-17}
        inSlope: {x: 2.0929155, y: -1.281541e-16, z: -0.07034245, w: -4.3072796e-18}
        outSlope: {x: 2.0929155, y: -1.281541e-16, z: -0.07034245, w: -4.3072796e-18}
        tangentMode: 0
      - serializedVersion: 2
        time: 0.3666687
        value: {x: 0.036258206, y: -2.2201747e-18, z: -0.9993425, w: -6.119208e-17}
        inSlope: {x: 0, y: 0, z: 0, w: 0}
        outSlope: {x: 0, y: 0, z: 0, w: 0}
        tangentMode: 0
      - serializedVersion: 2
        time: 0.40000153
        value: {x: 0.036258206, y: -2.2201747e-18, z: -0.9993425, w: -6.119208e-17}
        inSlope: {x: 0, y: 0, z: 0, w: 0}
        outSlope: {x: 0, y: 0, z: 0, w: 0}
        tangentMode: 0
      - serializedVersion: 2
        time: 0.43333435
        value: {x: 0.036258206, y: -2.2201747e-18, z: -0.9993425, w: -6.119208e-17}
        inSlope: {x: 6.2878227, y: -3.850181e-16, z: 1.636255, w: 1.0019172e-16}
        outSlope: {x: 6.2878227, y: -3.850181e-16, z: 1.636255, w: 1.0019172e-16}
        tangentMode: 0
      - serializedVersion: 2
        time: 0.46666908
        value: {x: 0.45546398, y: -2.7889126e-17, z: -0.89025426, w: -5.4512354e-17}
        inSlope: {x: 6.2878227, y: -3.850181e-16, z: 1.636255, w: 1.0019172e-16}
        outSlope: {x: 6.2878227, y: -3.850181e-16, z: 1.636255, w: 1.0019172e-16}
        tangentMode: 0
      m_PreInfinity: 2
      m_PostInfinity: 2
      m_RotationOrder: 4
    path: Tool_Tweezers02
  - curve:
      serializedVersion: 2
      m_Curve:
      - serializedVersion: 2
        time: 0
        value: {x: 0, y: -0.066711605, z: 0, w: 0.9977721}
        inSlope: {x: 0, y: 0.0033857403, z: 0, w: 0.00022530541}
        outSlope: {x: 0, y: 0.0033857403, z: 0, w: 0.00022530541}
        tangentMode: 0
      - serializedVersion: 2
        time: 0.40000153
        value: {x: 0, y: -0.06558301, z: -0, w: 0.99784714}
        inSlope: {x: 0, y: 0, z: 0, w: 0}
        outSlope: {x: 0, y: 0, z: 0, w: 0}
        tangentMode: 0
      - serializedVersion: 2
        time: 0.43333435
        value: {x: 0, y: -0.06558301, z: -0, w: 0.99784714}
        inSlope: {x: 0, y: 0.20191102, z: 0, w: 0.0119040385}
        outSlope: {x: 0, y: 0.20191102, z: 0, w: 0.0119040385}
        tangentMode: 0
      - serializedVersion: 2
        time: 0.46666908
        value: {x: 0, y: -0.052121714, z: -0, w: 0.9986408}
        inSlope: {x: 0, y: 0.20191102, z: 0, w: 0.0119040385}
        outSlope: {x: 0, y: 0.20191102, z: 0, w: 0.0119040385}
        tangentMode: 0
      m_PreInfinity: 2
      m_PostInfinity: 2
      m_RotationOrder: 4
    path: Tool_Tweezers02/Tool_Tweezers03
  m_CompressedRotationCurves: []
  m_EulerCurves: []
  m_PositionCurves:
  - curve:
      serializedVersion: 2
      m_Curve:
      - serializedVersion: 2
        time: 0
        value: {x: 0.13349082, y: 0.14762491, z: 0.3354588}
        inSlope: {x: 0, y: 0, z: 0}
        outSlope: {x: 0, y: 0, z: 0}
        tangentMode: 0
      - serializedVersion: 2
        time: 0.10000038
        value: {x: 0.13349082, y: 0.14762491, z: 0.33545876}
        inSlope: {x: 1.1151965e-15, y: 1.4869286e-15, z: -0}
        outSlope: {x: 0.000842323, y: -0.001900078, z: -0.0008951099}
        tangentMode: 0
      - serializedVersion: 2
        time: 0.1333332
        value: {x: 0.32185745, y: -0.27861255, z: 0.13395678}
        inSlope: {x: 0.0016214527, y: -0.0036552488, z: -0.0017274589}
        outSlope: {x: 0.000023265637, y: -3.4693015e-15, z: 1.7346507e-15}
        tangentMode: 0
      - serializedVersion: 2
        time: 0.16666794
        value: {x: 0.31560272, y: -0.27861255, z: 0.13395678}
        inSlope: {x: -0.42784348, y: -1.4868435e-15, z: 7.4342176e-16}
        outSlope: {x: -0.42800015, y: -3.4694999e-15, z: 1.7347499e-15}
        tangentMode: 0
      - serializedVersion: 2
        time: 0.20000076
        value: {x: 0.29333115, y: -0.27861255, z: 0.13395678}
        inSlope: {x: -1.3481822, y: -1.4869286e-15, z: 7.434643e-16}
        outSlope: {x: -1.3484392, y: -3.4694999e-15, z: 0.0008120118}
        tangentMode: 0
      - serializedVersion: 2
        time: 0.23333359
        value: {x: 0.22572756, y: -0.27861255, z: 0.27526718}
        inSlope: {x: -3.6911163, y: -1.4869286e-15, z: 3.0432413}
        outSlope: {x: -3.6913042, y: -3.4694999e-15, z: 3.0424693}
        tangentMode: 0
      - serializedVersion: 2
        time: 0.2666664
        value: {x: 0.047284186, y: -0.27861255, z: 0.3367766}
        inSlope: {x: -0.0013511238, y: -1.4869286e-15, z: 0.0003209495}
        outSlope: {x: -0.0009827205, y: -3.4693015e-15, z: 0.0018362142}
        tangentMode: 0
      - serializedVersion: 2
        time: 0.30000114
        value: {x: 0.19377226, y: -0.27861255, z: 0.06299472}
        inSlope: {x: -0.0008837384, y: -1.4868435e-15, z: 0.0016467646}
        outSlope: {x: -0.000069772825, y: -3.4694999e-15, z: 0.0005663136}
        tangentMode: 0
      - serializedVersion: 2
        time: 0.33333397
        value: {x: 0.16936027, y: -0.27861255, z: 0.12903655}
        inSlope: {x: -1.9745569, y: -1.4869286e-15, z: 0.00029489546}
        outSlope: {x: -1.975103, y: -3.4694999e-15, z: 3.4694999e-15}
        tangentMode: 0
      - serializedVersion: 2
        time: 0.3666668
        value: {x: 0.06214051, y: -0.27861255, z: 0.12903655}
        inSlope: {x: -0.0006786358, y: -1.4869286e-15, z: 1.4869286e-15}
        outSlope: {x: 8.6737497e-16, y: -3.4694999e-15, z: -0.0003168419}
        tangentMode: 0
      - serializedVersion: 2
        time: 0.39999962
        value: {x: 0.06214051, y: -0.27861255, z: 0.037624598}
        inSlope: {x: 3.7173216e-16, y: -1.4869286e-15, z: -1.6708466}
        outSlope: {x: -0.000022160551, y: -3.4693015e-15, z: -1.6696501}
        tangentMode: 0
      - serializedVersion: 2
        time: 0.43333435
        value: {x: 0.07057099, y: -0.27861255, z: 0.017711878}
        inSlope: {x: 0.7586812, y: -1.4868435e-15, z: 0.000075730495}
        outSlope: {x: 0.76042944, y: -3.4694999e-15, z: 0.0014049746}
        tangentMode: 0
      - serializedVersion: 2
        time: 0.46666718
        value: {x: 0.2822867, y: -0.27861255, z: 0.19581246}
        inSlope: {x: 0.0010802168, y: -1.4869286e-15, z: 0.0009158898}
        outSlope: {x: 5.20425e-15, y: -3.4694999e-15, z: 5.20425e-15}
        tangentMode: 0
      m_PreInfinity: 2
      m_PostInfinity: 2
      m_RotationOrder: 4
    path: Tool_Tweezers02
  - curve:
      serializedVersion: 2
      m_Curve:
      - serializedVersion: 2
        time: 0
        value: {x: 0.008098871, y: 5.6736277e-10, z: -0.0012252554}
        inSlope: {x: 0, y: 0, z: 0}
        outSlope: {x: 0, y: 0, z: 0}
        tangentMode: 0
      - serializedVersion: 2
        time: 0.46666718
        value: {x: 0.008098871, y: 5.6736277e-10, z: -0.0012252554}
        inSlope: {x: 0, y: 0, z: 0}
        outSlope: {x: 0, y: 0, z: 0}
        tangentMode: 0
      m_PreInfinity: 2
      m_PostInfinity: 2
      m_RotationOrder: 4
    path: Tool_Tweezers02/Tool_Tweezers03
  m_ScaleCurves:
  - curve:
      serializedVersion: 2
      m_Curve:
      - serializedVersion: 2
        time: 0
        value: {x: 1, y: 1, z: 1}
        inSlope: {x: 0, y: 0, z: 0}
        outSlope: {x: 0, y: 0, z: 0}
        tangentMode: 0
      - serializedVersion: 2
        time: 0.46666718
        value: {x: 1, y: 1, z: 1}
        inSlope: {x: 0, y: 0, z: 0}
        outSlope: {x: 0, y: 0, z: 0}
        tangentMode: 0
      m_PreInfinity: 2
      m_PostInfinity: 2
      m_RotationOrder: 4
    path: Tool_Tweezers02
  - curve:
      serializedVersion: 2
      m_Curve:
      - serializedVersion: 2
        time: 0
        value: {x: 1, y: 1, z: 1}
        inSlope: {x: 0, y: 0, z: 0}
        outSlope: {x: 0, y: 0, z: 0}
        tangentMode: 0
      - serializedVersion: 2
        time: 0.46666718
        value: {x: 1, y: 1, z: 1}
        inSlope: {x: 0, y: 0, z: 0}
        outSlope: {x: 0, y: 0, z: 0}
        tangentMode: 0
      m_PreInfinity: 2
      m_PostInfinity: 2
      m_RotationOrder: 4
    path: Tool_Tweezers02/Tool_Tweezers03
  m_FloatCurves: []
  m_PPtrCurves: []
  m_SampleRate: 30
  m_WrapMode: 0
  m_Bounds:
    m_Center: {x: 0, y: 0, z: 0}
    m_Extent: {x: 0, y: 0, z: 0}
  m_ClipBindingConstant:
    genericBindings:
    - serializedVersion: 2
      path: 4162974765
      attribute: 1
      script: {fileID: 0}
      typeID: 4
      customType: 0
      isPPtrCurve: 0
    - serializedVersion: 2
      path: 4162974765
      attribute: 2
      script: {fileID: 0}
      typeID: 4
      customType: 0
      isPPtrCurve: 0
    - serializedVersion: 2
      path: 3787453774
      attribute: 2
      script: {fileID: 0}
      typeID: 4
      customType: 0
      isPPtrCurve: 0
    - serializedVersion: 2
      path: 3787453774
      attribute: 1
      script: {fileID: 0}
      typeID: 4
      customType: 0
      isPPtrCurve: 0
    - serializedVersion: 2
      path: 4162974765
      attribute: 3
      script: {fileID: 0}
      typeID: 4
      customType: 0
      isPPtrCurve: 0
    - serializedVersion: 2
      path: 3787453774
      attribute: 3
      script: {fileID: 0}
      typeID: 4
      customType: 0
      isPPtrCurve: 0
    pptrCurveMapping: []
  m_AnimationClipSettings:
    serializedVersion: 2
    m_AdditiveReferencePoseClip: {fileID: 0}
    m_AdditiveReferencePoseTime: 0
    m_StartTime: 0
    m_StopTime: 0.46666908
    m_OrientationOffsetY: 0
    m_Level: 0
    m_CycleOffset: 0
    m_HasAdditiveReferencePose: 0
    m_LoopTime: 0
    m_LoopBlend: 0
    m_LoopBlendOrientation: 0
    m_LoopBlendPositionY: 0
    m_LoopBlendPositionXZ: 0
    m_KeepOriginalOrientation: 0
    m_KeepOriginalPositionY: 0
    m_KeepOriginalPositionXZ: 0
    m_HeightFromFeet: 0
    m_Mirror: 0
  m_EditorCurves: []
  m_EulerEditorCurves: []
  m_HasGenericRootTransform: 0
  m_HasMotionFloatCurves: 0
  m_GenerateMotionCurves: 0
  m_Events:
  - time: 0
    functionName: OnClipStart
    data: 
    objectReferenceParameter: {fileID: 0}
    floatParameter: 0
    intParameter: 10500332
    messageOptions: 0
  - time: 0.46666908
    functionName: OnClipEnd
    data: 
    objectReferenceParameter: {fileID: 0}
    floatParameter: 0
    intParameter: 10500332
    messageOptions: 0
