%YAML 1.1
%TAG !u! tag:unity3d.com,2011:
--- !u!74 &7400000
AnimationClip:
  m_ObjectHideFlags: 0
  m_PrefabParentObject: {fileID: 0}
  m_PrefabInternal: {fileID: 0}
  m_Name: Anim_10500335
  serializedVersion: 6
  m_Legacy: 0
  m_Compressed: 0
  m_UseHighQualityCurve: 1
  m_RotationCurves:
  - curve:
      serializedVersion: 2
      m_Curve:
      - serializedVersion: 2
        time: 0.0000019073486
        value: {x: 0.45546398, y: -2.7889126e-17, z: -0.89025426, w: -5.4512354e-17}
        inSlope: {x: 0, y: 0, z: 0, w: 0}
        outSlope: {x: 0, y: 0, z: 0, w: 0}
        tangentMode: 0
      - serializedVersion: 2
        time: 0.2333355
        value: {x: 0.45546398, y: -2.7889126e-17, z: -0.89025426, w: -5.4512354e-17}
        inSlope: {x: 0, y: 0, z: 0, w: 0}
        outSlope: {x: 0, y: 0, z: 0, w: 0}
        tangentMode: 0
      - serializedVersion: 2
        time: 0.26666832
        value: {x: 0.45546398, y: -2.7889126e-17, z: -0.89025426, w: -5.4512354e-17}
        inSlope: {x: -4.6795425, y: 2.8653933e-16, z: -1.4909652, w: -9.1295236e-17}
        outSlope: {x: -4.6795425, y: 2.8653933e-16, z: -1.4909652, w: -9.1295236e-17}
        tangentMode: 0
      - serializedVersion: 2
        time: 0.30000114
        value: {x: 0.14349924, y: -8.786795e-18, z: -0.9896504, w: -6.059861e-17}
        inSlope: {x: -0.00026750565, y: 1.6411263e-20, z: -0.00008523464, w: -5.2277815e-21}
        outSlope: {x: -0.00026750565, y: 1.6411263e-20, z: -0.00008523464, w: -5.2277815e-21}
        tangentMode: 0
      - serializedVersion: 2
        time: 0.33333588
        value: {x: 0.45546398, y: -2.7889126e-17, z: -0.89025426, w: -5.4512354e-17}
        inSlope: {x: 4.679275, y: -2.8652292e-16, z: 1.49088, w: 9.129001e-17}
        outSlope: {x: 4.679275, y: -2.8652292e-16, z: 1.49088, w: 9.129001e-17}
        tangentMode: 0
      - serializedVersion: 2
        time: 0.3666687
        value: {x: 0.45546398, y: -2.7889126e-17, z: -0.89025426, w: -5.4512354e-17}
        inSlope: {x: 0, y: 0, z: 0, w: 0}
        outSlope: {x: 0, y: 0, z: 0, w: 0}
        tangentMode: 0
      - serializedVersion: 2
        time: 0.46666718
        value: {x: 0.45546398, y: -2.7889126e-17, z: -0.89025426, w: -5.4512354e-17}
        inSlope: {x: 0, y: 0, z: 0, w: 0}
        outSlope: {x: 0, y: 0, z: 0, w: 0}
        tangentMode: 0
      m_PreInfinity: 2
      m_PostInfinity: 2
      m_RotationOrder: 4
    path: Tool_Tweezers02
  - curve:
      serializedVersion: 2
      m_Curve:
      - serializedVersion: 2
        time: 0
        value: {x: 0, y: -0.04833598, z: 0, w: 0.99886405}
        inSlope: {x: 0, y: 0.037867352, z: 0, w: 0.002232494}
        outSlope: {x: 0, y: 0.037867352, z: 0, w: 0.002232494}
        tangentMode: 0
      - serializedVersion: 2
        time: 0.10000229
        value: {x: 0, y: -0.052121714, z: -0, w: 0.9986408}
        inSlope: {x: 0, y: 0, z: 0, w: 0}
        outSlope: {x: 0, y: 0, z: 0, w: 0}
        tangentMode: 0
      - serializedVersion: 2
        time: 0.26666832
        value: {x: 0, y: -0.06289053, z: -0, w: 0.9980204}
        inSlope: {x: 0, y: 0, z: 0, w: 0}
        outSlope: {x: 0, y: 0, z: 0, w: 0}
        tangentMode: 0
      - serializedVersion: 2
        time: 0.40000153
        value: {x: 0, y: -0.06289053, z: -0, w: 0.9980204}
        inSlope: {x: 0, y: 0, z: 0, w: 0}
        outSlope: {x: 0, y: 0, z: 0, w: 0}
        tangentMode: 0
      - serializedVersion: 2
        time: 0.43333435
        value: {x: 0, y: -0.06289053, z: -0, w: 0.9980204}
        inSlope: {x: 0, y: 0.19140095, z: 0, w: 0.010833882}
        outSlope: {x: 0, y: 0.19140095, z: 0, w: 0.010833882}
        tangentMode: 0
      - serializedVersion: 2
        time: 0.46666908
        value: {x: 0, y: -0.05012993, z: -0, w: 0.9987427}
        inSlope: {x: 0, y: 0.19140095, z: 0, w: 0.010833882}
        outSlope: {x: 0, y: 0.19140095, z: 0, w: 0.010833882}
        tangentMode: 0
      m_PreInfinity: 2
      m_PostInfinity: 2
      m_RotationOrder: 4
    path: Tool_Tweezers02/Tool_Tweezers03
  m_CompressedRotationCurves: []
  m_EulerCurves: []
  m_PositionCurves:
  - curve:
      serializedVersion: 2
      m_Curve:
      - serializedVersion: 2
        time: 0
        value: {x: 0.2822867, y: -0.27861255, z: 0.19581245}
        inSlope: {x: 0, y: 0, z: 0}
        outSlope: {x: 0, y: 0, z: 0}
        tangentMode: 0
      - serializedVersion: 2
        time: 0.1333332
        value: {x: 0.2822867, y: -0.27861255, z: 0.19581246}
        inSlope: {x: 2.230393e-15, y: -1.4869286e-15, z: 2.230393e-15}
        outSlope: {x: 0.00032837244, y: 0.00028255038, z: -0.00017259199}
        tangentMode: 0
      - serializedVersion: 2
        time: 0.16666794
        value: {x: 0.21563646, y: -0.33432692, z: 0.23043}
        inSlope: {x: -2.469527, y: -1.6709999, z: 1.1905696}
        outSlope: {x: -2.4709077, y: -1.6720055, z: 1.1912509}
        tangentMode: 0
      - serializedVersion: 2
        time: 0.20000076
        value: {x: 0.11761558, y: -0.3900413, z: 0.2752022}
        inSlope: {x: -1.8248091, y: -0.00022301632, z: 0.6096327}
        outSlope: {x: -1.824591, y: -6.9389998e-15, z: 0.60950315}
        tangentMode: 0
      - serializedVersion: 2
        time: 0.23333359
        value: {x: 0.09400636, y: -0.3900413, z: 0.28197402}
        inSlope: {x: -0.73472166, y: -2.9738573e-15, z: 0.087086}
        outSlope: {x: -0.7347103, y: -6.9389998e-15, z: 0.087071195}
        tangentMode: 0
      - serializedVersion: 2
        time: 0.2666664
        value: {x: 0.06864027, y: -0.3900413, z: 0.28294143}
        inSlope: {x: -0.00017507293, y: -2.9738573e-15, z: 0.000004510397}
        outSlope: {x: -0.00023596853, y: -6.938603e-15, z: 0.00079903234}
        tangentMode: 0
      - serializedVersion: 2
        time: 0.30000114
        value: {x: 0.10384059, y: -0.3900413, z: 0.16357183}
        inSlope: {x: -0.00021148907, y: -2.973687e-15, z: 0.00071601506}
        outSlope: {x: -0.0005290513, y: -6.9389998e-15, z: 0.00075066724}
        tangentMode: 0
      - serializedVersion: 2
        time: 0.33333397
        value: {x: 0.026613228, y: -0.3900413, z: 0.25103807}
        inSlope: {x: -1.8948207, y: -2.9738573e-15, z: 0.00039090513}
        outSlope: {x: -1.8947879, y: 0.00025104458, z: -0.00030996403}
        tangentMode: 0
      - serializedVersion: 2
        time: 0.3666668
        value: {x: -0.02245953, y: -0.346157, z: 0.1983037}
        inSlope: {x: -0.00026336085, y: 0.00031065012, z: -0.0003823422}
        outSlope: {x: -4.3368749e-16, y: -3.4694999e-15, z: 3.4694999e-15}
        tangentMode: 0
      - serializedVersion: 2
        time: 0.39999962
        value: {x: -0.02245953, y: -0.346157, z: 0.1983037}
        inSlope: {x: -1.8586608e-16, y: -1.4869286e-15, z: 1.4869286e-15}
        outSlope: {x: -0.0000036705253, y: -3.4693015e-15, z: 0.00035610408}
        tangentMode: 0
      - serializedVersion: 2
        time: 0.43333435
        value: {x: -0.020994686, y: -0.346157, z: 0.150208}
        inSlope: {x: 0.13182509, y: -1.4868435e-15, z: 0.00025605762}
        outSlope: {x: 0.13352998, y: -3.4694999e-15, z: 0.00050664373}
        tangentMode: 0
      - serializedVersion: 2
        time: 0.46666718
        value: {x: 0.19328448, y: -0.346157, z: 0.21435595}
        inSlope: {x: 0.0011005381, y: -1.4869286e-15, z: 0.00032782706}
        outSlope: {x: 1.7347499e-15, y: -3.4694999e-15, z: 3.4694999e-15}
        tangentMode: 0
      m_PreInfinity: 2
      m_PostInfinity: 2
      m_RotationOrder: 4
    path: Tool_Tweezers02
  - curve:
      serializedVersion: 2
      m_Curve:
      - serializedVersion: 2
        time: 0
        value: {x: 0.008098871, y: 5.6736277e-10, z: -0.0012252554}
        inSlope: {x: 0, y: 0, z: 0}
        outSlope: {x: 0, y: 0, z: 0}
        tangentMode: 0
      - serializedVersion: 2
        time: 0.46666718
        value: {x: 0.008098871, y: 5.6736277e-10, z: -0.0012252554}
        inSlope: {x: 0, y: 0, z: 0}
        outSlope: {x: 0, y: 0, z: 0}
        tangentMode: 0
      m_PreInfinity: 2
      m_PostInfinity: 2
      m_RotationOrder: 4
    path: Tool_Tweezers02/Tool_Tweezers03
  m_ScaleCurves:
  - curve:
      serializedVersion: 2
      m_Curve:
      - serializedVersion: 2
        time: 0
        value: {x: 1, y: 1, z: 1}
        inSlope: {x: 0, y: 0, z: 0}
        outSlope: {x: 0, y: 0, z: 0}
        tangentMode: 0
      - serializedVersion: 2
        time: 0.46666718
        value: {x: 1, y: 1, z: 1}
        inSlope: {x: 0, y: 0, z: 0}
        outSlope: {x: 0, y: 0, z: 0}
        tangentMode: 0
      m_PreInfinity: 2
      m_PostInfinity: 2
      m_RotationOrder: 4
    path: Tool_Tweezers02
  - curve:
      serializedVersion: 2
      m_Curve:
      - serializedVersion: 2
        time: 0
        value: {x: 1, y: 1, z: 1}
        inSlope: {x: 0, y: 0, z: 0}
        outSlope: {x: 0, y: 0, z: 0}
        tangentMode: 0
      - serializedVersion: 2
        time: 0.46666718
        value: {x: 1, y: 1, z: 1}
        inSlope: {x: 0, y: 0, z: 0}
        outSlope: {x: 0, y: 0, z: 0}
        tangentMode: 0
      m_PreInfinity: 2
      m_PostInfinity: 2
      m_RotationOrder: 4
    path: Tool_Tweezers02/Tool_Tweezers03
  m_FloatCurves: []
  m_PPtrCurves: []
  m_SampleRate: 30
  m_WrapMode: 0
  m_Bounds:
    m_Center: {x: 0, y: 0, z: 0}
    m_Extent: {x: 0, y: 0, z: 0}
  m_ClipBindingConstant:
    genericBindings:
    - serializedVersion: 2
      path: 4162974765
      attribute: 1
      script: {fileID: 0}
      typeID: 4
      customType: 0
      isPPtrCurve: 0
    - serializedVersion: 2
      path: 4162974765
      attribute: 2
      script: {fileID: 0}
      typeID: 4
      customType: 0
      isPPtrCurve: 0
    - serializedVersion: 2
      path: 3787453774
      attribute: 2
      script: {fileID: 0}
      typeID: 4
      customType: 0
      isPPtrCurve: 0
    - serializedVersion: 2
      path: 3787453774
      attribute: 1
      script: {fileID: 0}
      typeID: 4
      customType: 0
      isPPtrCurve: 0
    - serializedVersion: 2
      path: 4162974765
      attribute: 3
      script: {fileID: 0}
      typeID: 4
      customType: 0
      isPPtrCurve: 0
    - serializedVersion: 2
      path: 3787453774
      attribute: 3
      script: {fileID: 0}
      typeID: 4
      customType: 0
      isPPtrCurve: 0
    pptrCurveMapping: []
  m_AnimationClipSettings:
    serializedVersion: 2
    m_AdditiveReferencePoseClip: {fileID: 0}
    m_AdditiveReferencePoseTime: 0
    m_StartTime: 0
    m_StopTime: 0.46666908
    m_OrientationOffsetY: 0
    m_Level: 0
    m_CycleOffset: 0
    m_HasAdditiveReferencePose: 0
    m_LoopTime: 0
    m_LoopBlend: 0
    m_LoopBlendOrientation: 0
    m_LoopBlendPositionY: 0
    m_LoopBlendPositionXZ: 0
    m_KeepOriginalOrientation: 0
    m_KeepOriginalPositionY: 0
    m_KeepOriginalPositionXZ: 0
    m_HeightFromFeet: 0
    m_Mirror: 0
  m_EditorCurves: []
  m_EulerEditorCurves: []
  m_HasGenericRootTransform: 0
  m_HasMotionFloatCurves: 0
  m_GenerateMotionCurves: 0
  m_Events:
  - time: 0
    functionName: OnClipStart
    data: 
    objectReferenceParameter: {fileID: 0}
    floatParameter: 0
    intParameter: 10500335
    messageOptions: 0
  - time: 0.46666908
    functionName: OnClipEnd
    data: 
    objectReferenceParameter: {fileID: 0}
    floatParameter: 0
    intParameter: 10500335
    messageOptions: 0
