%YAML 1.1
%TAG !u! tag:unity3d.com,2011:
--- !u!74 &7400000
AnimationClip:
  m_ObjectHideFlags: 0
  m_PrefabParentObject: {fileID: 0}
  m_PrefabInternal: {fileID: 0}
  m_Name: Anim_10500091
  serializedVersion: 6
  m_Legacy: 0
  m_Compressed: 0
  m_UseHighQualityCurve: 1
  m_RotationCurves:
  - curve:
      serializedVersion: 2
      m_Curve:
      - serializedVersion: 2
        time: 0
        value: {x: 0.063043326, y: -0, z: -0, w: 0.9980108}
        inSlope: {x: 0, y: 0, z: 0, w: 0}
        outSlope: {x: 0, y: 0, z: 0, w: 0}
        tangentMode: 0
      - serializedVersion: 2
        time: 0.46666622
        value: {x: 0.063043326, y: -0, z: -0, w: 0.9980108}
        inSlope: {x: 0, y: 0, z: 0, w: 0}
        outSlope: {x: 0, y: 0, z: 0, w: 0}
        tangentMode: 0
      m_PreInfinity: 2
      m_PostInfinity: 2
      m_RotationOrder: 4
    path: HangPoint_ConductiveCloth
  - curve:
      serializedVersion: 2
      m_Curve:
      - serializedVersion: 2
        time: 0
        value: {x: 0, y: -0.0000000025491924, z: -0, w: 1}
        inSlope: {x: 0, y: 0, z: 0, w: 0}
        outSlope: {x: 0, y: 0, z: 0, w: 0}
        tangentMode: 0
      - serializedVersion: 2
        time: 0.46666622
        value: {x: 0, y: -0.0000000025491924, z: -0, w: 1}
        inSlope: {x: 0, y: 0, z: 0, w: 0}
        outSlope: {x: 0, y: 0, z: 0, w: 0}
        tangentMode: 0
      m_PreInfinity: 2
      m_PostInfinity: 2
      m_RotationOrder: 4
    path: HangPoint_Screw02
  - curve:
      serializedVersion: 2
      m_Curve:
      - serializedVersion: 2
        time: 0
        value: {x: 0, y: 0, z: -0, w: 1}
        inSlope: {x: 0, y: 0, z: 0, w: 0}
        outSlope: {x: 0, y: 0, z: 0, w: 0}
        tangentMode: 0
      - serializedVersion: 2
        time: 0.46666622
        value: {x: 0, y: 0, z: -0, w: 1}
        inSlope: {x: 0, y: 0, z: 0, w: 0}
        outSlope: {x: 0, y: 0, z: 0, w: 0}
        tangentMode: 0
      m_PreInfinity: 2
      m_PostInfinity: 2
      m_RotationOrder: 4
    path: HangPoint_Vibrator
  - curve:
      serializedVersion: 2
      m_Curve:
      - serializedVersion: 2
        time: 0
        value: {x: 0.012192199, y: 0, z: 0, w: 0.9999257}
        inSlope: {x: -0.000000003991383, y: 0, z: 0, w: 0}
        outSlope: {x: -0.000000003991383, y: 0, z: 0, w: 0}
        tangentMode: 0
      - serializedVersion: 2
        time: 0.46666622
        value: {x: 0.012192199, y: 0, z: 0, w: 0.9999257}
        inSlope: {x: -3.5637346e-10, y: 0, z: 0, w: 0}
        outSlope: {x: -3.5637346e-10, y: 0, z: 0, w: 0}
        tangentMode: 0
      m_PreInfinity: 2
      m_PostInfinity: 2
      m_RotationOrder: 4
    path: HangPoint_RearFacingCamera
  - curve:
      serializedVersion: 2
      m_Curve:
      - serializedVersion: 2
        time: 0
        value: {x: 0, y: -0, z: -0, w: 1}
        inSlope: {x: 0, y: 0, z: 0, w: 0}
        outSlope: {x: 0, y: 0, z: 0, w: 0}
        tangentMode: 0
      - serializedVersion: 2
        time: 0.23333359
        value: {x: 0, y: -0, z: -0, w: 1}
        inSlope: {x: 9.340224e-11, y: 0, z: 0, w: 0}
        outSlope: {x: 9.340224e-11, y: 0, z: 0, w: 0}
        tangentMode: 0
      - serializedVersion: 2
        time: 0.2666664
        value: {x: 6.226721e-12, y: -0, z: -0, w: 1}
        inSlope: {x: 0.95023644, y: 0, z: 0, w: -0.030128852}
        outSlope: {x: 0.95023644, y: 0, z: 0, w: -0.030128852}
        tangentMode: 0
      - serializedVersion: 2
        time: 0.3000002
        value: {x: 0.06334994, y: -0, z: -0, w: 0.9979914}
        inSlope: {x: 0.95023644, y: 0, z: 0, w: -0.030128852}
        outSlope: {x: 0.95023644, y: 0, z: 0, w: -0.030128852}
        tangentMode: 0
      - serializedVersion: 2
        time: 0.33333302
        value: {x: 0.06334994, y: -0, z: -0, w: 0.9979914}
        inSlope: {x: -0.95023644, y: 0, z: 0, w: 0.030128852}
        outSlope: {x: -0.95023644, y: 0, z: 0, w: 0.030128852}
        tangentMode: 0
      - serializedVersion: 2
        time: 0.3666668
        value: {x: 0, y: -0, z: -0, w: 1}
        inSlope: {x: -0.95023644, y: 0, z: 0, w: 0.030128852}
        outSlope: {x: -0.95023644, y: 0, z: 0, w: 0.030128852}
        tangentMode: 0
      - serializedVersion: 2
        time: 0.39999962
        value: {x: 0, y: -0, z: -0, w: 1}
        inSlope: {x: 0, y: 0, z: 0, w: 0}
        outSlope: {x: 0, y: 0, z: 0, w: 0}
        tangentMode: 0
      - serializedVersion: 2
        time: 0.46666622
        value: {x: 0, y: -0, z: -0, w: 1}
        inSlope: {x: 0, y: 0, z: 0, w: 0}
        outSlope: {x: 0, y: 0, z: 0, w: 0}
        tangentMode: 0
      m_PreInfinity: 2
      m_PostInfinity: 2
      m_RotationOrder: 4
    path: HangPoint_CoaxCable
  - curve:
      serializedVersion: 2
      m_Curve:
      - serializedVersion: 2
        time: 0
        value: {x: 0.015945332, y: 0, z: 0, w: 0.99987286}
        inSlope: {x: -0.000000026157798, y: 0, z: 0, w: 0}
        outSlope: {x: -0.000000026157798, y: 0, z: 0, w: 0}
        tangentMode: 0
      - serializedVersion: 2
        time: 0.46666622
        value: {x: 0.015945325, y: 0, z: 0, w: 0.99987286}
        inSlope: {x: -0.0000000068423667, y: 0, z: 0, w: 0}
        outSlope: {x: -0.0000000068423667, y: 0, z: 0, w: 0}
        tangentMode: 0
      m_PreInfinity: 2
      m_PostInfinity: 2
      m_RotationOrder: 4
    path: HangPoint_FrontFacingCamera
  m_CompressedRotationCurves: []
  m_EulerCurves: []
  m_PositionCurves:
  - curve:
      serializedVersion: 2
      m_Curve:
      - serializedVersion: 2
        time: 0
        value: {x: -0.000000020125576, y: 0.09259482, z: -0.0016862303}
        inSlope: {x: 0, y: 0, z: 0}
        outSlope: {x: 0, y: 0, z: 0}
        tangentMode: 0
      - serializedVersion: 2
        time: 0.46666622
        value: {x: -0.000000020125576, y: 0.092594825, z: -0.0016862303}
        inSlope: {x: 0, y: 0, z: 0}
        outSlope: {x: 0, y: 0, z: 0}
        tangentMode: 0
      m_PreInfinity: 2
      m_PostInfinity: 2
      m_RotationOrder: 4
    path: HangPoint_ConductiveCloth
  - curve:
      serializedVersion: 2
      m_Curve:
      - serializedVersion: 2
        time: 0
        value: {x: -0.1777628, y: 0.1703257, z: 0.048590954}
        inSlope: {x: -0.00000052914334, y: 0.000000036492644, z: 0.000000054738965}
        outSlope: {x: -0.00000052914334, y: 0.000000036492644, z: 0.000000054738965}
        tangentMode: 0
      - serializedVersion: 2
        time: 0.46666622
        value: {x: -0.17776248, y: 0.17032573, z: 0.048590973}
        inSlope: {x: 0.0000022351744, y: 0.000000036492644, z: 0.000000021667507}
        outSlope: {x: 0.0000022351744, y: 0.000000036492644, z: 0.000000021667507}
        tangentMode: 0
      m_PreInfinity: 2
      m_PostInfinity: 2
      m_RotationOrder: 4
    path: HangPoint_Screw02
  - curve:
      serializedVersion: 2
      m_Curve:
      - serializedVersion: 2
        time: 0
        value: {x: 0.02489416, y: -0.045732364, z: -0.007451997}
        inSlope: {x: 0.000000060959295, y: 0.00000012699853, z: -0.000000007619912}
        outSlope: {x: 0.000000060959295, y: 0.00000012699853, z: -0.000000007619912}
        tangentMode: 0
      - serializedVersion: 2
        time: 0.46666622
        value: {x: 0.024894184, y: -0.045732304, z: -0.007452}
        inSlope: {x: 0.000000033019617, y: 0.00000009397891, z: -0.0000000022224742}
        outSlope: {x: 0.000000033019617, y: 0.00000009397891, z: -0.0000000022224742}
        tangentMode: 0
      m_PreInfinity: 2
      m_PostInfinity: 2
      m_RotationOrder: 4
    path: HangPoint_Vibrator
  - curve:
      serializedVersion: 2
      m_Curve:
      - serializedVersion: 2
        time: 0
        value: {x: -0.019691123, y: 0.052643567, z: 0.014528086}
        inSlope: {x: 0.00000014254938, y: 0.00000004105422, z: -0.00000005359857}
        outSlope: {x: 0.00000014254938, y: 0.00000004105422, z: -0.00000005359857}
        tangentMode: 0
      - serializedVersion: 2
        time: 0.46666622
        value: {x: -0.019691005, y: 0.052643362, z: 0.014528005}
        inSlope: {x: 0.00000037785662, y: -0.0000010430972, z: -0.00000032197642}
        outSlope: {x: -4.336751e-16, y: 0.0000009313102, z: 2.1683755e-16}
        tangentMode: 0
      m_PreInfinity: 2
      m_PostInfinity: 2
      m_RotationOrder: 4
    path: HangPoint_RearFacingCamera
  - curve:
      serializedVersion: 2
      m_Curve:
      - serializedVersion: 2
        time: 0
        value: {x: -0.05458854, y: 0.0008967144, z: -0.025671214}
        inSlope: {x: 0, y: 0.0000000019049797, z: -0.000000030479676}
        outSlope: {x: 0, y: 0.0000000019049797, z: -0.000000030479676}
        tangentMode: 0
      - serializedVersion: 2
        time: 0.19999981
        value: {x: -0.05458854, y: 0.0008967146, z: -0.02567122}
        inSlope: {x: -5.5759824e-16, y: -0, z: -1.8586608e-16}
        outSlope: {x: 0.00016157626, y: 0.0000016742258, z: -0.000047727717}
        tangentMode: 0
      - serializedVersion: 2
        time: 0.2666664
        value: {x: 0.0000004582107, y: 0.0014607161, z: -0.04184022}
        inSlope: {x: 0.00020751709, y: 0.0000021495882, z: -0.00006132394}
        outSlope: {x: 9.926319e-21, y: -0.000025611907, z: 0.00059721724}
        tangentMode: 0
      - serializedVersion: 2
        time: 0.29999924
        value: {x: 0.0000004582107, y: -0.00000028312206, z: -0.0077700433}
        inSlope: {x: 4.254137e-21, y: -0.000026609769, z: 0.0006204341}
        outSlope: {x: 9.926035e-21, y: -3.3086784e-21, z: -5.4209387e-17}
        tangentMode: 0
      - serializedVersion: 2
        time: 0.33333302
        value: {x: 0.0000004582107, y: -0.00000028312206, z: -0.0077700433}
        inSlope: {x: 4.2540154e-21, y: -1.4180051e-21, z: -2.3232595e-17}
        outSlope: {x: 9.926319e-21, y: -3.308773e-21, z: 0.000133366}
        tangentMode: 0
      - serializedVersion: 2
        time: 0.36666584
        value: {x: 0.0000004582107, y: -0.00000028312206, z: -0.00000022025779}
        inSlope: {x: 4.254137e-21, y: -1.4180457e-21, z: 0.00014397659}
        outSlope: {x: 9.926035e-21, y: -3.3086784e-21, z: -3.7813467e-21}
        tangentMode: 0
      - serializedVersion: 2
        time: 0.46666622
        value: {x: 0.0000004582107, y: -0.00000028312206, z: -0.00000022025779}
        inSlope: {x: 4.254137e-21, y: -1.4180457e-21, z: 3.7814546e-21}
        outSlope: {x: 4.254137e-21, y: -1.4180457e-21, z: 3.7814546e-21}
        tangentMode: 0
      m_PreInfinity: 2
      m_PostInfinity: 2
      m_RotationOrder: 4
    path: HangPoint_CoaxCable
  - curve:
      serializedVersion: 2
      m_Curve:
      - serializedVersion: 2
        time: 0
        value: {x: -0.00000027399292, y: 0.03258437, z: -0.00010105661}
        inSlope: {x: -0.000000032710755, y: 0.0000000031360847, z: 0.000000015557363}
        outSlope: {x: -0.000000032710755, y: 0.0000000031360847, z: 0.000000015557363}
        tangentMode: 0
      - serializedVersion: 2
        time: 0.46666622
        value: {x: -0.0000002869751, y: 0.032584377, z: -0.00010105033}
        inSlope: {x: -0.000000022956563, y: 0.000000031931044, z: 0.00000001132376}
        outSlope: {x: -0.000000022956563, y: 0.000000031931044, z: 0.00000001132376}
        tangentMode: 0
      m_PreInfinity: 2
      m_PostInfinity: 2
      m_RotationOrder: 4
    path: HangPoint_FrontFacingCamera
  m_ScaleCurves:
  - curve:
      serializedVersion: 2
      m_Curve:
      - serializedVersion: 2
        time: 0
        value: {x: 1, y: 1, z: 1}
        inSlope: {x: 0, y: 0, z: 0}
        outSlope: {x: 0, y: 0, z: 0}
        tangentMode: 0
      - serializedVersion: 2
        time: 0.46666622
        value: {x: 1, y: 1, z: 1}
        inSlope: {x: 0, y: 0, z: 0}
        outSlope: {x: 0, y: 0, z: 0}
        tangentMode: 0
      m_PreInfinity: 2
      m_PostInfinity: 2
      m_RotationOrder: 4
    path: HangPoint_ConductiveCloth
  - curve:
      serializedVersion: 2
      m_Curve:
      - serializedVersion: 2
        time: 0
        value: {x: 1, y: 1, z: 1}
        inSlope: {x: 0, y: 0, z: 0}
        outSlope: {x: 0, y: 0, z: 0}
        tangentMode: 0
      - serializedVersion: 2
        time: 0.46666622
        value: {x: 1, y: 1, z: 1}
        inSlope: {x: 0, y: 0, z: 0}
        outSlope: {x: 0, y: 0, z: 0}
        tangentMode: 0
      m_PreInfinity: 2
      m_PostInfinity: 2
      m_RotationOrder: 4
    path: HangPoint_Screw02
  - curve:
      serializedVersion: 2
      m_Curve:
      - serializedVersion: 2
        time: 0
        value: {x: 1, y: 1, z: 1}
        inSlope: {x: 0, y: 0, z: 0}
        outSlope: {x: 0, y: 0, z: 0}
        tangentMode: 0
      - serializedVersion: 2
        time: 0.46666622
        value: {x: 1, y: 1, z: 1}
        inSlope: {x: 0, y: 0, z: 0}
        outSlope: {x: 0, y: 0, z: 0}
        tangentMode: 0
      m_PreInfinity: 2
      m_PostInfinity: 2
      m_RotationOrder: 4
    path: HangPoint_Vibrator
  - curve:
      serializedVersion: 2
      m_Curve:
      - serializedVersion: 2
        time: 0
        value: {x: 1, y: 1, z: 1}
        inSlope: {x: 0, y: 0, z: 0}
        outSlope: {x: 0, y: 0, z: 0}
        tangentMode: 0
      - serializedVersion: 2
        time: 0.46666622
        value: {x: 1, y: 1, z: 1}
        inSlope: {x: 0, y: 0, z: 0}
        outSlope: {x: 0, y: 0, z: 0}
        tangentMode: 0
      m_PreInfinity: 2
      m_PostInfinity: 2
      m_RotationOrder: 4
    path: HangPoint_RearFacingCamera
  - curve:
      serializedVersion: 2
      m_Curve:
      - serializedVersion: 2
        time: 0
        value: {x: 1, y: 1, z: 1}
        inSlope: {x: 0, y: 0, z: 0}
        outSlope: {x: 0, y: 0, z: 0}
        tangentMode: 0
      - serializedVersion: 2
        time: 0.46666622
        value: {x: 1, y: 1, z: 1}
        inSlope: {x: 0, y: 0, z: 0}
        outSlope: {x: 0, y: 0, z: 0}
        tangentMode: 0
      m_PreInfinity: 2
      m_PostInfinity: 2
      m_RotationOrder: 4
    path: HangPoint_CoaxCable
  - curve:
      serializedVersion: 2
      m_Curve:
      - serializedVersion: 2
        time: 0
        value: {x: 1, y: 1, z: 1}
        inSlope: {x: 0, y: 0, z: 0}
        outSlope: {x: 0, y: 0, z: 0}
        tangentMode: 0
      - serializedVersion: 2
        time: 0.46666622
        value: {x: 1, y: 1, z: 1}
        inSlope: {x: 0, y: 0, z: 0}
        outSlope: {x: 0, y: 0, z: 0}
        tangentMode: 0
      m_PreInfinity: 2
      m_PostInfinity: 2
      m_RotationOrder: 4
    path: HangPoint_FrontFacingCamera
  m_FloatCurves: []
  m_PPtrCurves: []
  m_SampleRate: 30
  m_WrapMode: 0
  m_Bounds:
    m_Center: {x: 0, y: 0, z: 0}
    m_Extent: {x: 0, y: 0, z: 0}
  m_ClipBindingConstant:
    genericBindings:
    - serializedVersion: 2
      path: 1625798557
      attribute: 1
      script: {fileID: 0}
      typeID: 4
      customType: 0
      isPPtrCurve: 0
    - serializedVersion: 2
      path: 109981080
      attribute: 1
      script: {fileID: 0}
      typeID: 4
      customType: 0
      isPPtrCurve: 0
    - serializedVersion: 2
      path: 2099153157
      attribute: 1
      script: {fileID: 0}
      typeID: 4
      customType: 0
      isPPtrCurve: 0
    - serializedVersion: 2
      path: 2099153157
      attribute: 2
      script: {fileID: 0}
      typeID: 4
      customType: 0
      isPPtrCurve: 0
    - serializedVersion: 2
      path: 3883500532
      attribute: 1
      script: {fileID: 0}
      typeID: 4
      customType: 0
      isPPtrCurve: 0
    - serializedVersion: 2
      path: 3534086582
      attribute: 1
      script: {fileID: 0}
      typeID: 4
      customType: 0
      isPPtrCurve: 0
    - serializedVersion: 2
      path: 4268645303
      attribute: 1
      script: {fileID: 0}
      typeID: 4
      customType: 0
      isPPtrCurve: 0
    - serializedVersion: 2
      path: 3883500532
      attribute: 2
      script: {fileID: 0}
      typeID: 4
      customType: 0
      isPPtrCurve: 0
    - serializedVersion: 2
      path: 1625798557
      attribute: 2
      script: {fileID: 0}
      typeID: 4
      customType: 0
      isPPtrCurve: 0
    - serializedVersion: 2
      path: 3534086582
      attribute: 2
      script: {fileID: 0}
      typeID: 4
      customType: 0
      isPPtrCurve: 0
    - serializedVersion: 2
      path: 109981080
      attribute: 2
      script: {fileID: 0}
      typeID: 4
      customType: 0
      isPPtrCurve: 0
    - serializedVersion: 2
      path: 4268645303
      attribute: 2
      script: {fileID: 0}
      typeID: 4
      customType: 0
      isPPtrCurve: 0
    - serializedVersion: 2
      path: 3883500532
      attribute: 3
      script: {fileID: 0}
      typeID: 4
      customType: 0
      isPPtrCurve: 0
    - serializedVersion: 2
      path: 1625798557
      attribute: 3
      script: {fileID: 0}
      typeID: 4
      customType: 0
      isPPtrCurve: 0
    - serializedVersion: 2
      path: 3534086582
      attribute: 3
      script: {fileID: 0}
      typeID: 4
      customType: 0
      isPPtrCurve: 0
    - serializedVersion: 2
      path: 109981080
      attribute: 3
      script: {fileID: 0}
      typeID: 4
      customType: 0
      isPPtrCurve: 0
    - serializedVersion: 2
      path: 2099153157
      attribute: 3
      script: {fileID: 0}
      typeID: 4
      customType: 0
      isPPtrCurve: 0
    - serializedVersion: 2
      path: 4268645303
      attribute: 3
      script: {fileID: 0}
      typeID: 4
      customType: 0
      isPPtrCurve: 0
    pptrCurveMapping: []
  m_AnimationClipSettings:
    serializedVersion: 2
    m_AdditiveReferencePoseClip: {fileID: 0}
    m_AdditiveReferencePoseTime: 0
    m_StartTime: 0
    m_StopTime: 0.46666622
    m_OrientationOffsetY: 0
    m_Level: 0
    m_CycleOffset: 0
    m_HasAdditiveReferencePose: 0
    m_LoopTime: 0
    m_LoopBlend: 0
    m_LoopBlendOrientation: 0
    m_LoopBlendPositionY: 0
    m_LoopBlendPositionXZ: 0
    m_KeepOriginalOrientation: 0
    m_KeepOriginalPositionY: 0
    m_KeepOriginalPositionXZ: 0
    m_HeightFromFeet: 0
    m_Mirror: 0
  m_EditorCurves: []
  m_EulerEditorCurves: []
  m_HasGenericRootTransform: 0
  m_HasMotionFloatCurves: 0
  m_GenerateMotionCurves: 0
  m_Events:
  - time: 0
    functionName: OnClipStart
    data: 
    objectReferenceParameter: {fileID: 0}
    floatParameter: 0
    intParameter: 10500091
    messageOptions: 0
  - time: 0.46666622
    functionName: OnClipEnd
    data: 
    objectReferenceParameter: {fileID: 0}
    floatParameter: 0
    intParameter: 10500091
    messageOptions: 0
