%YAML 1.1
%TAG !u! tag:unity3d.com,2011:
--- !u!74 &7400000
AnimationClip:
  m_ObjectHideFlags: 0
  m_PrefabParentObject: {fileID: 0}
  m_PrefabInternal: {fileID: 0}
  m_Name: Anim_10500102
  serializedVersion: 6
  m_Legacy: 0
  m_Compressed: 0
  m_UseHighQualityCurve: 1
  m_RotationCurves:
  - curve:
      serializedVersion: 2
      m_Curve:
      - serializedVersion: 2
        time: 0
        value: {x: 0.00297842, y: 0.0784028, z: -0.03784429, w: 0.9961988}
        inSlope: {x: 0.000000039115548, y: 0.000000059604645, z: -0.00000046938658,
          w: 0}
        outSlope: {x: 0.000000039115548, y: 0.000000059604645, z: -0.00000046938658,
          w: 0}
        tangentMode: 0
      - serializedVersion: 2
        time: 0.3
        value: {x: 0.002978422, y: 0.07840273, z: -0.037844352, w: 0.9961988}
        inSlope: {x: 0, y: 0, z: 0, w: 0}
        outSlope: {x: 0, y: 0, z: 0, w: 0}
        tangentMode: 0
      - serializedVersion: 2
        time: 0.33333337
        value: {x: 0.002978422, y: 0.07840273, z: -0.037844352, w: 0.9961988}
        inSlope: {x: -0.04467637, y: -1.1760421, z: -0.0017553398, w: 0.04620646}
        outSlope: {x: -0.04467637, y: -1.1760421, z: -0.0017553398, w: 0.04620646}
        tangentMode: 0
      - serializedVersion: 2
        time: 0.36666667
        value: {x: 0, y: -0, z: -0.037961375, w: 0.9992792}
        inSlope: {x: -0.04467637, y: -1.1760421, z: -0.0017553398, w: 0.04620646}
        outSlope: {x: -0.04467637, y: -1.1760421, z: -0.0017553398, w: 0.04620646}
        tangentMode: 0
      - serializedVersion: 2
        time: 0.40000004
        value: {x: 0, y: -0, z: -0.037961375, w: 0.9992792}
        inSlope: {x: 0, y: 0, z: 0, w: 0}
        outSlope: {x: 0, y: 0, z: 0, w: 0}
        tangentMode: 0
      - serializedVersion: 2
        time: 0.46666664
        value: {x: 0, y: -0, z: -0.037961375, w: 0.9992792}
        inSlope: {x: 0, y: 0, z: 0, w: 0}
        outSlope: {x: 0, y: 0, z: 0, w: 0}
        tangentMode: 0
      m_PreInfinity: 2
      m_PostInfinity: 2
      m_RotationOrder: 4
    path: CopperFoil03
  - curve:
      serializedVersion: 2
      m_Curve:
      - serializedVersion: 2
        time: 0
        value: {x: -0.01991579, y: 0.30837488, z: 0.061294425, w: 0.94907916}
        inSlope: {x: -0.000000063329935, y: 0.00000011920929, z: 0.00000014901161,
          w: 0}
        outSlope: {x: -0.000000063329935, y: 0.00000011920929, z: 0.00000014901161,
          w: 0}
        tangentMode: 0
      - serializedVersion: 2
        time: 0.3
        value: {x: -0.019915791, y: 0.3083748, z: 0.061294448, w: 0.9490792}
        inSlope: {x: 0, y: 0, z: 0, w: 0}
        outSlope: {x: 0, y: 0, z: 0, w: 0}
        tangentMode: 0
      - serializedVersion: 2
        time: 0.33333337
        value: {x: -0.019915791, y: 0.3083748, z: 0.061294448, w: 0.9490792}
        inSlope: {x: 0.29873714, y: -4.625626, z: 0.047315385, w: 0.73262733}
        outSlope: {x: 0.29873714, y: -4.625626, z: 0.047315385, w: 0.73262733}
        tangentMode: 0
      - serializedVersion: 2
        time: 0.36666667
        value: {x: 0, y: 0, z: 0.0644488, w: 0.997921}
        inSlope: {x: 0.29873714, y: -4.625626, z: 0.047315385, w: 0.73262733}
        outSlope: {x: 0.29873714, y: -4.625626, z: 0.047315385, w: 0.73262733}
        tangentMode: 0
      - serializedVersion: 2
        time: 0.40000004
        value: {x: 0, y: 0, z: 0.0644488, w: 0.997921}
        inSlope: {x: 0, y: 0, z: 0, w: 0}
        outSlope: {x: 0, y: 0, z: 0, w: 0}
        tangentMode: 0
      - serializedVersion: 2
        time: 0.46666664
        value: {x: 0, y: 0, z: 0.0644488, w: 0.997921}
        inSlope: {x: 0, y: 0, z: 0, w: 0}
        outSlope: {x: 0, y: 0, z: 0, w: 0}
        tangentMode: 0
      m_PreInfinity: 2
      m_PostInfinity: 2
      m_RotationOrder: 4
    path: CopperFoil03/CopperFoil04
  - curve:
      serializedVersion: 2
      m_Curve:
      - serializedVersion: 2
        time: 0
        value: {x: 0.0045044194, y: 0.12178603, z: -0.036685564, w: 0.99186796}
        inSlope: {x: 0.0000000029410188, y: -0.0000000941126, z: -0.000000052938336,
          w: 0}
        outSlope: {x: 0.0000000029410188, y: -0.0000000941126, z: -0.000000052938336,
          w: 0}
        tangentMode: 0
      - serializedVersion: 2
        time: 0.36666667
        value: {x: 0.004504421, y: 0.12178602, z: -0.03668558, w: 0.99186796}
        inSlope: {x: 0, y: 0, z: 0, w: 0}
        outSlope: {x: 0, y: 0, z: 0, w: 0}
        tangentMode: 0
      - serializedVersion: 2
        time: 0.40000004
        value: {x: 0.004504421, y: 0.12178602, z: -0.03668558, w: 0.99186796}
        inSlope: {x: -0.06756638, y: -1.826792, z: -0.0041325614, w: 0.1117311}
        outSlope: {x: -0.06756638, y: -1.826792, z: -0.0041325614, w: 0.1117311}
        tangentMode: 0
      - serializedVersion: 2
        time: 0.43333334
        value: {x: 0, y: -0, z: -0.036961082, w: 0.9993167}
        inSlope: {x: -0.06756638, y: -1.826792, z: -0.0041325614, w: 0.1117311}
        outSlope: {x: -0.06756638, y: -1.826792, z: -0.0041325614, w: 0.1117311}
        tangentMode: 0
      - serializedVersion: 2
        time: 0.46666664
        value: {x: 0, y: -0, z: -0.036961082, w: 0.9993167}
        inSlope: {x: 0, y: 0, z: 0, w: 0}
        outSlope: {x: 0, y: 0, z: 0, w: 0}
        tangentMode: 0
      m_PreInfinity: 2
      m_PostInfinity: 2
      m_RotationOrder: 4
    path: CopperFoil05
  - curve:
      serializedVersion: 2
      m_Curve:
      - serializedVersion: 2
        time: 0
        value: {x: -0.014048517, y: 0.26686883, z: 0.050657317, w: 0.96229804}
        inSlope: {x: -0.000000017646112, y: -0.0000000941126, z: 0.000000058820373,
          w: 0}
        outSlope: {x: -0.000000017646112, y: -0.0000000941126, z: 0.000000058820373,
          w: 0}
        tangentMode: 0
      - serializedVersion: 2
        time: 0.36666667
        value: {x: -0.014048521, y: 0.26686883, z: 0.050657336, w: 0.96229804}
        inSlope: {x: 0, y: 0, z: 0, w: 0}
        outSlope: {x: 0, y: 0, z: 0, w: 0}
        tangentMode: 0
      - serializedVersion: 2
        time: 0.40000004
        value: {x: -0.014048521, y: 0.26686883, z: 0.050657336, w: 0.96229804}
        inSlope: {x: 0.21072802, y: -4.0030365, z: 0.028678821, w: 0.5447894}
        outSlope: {x: 0.21072802, y: -4.0030365, z: 0.028678821, w: 0.5447894}
        tangentMode: 0
      - serializedVersion: 2
        time: 0.43333334
        value: {x: 0, y: 0, z: 0.052569255, w: 0.9986173}
        inSlope: {x: 0.21072802, y: -4.0030365, z: 0.028678821, w: 0.5447894}
        outSlope: {x: 0.21072802, y: -4.0030365, z: 0.028678821, w: 0.5447894}
        tangentMode: 0
      - serializedVersion: 2
        time: 0.46666664
        value: {x: 0, y: 0, z: 0.052569255, w: 0.9986173}
        inSlope: {x: 0, y: 0, z: 0, w: 0}
        outSlope: {x: 0, y: 0, z: 0, w: 0}
        tangentMode: 0
      m_PreInfinity: 2
      m_PostInfinity: 2
      m_RotationOrder: 4
    path: CopperFoil05/CopperFoil06
  - curve:
      serializedVersion: 2
      m_Curve:
      - serializedVersion: 2
        time: 0
        value: {x: -0.0012316674, y: 0.1564295, z: 0.0077764466, w: 0.9876577}
        inSlope: {x: -0.00000008508901, y: -0.00000032511625, z: 0.0000005537136,
          w: 0}
        outSlope: {x: -0.00000008508901, y: -0.00000032511625, z: 0.0000005537136,
          w: 0}
        tangentMode: 0
      - serializedVersion: 2
        time: 0.23333335
        value: {x: -0.001231673, y: 0.15642948, z: 0.007776484, w: 0.9876577}
        inSlope: {x: 0, y: 0, z: 0, w: 0}
        outSlope: {x: 0, y: 0, z: 0, w: 0}
        tangentMode: 0
      - serializedVersion: 2
        time: 0.2666667
        value: {x: -0.001231673, y: 0.15642948, z: 0.007776484, w: 0.9876577}
        inSlope: {x: 0.018475113, y: -2.3464446, z: 0.0014540241, w: 0.18466938}
        outSlope: {x: 0.018475113, y: -2.3464446, z: 0.0014540241, w: 0.18466938}
        tangentMode: 0
      - serializedVersion: 2
        time: 0.3
        value: {x: 0, y: 0, z: 0.007873419, w: 0.999969}
        inSlope: {x: 0.018475113, y: -2.3464446, z: 0.0014540241, w: 0.18466938}
        outSlope: {x: 0.018475113, y: -2.3464446, z: 0.0014540241, w: 0.18466938}
        tangentMode: 0
      - serializedVersion: 2
        time: 0.33333337
        value: {x: 0, y: 0, z: 0.007873419, w: 0.999969}
        inSlope: {x: 0, y: 0, z: 0, w: 0}
        outSlope: {x: 0, y: 0, z: 0, w: 0}
        tangentMode: 0
      - serializedVersion: 2
        time: 0.46666664
        value: {x: 0, y: 0, z: 0.007873419, w: 0.999969}
        inSlope: {x: 0, y: 0, z: 0, w: 0}
        outSlope: {x: 0, y: 0, z: 0, w: 0}
        tangentMode: 0
      m_PreInfinity: 2
      m_PostInfinity: 2
      m_RotationOrder: 4
    path: CopperFoil01
  - curve:
      serializedVersion: 2
      m_Curve:
      - serializedVersion: 2
        time: 0
        value: {x: 0.010047263, y: 0.26704943, z: -0.036229268, w: 0.9629492}
        inSlope: {x: 0.000000030479647, y: 0, z: -0.00000012191859, w: 0.00000032511625}
        outSlope: {x: 0.000000030479647, y: 0, z: -0.00000012191859, w: 0.00000032511625}
        tangentMode: 0
      - serializedVersion: 2
        time: 0.23333335
        value: {x: 0.010047264, y: 0.26704943, z: -0.03622927, w: 0.9629492}
        inSlope: {x: 0, y: 0, z: 0, w: 0}
        outSlope: {x: 0, y: 0, z: 0, w: 0}
        tangentMode: 0
      - serializedVersion: 2
        time: 0.2666667
        value: {x: 0.010047264, y: 0.26704943, z: -0.03622927, w: 0.9629492}
        inSlope: {x: -0.15070911, y: -4.0057454, z: -0.020510593, w: 0.54515773}
        outSlope: {x: -0.15070911, y: -4.0057454, z: -0.020510593, w: 0.54515773}
        tangentMode: 0
      - serializedVersion: 2
        time: 0.3
        value: {x: 0, y: -0, z: -0.037596643, w: 0.999293}
        inSlope: {x: -0.15070911, y: -4.0057454, z: -0.020510593, w: 0.54515773}
        outSlope: {x: -0.15070911, y: -4.0057454, z: -0.020510593, w: 0.54515773}
        tangentMode: 0
      - serializedVersion: 2
        time: 0.33333337
        value: {x: 0, y: -0, z: -0.037596643, w: 0.999293}
        inSlope: {x: 0, y: 0, z: 0, w: 0}
        outSlope: {x: 0, y: 0, z: 0, w: 0}
        tangentMode: 0
      - serializedVersion: 2
        time: 0.46666664
        value: {x: 0, y: -0, z: -0.037596643, w: 0.999293}
        inSlope: {x: 0, y: 0, z: 0, w: 0}
        outSlope: {x: 0, y: 0, z: 0, w: 0}
        tangentMode: 0
      m_PreInfinity: 2
      m_PostInfinity: 2
      m_RotationOrder: 4
    path: CopperFoil01/CopperFoil02
  m_CompressedRotationCurves: []
  m_EulerCurves: []
  m_PositionCurves:
  - curve:
      serializedVersion: 2
      m_Curve:
      - serializedVersion: 2
        time: 0
        value: {x: 0.0031511355, y: -0.010253673, z: 0}
        inSlope: {x: 0, y: 0, z: 0}
        outSlope: {x: 0, y: 0, z: 0}
        tangentMode: 0
      - serializedVersion: 2
        time: 0.46666664
        value: {x: 0.0031511355, y: -0.010253673, z: 0}
        inSlope: {x: 0, y: 0, z: 0}
        outSlope: {x: 0, y: 0, z: 0}
        tangentMode: 0
      m_PreInfinity: 2
      m_PostInfinity: 2
      m_RotationOrder: 4
    path: CopperFoil03
  - curve:
      serializedVersion: 2
      m_Curve:
      - serializedVersion: 2
        time: 0
        value: {x: -0.015062043, y: -0.0000000121071935, z: 0}
        inSlope: {x: 0, y: 0, z: 0}
        outSlope: {x: 0, y: 0, z: 0}
        tangentMode: 0
      - serializedVersion: 2
        time: 0.46666664
        value: {x: -0.015062043, y: -0.0000000121071935, z: 0}
        inSlope: {x: 0, y: 0, z: 0}
        outSlope: {x: 0, y: 0, z: 0}
        tangentMode: 0
      m_PreInfinity: 2
      m_PostInfinity: 2
      m_RotationOrder: 4
    path: CopperFoil03/CopperFoil04
  - curve:
      serializedVersion: 2
      m_Curve:
      - serializedVersion: 2
        time: 0
        value: {x: 0.002498148, y: 0.022232436, z: 0}
        inSlope: {x: 0, y: 0, z: 0}
        outSlope: {x: 0, y: 0, z: 0}
        tangentMode: 0
      - serializedVersion: 2
        time: 0.46666664
        value: {x: 0.002498148, y: 0.022232436, z: 0}
        inSlope: {x: 0, y: 0, z: 0}
        outSlope: {x: 0, y: 0, z: 0}
        tangentMode: 0
      m_PreInfinity: 2
      m_PostInfinity: 2
      m_RotationOrder: 4
    path: CopperFoil05
  - curve:
      serializedVersion: 2
      m_Curve:
      - serializedVersion: 2
        time: 0
        value: {x: -0.017679, y: 9.777772e-11, z: 0}
        inSlope: {x: 0, y: -0.0000000015709698, z: 0}
        outSlope: {x: 0, y: -0.0000000015709698, z: 0}
        tangentMode: 0
      - serializedVersion: 2
        time: 0.46666664
        value: {x: -0.017679, y: 0, z: 0}
        inSlope: {x: -4.6465772e-17, y: -0, z: -0}
        outSlope: {x: -4.6465772e-17, y: -0, z: -0}
        tangentMode: 0
      m_PreInfinity: 2
      m_PostInfinity: 2
      m_RotationOrder: 4
    path: CopperFoil05/CopperFoil06
  - curve:
      serializedVersion: 2
      m_Curve:
      - serializedVersion: 2
        time: 0
        value: {x: 0.004130616, y: -0.030822769, z: 0}
        inSlope: {x: 0, y: 0, z: 0}
        outSlope: {x: 0, y: 0, z: 0}
        tangentMode: 0
      - serializedVersion: 2
        time: 0.46666664
        value: {x: 0.004130616, y: -0.030822769, z: 0}
        inSlope: {x: 0, y: 0, z: 0}
        outSlope: {x: 0, y: 0, z: 0}
        tangentMode: 0
      m_PreInfinity: 2
      m_PostInfinity: 2
      m_RotationOrder: 4
    path: CopperFoil01
  - curve:
      serializedVersion: 2
      m_Curve:
      - serializedVersion: 2
        time: 0
        value: {x: -0.020734997, y: -5.2042246e-11, z: 0}
        inSlope: {x: 0, y: 0.000000001144008, z: 0}
        outSlope: {x: 0, y: 0.000000001144008, z: 0}
        tangentMode: 0
      - serializedVersion: 2
        time: 0.46666664
        value: {x: -0.020735, y: 0, z: 0}
        inSlope: {x: -0, y: -0, z: -0}
        outSlope: {x: -0, y: -0, z: -0}
        tangentMode: 0
      m_PreInfinity: 2
      m_PostInfinity: 2
      m_RotationOrder: 4
    path: CopperFoil01/CopperFoil02
  m_ScaleCurves:
  - curve:
      serializedVersion: 2
      m_Curve:
      - serializedVersion: 2
        time: 0
        value: {x: 1, y: 1, z: 1}
        inSlope: {x: 0, y: 0, z: 0}
        outSlope: {x: 0, y: 0, z: 0}
        tangentMode: 0
      - serializedVersion: 2
        time: 0.46666664
        value: {x: 1, y: 1, z: 1}
        inSlope: {x: 0, y: 0, z: 0}
        outSlope: {x: 0, y: 0, z: 0}
        tangentMode: 0
      m_PreInfinity: 2
      m_PostInfinity: 2
      m_RotationOrder: 4
    path: CopperFoil03
  - curve:
      serializedVersion: 2
      m_Curve:
      - serializedVersion: 2
        time: 0
        value: {x: 1, y: 1, z: 1}
        inSlope: {x: 0, y: 0, z: 0}
        outSlope: {x: 0, y: 0, z: 0}
        tangentMode: 0
      - serializedVersion: 2
        time: 0.46666664
        value: {x: 1, y: 1, z: 1}
        inSlope: {x: 0, y: 0, z: 0}
        outSlope: {x: 0, y: 0, z: 0}
        tangentMode: 0
      m_PreInfinity: 2
      m_PostInfinity: 2
      m_RotationOrder: 4
    path: CopperFoil03/CopperFoil04
  - curve:
      serializedVersion: 2
      m_Curve:
      - serializedVersion: 2
        time: 0
        value: {x: 1, y: 1, z: 1}
        inSlope: {x: 0, y: 0, z: 0}
        outSlope: {x: 0, y: 0, z: 0}
        tangentMode: 0
      - serializedVersion: 2
        time: 0.46666664
        value: {x: 1, y: 1, z: 1}
        inSlope: {x: 0, y: 0, z: 0}
        outSlope: {x: 0, y: 0, z: 0}
        tangentMode: 0
      m_PreInfinity: 2
      m_PostInfinity: 2
      m_RotationOrder: 4
    path: CopperFoil05
  - curve:
      serializedVersion: 2
      m_Curve:
      - serializedVersion: 2
        time: 0
        value: {x: 1.0000001, y: 1.0000001, z: 1}
        inSlope: {x: 0, y: 0, z: 0}
        outSlope: {x: 0, y: 0, z: 0}
        tangentMode: 0
      - serializedVersion: 2
        time: 0.46666664
        value: {x: 1.0000001, y: 1.0000001, z: 1}
        inSlope: {x: 0, y: 0, z: 0}
        outSlope: {x: 0, y: 0, z: 0}
        tangentMode: 0
      m_PreInfinity: 2
      m_PostInfinity: 2
      m_RotationOrder: 4
    path: CopperFoil05/CopperFoil06
  - curve:
      serializedVersion: 2
      m_Curve:
      - serializedVersion: 2
        time: 0
        value: {x: 1, y: 1, z: 1}
        inSlope: {x: 0, y: 0, z: 0}
        outSlope: {x: 0, y: 0, z: 0}
        tangentMode: 0
      - serializedVersion: 2
        time: 0.46666664
        value: {x: 1, y: 1, z: 1}
        inSlope: {x: 0, y: 0, z: 0}
        outSlope: {x: 0, y: 0, z: 0}
        tangentMode: 0
      m_PreInfinity: 2
      m_PostInfinity: 2
      m_RotationOrder: 4
    path: CopperFoil01
  - curve:
      serializedVersion: 2
      m_Curve:
      - serializedVersion: 2
        time: 0
        value: {x: 1, y: 1, z: 1}
        inSlope: {x: 0, y: 0, z: 0}
        outSlope: {x: 0, y: 0, z: 0}
        tangentMode: 0
      - serializedVersion: 2
        time: 0.46666664
        value: {x: 1, y: 1, z: 1}
        inSlope: {x: 0, y: 0, z: 0}
        outSlope: {x: 0, y: 0, z: 0}
        tangentMode: 0
      m_PreInfinity: 2
      m_PostInfinity: 2
      m_RotationOrder: 4
    path: CopperFoil01/CopperFoil02
  m_FloatCurves: []
  m_PPtrCurves: []
  m_SampleRate: 30
  m_WrapMode: 0
  m_Bounds:
    m_Center: {x: 0, y: 0, z: 0}
    m_Extent: {x: 0, y: 0, z: 0}
  m_ClipBindingConstant:
    genericBindings:
    - serializedVersion: 2
      path: 3204725956
      attribute: 2
      script: {fileID: 0}
      typeID: 4
      customType: 0
      isPPtrCurve: 0
    - serializedVersion: 2
      path: 3264655827
      attribute: 2
      script: {fileID: 0}
      typeID: 4
      customType: 0
      isPPtrCurve: 0
    - serializedVersion: 2
      path: 1449630193
      attribute: 2
      script: {fileID: 0}
      typeID: 4
      customType: 0
      isPPtrCurve: 0
    - serializedVersion: 2
      path: 3562707785
      attribute: 2
      script: {fileID: 0}
      typeID: 4
      customType: 0
      isPPtrCurve: 0
    - serializedVersion: 2
      path: 1359633896
      attribute: 2
      script: {fileID: 0}
      typeID: 4
      customType: 0
      isPPtrCurve: 0
    - serializedVersion: 2
      path: 3399209035
      attribute: 2
      script: {fileID: 0}
      typeID: 4
      customType: 0
      isPPtrCurve: 0
    - serializedVersion: 2
      path: 3204725956
      attribute: 1
      script: {fileID: 0}
      typeID: 4
      customType: 0
      isPPtrCurve: 0
    - serializedVersion: 2
      path: 3264655827
      attribute: 1
      script: {fileID: 0}
      typeID: 4
      customType: 0
      isPPtrCurve: 0
    - serializedVersion: 2
      path: 1449630193
      attribute: 1
      script: {fileID: 0}
      typeID: 4
      customType: 0
      isPPtrCurve: 0
    - serializedVersion: 2
      path: 3562707785
      attribute: 1
      script: {fileID: 0}
      typeID: 4
      customType: 0
      isPPtrCurve: 0
    - serializedVersion: 2
      path: 1359633896
      attribute: 1
      script: {fileID: 0}
      typeID: 4
      customType: 0
      isPPtrCurve: 0
    - serializedVersion: 2
      path: 3399209035
      attribute: 1
      script: {fileID: 0}
      typeID: 4
      customType: 0
      isPPtrCurve: 0
    - serializedVersion: 2
      path: 3204725956
      attribute: 3
      script: {fileID: 0}
      typeID: 4
      customType: 0
      isPPtrCurve: 0
    - serializedVersion: 2
      path: 3264655827
      attribute: 3
      script: {fileID: 0}
      typeID: 4
      customType: 0
      isPPtrCurve: 0
    - serializedVersion: 2
      path: 1449630193
      attribute: 3
      script: {fileID: 0}
      typeID: 4
      customType: 0
      isPPtrCurve: 0
    - serializedVersion: 2
      path: 3562707785
      attribute: 3
      script: {fileID: 0}
      typeID: 4
      customType: 0
      isPPtrCurve: 0
    - serializedVersion: 2
      path: 1359633896
      attribute: 3
      script: {fileID: 0}
      typeID: 4
      customType: 0
      isPPtrCurve: 0
    - serializedVersion: 2
      path: 3399209035
      attribute: 3
      script: {fileID: 0}
      typeID: 4
      customType: 0
      isPPtrCurve: 0
    pptrCurveMapping: []
  m_AnimationClipSettings:
    serializedVersion: 2
    m_AdditiveReferencePoseClip: {fileID: 0}
    m_AdditiveReferencePoseTime: 0
    m_StartTime: 0
    m_StopTime: 0.46666664
    m_OrientationOffsetY: 0
    m_Level: 0
    m_CycleOffset: 0
    m_HasAdditiveReferencePose: 0
    m_LoopTime: 0
    m_LoopBlend: 0
    m_LoopBlendOrientation: 0
    m_LoopBlendPositionY: 0
    m_LoopBlendPositionXZ: 0
    m_KeepOriginalOrientation: 0
    m_KeepOriginalPositionY: 0
    m_KeepOriginalPositionXZ: 0
    m_HeightFromFeet: 0
    m_Mirror: 0
  m_EditorCurves: []
  m_EulerEditorCurves: []
  m_HasGenericRootTransform: 0
  m_HasMotionFloatCurves: 0
  m_GenerateMotionCurves: 0
  m_Events:
  - time: 0
    functionName: OnClipStart
    data: 
    objectReferenceParameter: {fileID: 0}
    floatParameter: 0
    intParameter: 10500102
    messageOptions: 0
  - time: 0.46666664
    functionName: OnClipEnd
    data: 
    objectReferenceParameter: {fileID: 0}
    floatParameter: 0
    intParameter: 10500102
    messageOptions: 0
