%YAML 1.1
%TAG !u! tag:unity3d.com,2011:
--- !u!74 &7400000
AnimationClip:
  m_ObjectHideFlags: 0
  m_PrefabParentObject: {fileID: 0}
  m_PrefabInternal: {fileID: 0}
  m_Name: Anim_10500283
  serializedVersion: 6
  m_Legacy: 0
  m_Compressed: 0
  m_UseHighQualityCurve: 1
  m_RotationCurves:
  - curve:
      serializedVersion: 2
      m_Curve:
      - serializedVersion: 2
        time: 0
        value: {x: -0.000001029431, y: -0.7429116, z: 0.000001039221, w: -0.6693896}
        inSlope: {x: 0, y: 0, z: 0, w: 0}
        outSlope: {x: 0, y: 0, z: 0, w: 0}
        tangentMode: 0
      - serializedVersion: 2
        time: 0.06666756
        value: {x: -0.000001029431, y: -0.7429116, z: 0.000001039221, w: -0.6693896}
        inSlope: {x: 0, y: 0, z: 0, w: 0}
        outSlope: {x: 0, y: 0, z: 0, w: 0}
        tangentMode: 0
      - serializedVersion: 2
        time: 0.10000229
        value: {x: -0.000001029431, y: -0.7429116, z: 0.000001039221, w: -0.6693896}
        inSlope: {x: -5.9415727, y: 17.085424, z: -8.786426, w: 1.2545857}
        outSlope: {x: -5.9415727, y: 17.085424, z: -8.786426, w: 1.2545857}
        tangentMode: 0
      - serializedVersion: 2
        time: 0.13333511
        value: {x: -0.39609984, y: 0.39609936, z: -0.5857518, w: -0.58575183}
        inSlope: {x: -5.9415727, y: 17.085424, z: -8.786426, w: 1.2545857}
        outSlope: {x: -5.9415727, y: 17.085424, z: -8.786426, w: 1.2545857}
        tangentMode: 0
      - serializedVersion: 2
        time: 0.16666794
        value: {x: -0.39609984, y: 0.39609936, z: -0.5857518, w: -0.58575183}
        inSlope: {x: 0, y: 0, z: 0, w: 0}
        outSlope: {x: 0, y: 0, z: 0, w: 0}
        tangentMode: 0
      - serializedVersion: 2
        time: 0.46666718
        value: {x: -0.39609984, y: 0.39609936, z: -0.5857518, w: -0.58575183}
        inSlope: {x: 0, y: 0, z: 0, w: 0}
        outSlope: {x: 0, y: 0, z: 0, w: 0}
        tangentMode: 0
      m_PreInfinity: 2
      m_PostInfinity: 2
      m_RotationOrder: 4
    path: Tool_Tweezers02
  - curve:
      serializedVersion: 2
      m_Curve:
      - serializedVersion: 2
        time: 0.0000019073486
        value: {x: 0, y: -0.0021670165, z: -0, w: 0.9999977}
        inSlope: {x: 0, y: 0, z: 0, w: 0}
        outSlope: {x: 0, y: 0, z: 0, w: 0}
        tangentMode: 0
      - serializedVersion: 2
        time: 0.10000229
        value: {x: 0, y: -0.0021670165, z: -0, w: 0.9999977}
        inSlope: {x: 0, y: 0, z: 0, w: 0}
        outSlope: {x: 0, y: 0, z: 0, w: 0}
        tangentMode: 0
      - serializedVersion: 2
        time: 0.13333511
        value: {x: 0, y: -0.0021670165, z: -0, w: 0.9999977}
        inSlope: {x: 0, y: -0.48828086, z: 0, w: -0.00900789}
        outSlope: {x: 0, y: -0.48828086, z: 0, w: -0.00900789}
        tangentMode: 0
      - serializedVersion: 2
        time: 0.20000076
        value: {x: 0, y: -0.06723184, z: -0, w: 0.9977374}
        inSlope: {x: 0, y: -0.48770642, z: 0, w: -0.024896644}
        outSlope: {x: 0, y: -0.48770642, z: 0, w: -0.024896644}
        tangentMode: 0
      - serializedVersion: 2
        time: 0.2333355
        value: {x: 0, y: -0.06723184, z: -0, w: 0.9977374}
        inSlope: {x: 0, y: 0, z: 0, w: 0}
        outSlope: {x: 0, y: 0, z: 0, w: 0}
        tangentMode: 0
      - serializedVersion: 2
        time: 0.26666832
        value: {x: 0, y: -0.06723184, z: -0, w: 0.9977374}
        inSlope: {x: 0, y: 0.97598726, z: 0, w: 0.033904534}
        outSlope: {x: 0, y: 0.97598726, z: 0, w: 0.033904534}
        tangentMode: 0
      - serializedVersion: 2
        time: 0.30000114
        value: {x: 0, y: -0.0021670165, z: -0, w: 0.9999977}
        inSlope: {x: 0, y: 0.97598726, z: 0, w: 0.033904534}
        outSlope: {x: 0, y: 0.97598726, z: 0, w: 0.033904534}
        tangentMode: 0
      - serializedVersion: 2
        time: 0.33333397
        value: {x: 0, y: -0.0021670165, z: -0, w: 0.9999977}
        inSlope: {x: 0, y: 0, z: 0, w: 0}
        outSlope: {x: 0, y: 0, z: 0, w: 0}
        tangentMode: 0
      - serializedVersion: 2
        time: 0.46666718
        value: {x: 0, y: -0.0021670165, z: -0, w: 0.9999977}
        inSlope: {x: 0, y: 0, z: 0, w: 0}
        outSlope: {x: 0, y: 0, z: 0, w: 0}
        tangentMode: 0
      m_PreInfinity: 2
      m_PostInfinity: 2
      m_RotationOrder: 4
    path: Tool_Tweezers02/Tool_Tweezers03
  m_CompressedRotationCurves: []
  m_EulerCurves: []
  m_PositionCurves:
  - curve:
      serializedVersion: 2
      m_Curve:
      - serializedVersion: 2
        time: 0
        value: {x: 0.16607387, y: 0.30998403, z: 0.21993174}
        inSlope: {x: 0, y: 0, z: 0}
        outSlope: {x: 0, y: 0, z: 0}
        tangentMode: 0
      - serializedVersion: 2
        time: 0.10000038
        value: {x: 0.16607387, y: 0.30998403, z: 0.21993172}
        inSlope: {x: 1.4869286e-15, y: 1.4869286e-15, z: 7.434643e-16}
        outSlope: {x: -0.0012102892, y: -0.0004963422, z: -0.0017887689}
        tangentMode: 0
      - serializedVersion: 2
        time: 0.1333332
        value: {x: -0.10508026, y: 0.1985358, z: -0.18169893}
        inSlope: {x: -0.0023273611, y: -0.00095615647, z: -0.0034460162}
        outSlope: {x: -8.6732537e-16, y: -0.00004629438, z: -0.000028848539}
        tangentMode: 0
      - serializedVersion: 2
        time: 0.20000076
        value: {x: -0.10508026, y: 0.21591984, z: -0.16977797}
        inSlope: {x: -3.7173216e-16, y: 0.000038406728, z: 0.000024369057}
        outSlope: {x: -8.6737497e-16, y: -0.00008518455, z: -0}
        tangentMode: 0
      - serializedVersion: 2
        time: 0.23333359
        value: {x: -0.10508026, y: 0.1996611, z: -0.16977797}
        inSlope: {x: -3.7173216e-16, y: -0.48786935, z: -0}
        outSlope: {x: -8.6737497e-16, y: -0.48781294, z: -0}
        tangentMode: 0
      - serializedVersion: 2
        time: 0.2666664
        value: {x: -0.10508026, y: 0.18340237, z: -0.16977797}
        inSlope: {x: -3.7173216e-16, y: -0.0001096654, z: -0}
        outSlope: {x: 0.0013803603, y: 1.7346507e-15, z: 0.0002756019}
        tangentMode: 0
      - serializedVersion: 2
        time: 0.30000114
        value: {x: -0.31066346, y: 0.18340237, z: -0.21054946}
        inSlope: {x: 0.0012377409, y: 7.4342176e-16, z: 0.00024792948}
        outSlope: {x: -6.9389998e-15, y: 1.7347499e-15, z: -5.20425e-15}
        tangentMode: 0
      - serializedVersion: 2
        time: 0.46666718
        value: {x: -0.31066346, y: 0.18340237, z: -0.21054946}
        inSlope: {x: 0, y: 0, z: 0}
        outSlope: {x: 0, y: 0, z: 0}
        tangentMode: 0
      m_PreInfinity: 2
      m_PostInfinity: 2
      m_RotationOrder: 4
    path: Tool_Tweezers02
  - curve:
      serializedVersion: 2
      m_Curve:
      - serializedVersion: 2
        time: 0
        value: {x: 0.008098871, y: 5.6736277e-10, z: -0.0012252554}
        inSlope: {x: 0, y: 0, z: 0}
        outSlope: {x: 0, y: 0, z: 0}
        tangentMode: 0
      - serializedVersion: 2
        time: 0.46666718
        value: {x: 0.008098871, y: 5.6736277e-10, z: -0.0012252554}
        inSlope: {x: 0, y: 0, z: 0}
        outSlope: {x: 0, y: 0, z: 0}
        tangentMode: 0
      m_PreInfinity: 2
      m_PostInfinity: 2
      m_RotationOrder: 4
    path: Tool_Tweezers02/Tool_Tweezers03
  m_ScaleCurves:
  - curve:
      serializedVersion: 2
      m_Curve:
      - serializedVersion: 2
        time: 0
        value: {x: 1, y: 1, z: 1}
        inSlope: {x: 0, y: 0, z: 0}
        outSlope: {x: 0, y: 0, z: 0}
        tangentMode: 0
      - serializedVersion: 2
        time: 0.46666718
        value: {x: 1, y: 1, z: 1}
        inSlope: {x: 0, y: 0, z: 0}
        outSlope: {x: 0, y: 0, z: 0}
        tangentMode: 0
      m_PreInfinity: 2
      m_PostInfinity: 2
      m_RotationOrder: 4
    path: Tool_Tweezers02
  - curve:
      serializedVersion: 2
      m_Curve:
      - serializedVersion: 2
        time: 0
        value: {x: 1, y: 1, z: 1}
        inSlope: {x: 0, y: 0, z: 0}
        outSlope: {x: 0, y: 0, z: 0}
        tangentMode: 0
      - serializedVersion: 2
        time: 0.46666718
        value: {x: 1, y: 1, z: 1}
        inSlope: {x: 0, y: 0, z: 0}
        outSlope: {x: 0, y: 0, z: 0}
        tangentMode: 0
      m_PreInfinity: 2
      m_PostInfinity: 2
      m_RotationOrder: 4
    path: Tool_Tweezers02/Tool_Tweezers03
  m_FloatCurves: []
  m_PPtrCurves: []
  m_SampleRate: 30
  m_WrapMode: 0
  m_Bounds:
    m_Center: {x: 0, y: 0, z: 0}
    m_Extent: {x: 0, y: 0, z: 0}
  m_ClipBindingConstant:
    genericBindings:
    - serializedVersion: 2
      path: 4162974765
      attribute: 1
      script: {fileID: 0}
      typeID: 4
      customType: 0
      isPPtrCurve: 0
    - serializedVersion: 2
      path: 4162974765
      attribute: 2
      script: {fileID: 0}
      typeID: 4
      customType: 0
      isPPtrCurve: 0
    - serializedVersion: 2
      path: 3787453774
      attribute: 2
      script: {fileID: 0}
      typeID: 4
      customType: 0
      isPPtrCurve: 0
    - serializedVersion: 2
      path: 3787453774
      attribute: 1
      script: {fileID: 0}
      typeID: 4
      customType: 0
      isPPtrCurve: 0
    - serializedVersion: 2
      path: 4162974765
      attribute: 3
      script: {fileID: 0}
      typeID: 4
      customType: 0
      isPPtrCurve: 0
    - serializedVersion: 2
      path: 3787453774
      attribute: 3
      script: {fileID: 0}
      typeID: 4
      customType: 0
      isPPtrCurve: 0
    pptrCurveMapping: []
  m_AnimationClipSettings:
    serializedVersion: 2
    m_AdditiveReferencePoseClip: {fileID: 0}
    m_AdditiveReferencePoseTime: 0
    m_StartTime: 0
    m_StopTime: 0.46666718
    m_OrientationOffsetY: 0
    m_Level: 0
    m_CycleOffset: 0
    m_HasAdditiveReferencePose: 0
    m_LoopTime: 0
    m_LoopBlend: 0
    m_LoopBlendOrientation: 0
    m_LoopBlendPositionY: 0
    m_LoopBlendPositionXZ: 0
    m_KeepOriginalOrientation: 0
    m_KeepOriginalPositionY: 0
    m_KeepOriginalPositionXZ: 0
    m_HeightFromFeet: 0
    m_Mirror: 0
  m_EditorCurves: []
  m_EulerEditorCurves: []
  m_HasGenericRootTransform: 0
  m_HasMotionFloatCurves: 0
  m_GenerateMotionCurves: 0
  m_Events:
  - time: 0
    functionName: OnClipStart
    data: 
    objectReferenceParameter: {fileID: 0}
    floatParameter: 0
    intParameter: 10500283
    messageOptions: 0
  - time: 0.46666718
    functionName: OnClipEnd
    data: 
    objectReferenceParameter: {fileID: 0}
    floatParameter: 0
    intParameter: 10500283
    messageOptions: 0
