%YAML 1.1
%TAG !u! tag:unity3d.com,2011:
--- !u!74 &7400000
AnimationClip:
  m_ObjectHideFlags: 0
  m_PrefabParentObject: {fileID: 0}
  m_PrefabInternal: {fileID: 0}
  m_Name: Anim_10500217
  serializedVersion: 6
  m_Legacy: 0
  m_Compressed: 0
  m_UseHighQualityCurve: 1
  m_RotationCurves:
  - curve:
      serializedVersion: 2
      m_Curve:
      - serializedVersion: 2
        time: 0
        value: {x: 0.30046123, y: 0.30046123, z: -0.6400962, w: 0.6400962}
        inSlope: {x: 0, y: 0, z: 0, w: 0}
        outSlope: {x: 0, y: 0, z: 0, w: 0}
        tangentMode: 0
      - serializedVersion: 2
        time: 0.23333359
        value: {x: 0.30046123, y: 0.30046123, z: -0.6400962, w: 0.6400962}
        inSlope: {x: 0, y: 0, z: 0, w: 0}
        outSlope: {x: 0, y: 0, z: 0, w: 0}
        tangentMode: 0
      - serializedVersion: 2
        time: 0.2666669
        value: {x: 0.30046123, y: 0.30046123, z: -0.6400962, w: 0.6400962}
        inSlope: {x: -4.5069227, y: 1.8668282, z: 9.601452, w: 3.97705}
        outSlope: {x: -4.5069227, y: 1.8668282, z: 9.601452, w: 3.97705}
        tangentMode: 0
      - serializedVersion: 2
        time: 0.3000002
        value: {x: 0, y: 0.42491633, z: -0, w: 0.9052326}
        inSlope: {x: -4.5069227, y: 1.8668282, z: 9.601452, w: 3.97705}
        outSlope: {x: -4.5069227, y: 1.8668282, z: 9.601452, w: 3.97705}
        tangentMode: 0
      - serializedVersion: 2
        time: 0.3333335
        value: {x: 0, y: 0.42491633, z: -0, w: 0.9052326}
        inSlope: {x: -1.2289064e-10, y: 0, z: 2.6180358e-10, w: 0}
        outSlope: {x: -1.2289064e-10, y: 0, z: 2.6180358e-10, w: 0}
        tangentMode: 0
      - serializedVersion: 2
        time: 0.3666668
        value: {x: -8.192702e-12, y: 0.42491633, z: 1.7453556e-11, w: 0.9052326}
        inSlope: {x: -4.506891, y: -1.8668149, z: 9.601383, w: -3.9770217}
        outSlope: {x: -4.506891, y: -1.8668149, z: 9.601383, w: -3.9770217}
        tangentMode: 0
      - serializedVersion: 2
        time: 0.40000033
        value: {x: -0.30046123, y: 0.30046123, z: 0.6400962, w: 0.6400962}
        inSlope: {x: -4.506891, y: -1.8668149, z: 9.601383, w: -3.9770217}
        outSlope: {x: -4.506891, y: -1.8668149, z: 9.601383, w: -3.9770217}
        tangentMode: 0
      - serializedVersion: 2
        time: 0.43333364
        value: {x: -0.30046123, y: 0.30046123, z: 0.6400962, w: 0.6400962}
        inSlope: {x: 4.506955, y: -4.506955, z: -9.601521, w: 5.398601}
        outSlope: {x: 4.506955, y: -4.506955, z: -9.601521, w: 5.398601}
        tangentMode: 0
      - serializedVersion: 2
        time: 0.4666667
        value: {x: 0, y: 0, z: -0, w: 1}
        inSlope: {x: 9.01391, y: -9.01391, z: -19.203041, w: 10.797202}
        outSlope: {x: 9.01391, y: -9.01391, z: -19.203041, w: 10.797202}
        tangentMode: 0
      m_PreInfinity: 2
      m_PostInfinity: 2
      m_RotationOrder: 4
    path: Tool_PlasticSpudger02
  m_CompressedRotationCurves: []
  m_EulerCurves: []
  m_PositionCurves:
  - curve:
      serializedVersion: 2
      m_Curve:
      - serializedVersion: 2
        time: 0
        value: {x: -0.14179331, y: 0.35810181, z: -0.09826496}
        inSlope: {x: 0, y: 0, z: 0}
        outSlope: {x: 0, y: 0, z: 0}
        tangentMode: 0
      - serializedVersion: 2
        time: 0.10000014
        value: {x: -0.14179331, y: 0.35810181, z: -0.09826496}
        inSlope: {x: -7.434484e-16, y: 2.9737936e-15, z: -7.434484e-16}
        outSlope: {x: 0.000101898906, y: -0.00015604937, z: 0.0000951104}
        tangentMode: 0
      - serializedVersion: 2
        time: 0.13333344
        value: {x: 0.031790674, y: 0.08783814, z: 0.061769217}
        inSlope: {x: -0.00007545169, y: -0.5045012, z: -0.00006933471}
        outSlope: {x: 2.1684065e-16, y: -0.504624, z: -0.0000017639952}
        tangentMode: 0
      - serializedVersion: 2
        time: 0.16666675
        value: {x: 0.031790674, y: 0.08223125, z: 0.05517742}
        inSlope: {x: 9.293171e-17, y: -0.07216317, z: -0.19775154}
        outSlope: {x: 2.1684065e-16, y: -0.07216225, z: -0.19775605}
        tangentMode: 0
      - serializedVersion: 2
        time: 0.20000005
        value: {x: 0.031790674, y: 0.08142945, z: 0.048585624}
        inSlope: {x: 9.293171e-17, y: 0.0000009494396, z: 0.000000098651626}
        outSlope: {x: -0.00000078174753, y: 2.6020878e-15, z: -0}
        tangentMode: 0
      - serializedVersion: 2
        time: 0.23333335
        value: {x: 0.017708443, y: 0.08142945, z: 0.048585624}
        inSlope: {x: -0.6408708, y: 1.1151805e-15, z: -0}
        outSlope: {x: -0.64086837, y: 2.6020878e-15, z: -0}
        tangentMode: 0
      - serializedVersion: 2
        time: 0.26666665
        value: {x: -0.010933936, y: 0.08142945, z: 0.048585624}
        inSlope: {x: -1.0995805, y: 1.1151805e-15, z: -0}
        outSlope: {x: -1.0995584, y: 0.000004068515, z: -0}
        tangentMode: 0
      - serializedVersion: 2
        time: 0.29999995
        value: {x: -0.05559641, y: 0.036751717, z: 0.048585624}
        inSlope: {x: -0.000012137209, y: -1.3468424, z: -0}
        outSlope: {x: -0, y: -1.3468028, z: -0}
        tangentMode: 0
      - serializedVersion: 2
        time: 0.3666668
        value: {x: -0.05559641, y: -0.053580314, z: 0.048585624}
        inSlope: {x: -0, y: -1.3585044, z: -0}
        outSlope: {x: 0.0000122028005, y: -1.3585974, z: -0}
        tangentMode: 0
      - serializedVersion: 2
        time: 0.4000001
        value: {x: -0.011651099, y: -0.098929435, z: 0.048585624}
        inSlope: {x: 1.2963666, y: 0.000005513987, z: -0}
        outSlope: {x: 1.2964056, y: -8.673626e-16, z: -0}
        tangentMode: 0
      - serializedVersion: 2
        time: 0.4333334
        value: {x: 0.03082937, y: -0.098929435, z: 0.048585624}
        inSlope: {x: -0.00000250791, y: -3.7172684e-16, z: -0}
        outSlope: {x: -0.00011750598, y: -0.00004988066, z: -0.000008601574}
        tangentMode: 0
      - serializedVersion: 2
        time: 0.4666667
        value: {x: -0.66567993, y: -0.4116211, z: 0}
        inSlope: {x: 0.0000027677909, y: 0.0000054665647, z: 0.000000046429193}
        outSlope: {x: 0.0000027677909, y: 0.0000054665647, z: 0.000000046429193}
        tangentMode: 0
      m_PreInfinity: 2
      m_PostInfinity: 2
      m_RotationOrder: 4
    path: Tool_PlasticSpudger02
  m_ScaleCurves:
  - curve:
      serializedVersion: 2
      m_Curve:
      - serializedVersion: 2
        time: 0
        value: {x: 1, y: 1, z: 1}
        inSlope: {x: 0, y: 0, z: 0}
        outSlope: {x: 0, y: 0, z: 0}
        tangentMode: 0
      - serializedVersion: 2
        time: 0.4666667
        value: {x: 1, y: 1, z: 1}
        inSlope: {x: 0, y: 0, z: 0}
        outSlope: {x: 0, y: 0, z: 0}
        tangentMode: 0
      m_PreInfinity: 2
      m_PostInfinity: 2
      m_RotationOrder: 4
    path: Tool_PlasticSpudger02
  m_FloatCurves: []
  m_PPtrCurves: []
  m_SampleRate: 30
  m_WrapMode: 0
  m_Bounds:
    m_Center: {x: 0, y: 0, z: 0}
    m_Extent: {x: 0, y: 0, z: 0}
  m_ClipBindingConstant:
    genericBindings:
    - serializedVersion: 2
      path: 2719527444
      attribute: 1
      script: {fileID: 0}
      typeID: 4
      customType: 0
      isPPtrCurve: 0
    - serializedVersion: 2
      path: 2719527444
      attribute: 2
      script: {fileID: 0}
      typeID: 4
      customType: 0
      isPPtrCurve: 0
    - serializedVersion: 2
      path: 2719527444
      attribute: 3
      script: {fileID: 0}
      typeID: 4
      customType: 0
      isPPtrCurve: 0
    pptrCurveMapping: []
  m_AnimationClipSettings:
    serializedVersion: 2
    m_AdditiveReferencePoseClip: {fileID: 0}
    m_AdditiveReferencePoseTime: 0
    m_StartTime: 0
    m_StopTime: 0.4666667
    m_OrientationOffsetY: 0
    m_Level: 0
    m_CycleOffset: 0
    m_HasAdditiveReferencePose: 0
    m_LoopTime: 0
    m_LoopBlend: 0
    m_LoopBlendOrientation: 0
    m_LoopBlendPositionY: 0
    m_LoopBlendPositionXZ: 0
    m_KeepOriginalOrientation: 0
    m_KeepOriginalPositionY: 0
    m_KeepOriginalPositionXZ: 0
    m_HeightFromFeet: 0
    m_Mirror: 0
  m_EditorCurves: []
  m_EulerEditorCurves: []
  m_HasGenericRootTransform: 0
  m_HasMotionFloatCurves: 0
  m_GenerateMotionCurves: 0
  m_Events:
  - time: 0
    functionName: OnClipStart
    data: 
    objectReferenceParameter: {fileID: 0}
    floatParameter: 0
    intParameter: 10500217
    messageOptions: 0
  - time: 0.4666667
    functionName: OnClipEnd
    data: 
    objectReferenceParameter: {fileID: 0}
    floatParameter: 0
    intParameter: 10500217
    messageOptions: 0
