%YAML 1.1
%TAG !u! tag:unity3d.com,2011:
--- !u!74 &7400000
AnimationClip:
  m_ObjectHideFlags: 0
  m_PrefabParentObject: {fileID: 0}
  m_PrefabInternal: {fileID: 0}
  m_Name: Anim_10500295
  serializedVersion: 6
  m_Legacy: 0
  m_Compressed: 0
  m_UseHighQualityCurve: 1
  m_RotationCurves:
  - curve:
      serializedVersion: 2
      m_Curve:
      - serializedVersion: 2
        time: 0
        value: {x: -0.556692, y: -0.5956252, z: -0.41197672, w: -0.40693954}
        inSlope: {x: 0, y: 0, z: 0, w: 0}
        outSlope: {x: 0, y: 0, z: 0, w: 0}
        tangentMode: 0
      - serializedVersion: 2
        time: 0.06666708
        value: {x: -0.556692, y: -0.5956252, z: -0.41197672, w: -0.40693954}
        inSlope: {x: 0, y: 0, z: 0, w: 0}
        outSlope: {x: 0, y: 0, z: 0, w: 0}
        tangentMode: 0
      - serializedVersion: 2
        time: 0.10000038
        value: {x: -0.556692, y: -0.5956252, z: -0.41197672, w: -0.40693954}
        inSlope: {x: -2.413472, y: 8.518111, z: 6.189459, w: -4.3345966}
        outSlope: {x: -2.413472, y: 8.518111, z: 6.189459, w: -4.3345966}
        tangentMode: 0
      - serializedVersion: 2
        time: 0.13333368
        value: {x: -0.71759, y: -0.027751692, z: 0.00065347226, w: -0.69591236}
        inSlope: {x: -2.413472, y: 8.518111, z: 6.189459, w: -4.3345966}
        outSlope: {x: -2.413472, y: 8.518111, z: 6.189459, w: -4.3345966}
        tangentMode: 0
      - serializedVersion: 2
        time: 0.16666698
        value: {x: -0.71759, y: -0.027751692, z: 0.00065347226, w: -0.69591236}
        inSlope: {x: 0, y: 0, z: 0, w: 0}
        outSlope: {x: 0, y: 0, z: 0, w: 0}
        tangentMode: 0
      - serializedVersion: 2
        time: 0.3666668
        value: {x: -0.71759, y: -0.027751692, z: 0.00065347226, w: -0.69591236}
        inSlope: {x: 0, y: 0, z: 0, w: 0}
        outSlope: {x: 0, y: 0, z: 0, w: 0}
        tangentMode: 0
      - serializedVersion: 2
        time: 0.4000001
        value: {x: -0.71759, y: -0.027751692, z: 0.00065347226, w: -0.69591236}
        inSlope: {x: -0.38826156, y: -0.000070909955, z: -0.015800096, w: 0.41586024}
        outSlope: {x: -0.38826156, y: -0.000070909955, z: -0.015800096, w: 0.41586024}
        tangentMode: 0
      - serializedVersion: 2
        time: 0.43333387
        value: {x: -0.7434744, y: -0.027756419, z: -0.00039988157, w: -0.668188}
        inSlope: {x: -1.9037532, y: 0.0067603756, z: -0.085160024, w: 2.4163153}
        outSlope: {x: -1.9037532, y: 0.0067603756, z: -0.085160024, w: 2.4163153}
        tangentMode: 0
      - serializedVersion: 2
        time: 0.46666718
        value: {x: -0.8445071, y: -0.027301, z: -0.0050238725, w: -0.53482443}
        inSlope: {x: -1.5154916, y: 0.0068312855, z: -0.06935993, w: 2.0004551}
        outSlope: {x: -1.5154916, y: 0.0068312855, z: -0.06935993, w: 2.0004551}
        tangentMode: 0
      m_PreInfinity: 2
      m_PostInfinity: 2
      m_RotationOrder: 4
    path: Tool_HandPinch02
  m_CompressedRotationCurves: []
  m_EulerCurves: []
  m_PositionCurves:
  - curve:
      serializedVersion: 2
      m_Curve:
      - serializedVersion: 2
        time: 0
        value: {x: -0.44149673, y: 0.2955995, z: 0.23541176}
        inSlope: {x: 0, y: 0, z: 0}
        outSlope: {x: 0, y: 0, z: 0}
        tangentMode: 0
      - serializedVersion: 2
        time: 0.099999905
        value: {x: -0.44149673, y: 0.2955995, z: 0.23541176}
        inSlope: {x: -1.4869074e-15, y: 2.9738147e-15, z: 1.4869074e-15}
        outSlope: {x: 0.00022257787, y: 0.00008971485, z: -0.000060129096}
        tangentMode: 0
      - serializedVersion: 2
        time: 0.1333332
        value: {x: -0.06393325, y: 0.44457105, z: 0.10540688}
        inSlope: {x: -0.00016698142, y: -0.00006355438, z: -1.7108364}
        outSlope: {x: -4.336813e-16, y: 0.00001144524, z: -1.7108343}
        tangentMode: 0
      - serializedVersion: 2
        time: 0.16666651
        value: {x: -0.06393325, y: 0.4366975, z: 0.08639687}
        inSlope: {x: -1.8586342e-16, y: -0.23622753, z: -0.24465123}
        outSlope: {x: -4.336813e-16, y: -0.2362073, z: -0.24466571}
        tangentMode: 0
      - serializedVersion: 2
        time: 0.19999981
        value: {x: -0.06393325, y: 0.42882398, z: 0.083678365}
        inSlope: {x: -1.8586342e-16, y: 0.0000018659133, z: 0.0000009439369}
        outSlope: {x: -4.336751e-16, y: 1.3877603e-14, z: 0.0000027758215}
        tangentMode: 0
      - serializedVersion: 2
        time: 0.23333359
        value: {x: -0.06393325, y: 0.42882398, z: 0.11987221}
        inSlope: {x: -1.8586076e-16, y: 5.9475443e-15, z: 1.085804}
        outSlope: {x: -4.336813e-16, y: 1.3877801e-14, z: 1.0858104}
        tangentMode: 0
      - serializedVersion: 2
        time: 0.2666669
        value: {x: -0.06393325, y: 0.42882398, z: 0.15606606}
        inSlope: {x: -1.8586342e-16, y: 5.9476295e-15, z: 0.0000065011545}
        outSlope: {x: 0.000047811798, y: -0.00010556338, z: 0.0000011545944}
        tangentMode: 0
      - serializedVersion: 2
        time: 0.3000002
        value: {x: -0.02352798, y: 0.33802274, z: 0.15417397}
        inSlope: {x: 1.2120456, y: -2.7457578, z: -0.17028096}
        outSlope: {x: 1.2121356, y: -2.7459564, z: -0.17028818}
        tangentMode: 0
      - serializedVersion: 2
        time: 0.3333335
        value: {x: 0.016877294, y: 0.24575666, z: 0.14373696}
        inSlope: {x: 0.000013020219, y: -0.000027515942, z: -0.6342171}
        outSlope: {x: 2.1684065e-16, y: -0.0000006189715, z: -0.6342564}
        tangentMode: 0
      - serializedVersion: 2
        time: 0.3666668
        value: {x: 0.016877294, y: 0.24612287, z: 0.11189346}
        inSlope: {x: 9.293171e-17, y: 0.010985805, z: -0.7964568}
        outSlope: {x: 2.1684065e-16, y: 0.010985805, z: -0.79648674}
        tangentMode: 0
      - serializedVersion: 2
        time: 0.4000001
        value: {x: 0.016877294, y: 0.24648908, z: 0.09063637}
        inSlope: {x: 9.293171e-17, y: -0.0000006189715, z: -0.000008296938}
        outSlope: {x: 2.1684065e-16, y: -0.000009607827, z: -0.0000036083748}
        tangentMode: 0
      - serializedVersion: 2
        time: 0.4333334
        value: {x: 0.016877294, y: 0.23989728, z: 0.09466469}
        inSlope: {x: 9.293171e-17, y: 0.000009550826, z: 0.3625377}
        outSlope: {x: -0.00018039292, y: -0.000121622594, z: 0.36241508}
        tangentMode: 0
      - serializedVersion: 2
        time: 0.4666667
        value: {x: 0.17825425, y: 0.34847882, z: 0.21014321}
        inSlope: {x: 0.000208102, y: 0.0001380836, z: 0.00013982426}
        outSlope: {x: 1.7347252e-15, y: 6.9389007e-15, z: 3.4694503e-15}
        tangentMode: 0
      m_PreInfinity: 2
      m_PostInfinity: 2
      m_RotationOrder: 4
    path: Tool_HandPinch02
  m_ScaleCurves:
  - curve:
      serializedVersion: 2
      m_Curve:
      - serializedVersion: 2
        time: 0
        value: {x: 1, y: 1, z: 1}
        inSlope: {x: 0, y: 0, z: 0}
        outSlope: {x: 0, y: 0, z: 0}
        tangentMode: 0
      - serializedVersion: 2
        time: 0.4666667
        value: {x: 1, y: 1, z: 1}
        inSlope: {x: 0, y: 0, z: 0}
        outSlope: {x: 0, y: 0, z: 0}
        tangentMode: 0
      m_PreInfinity: 2
      m_PostInfinity: 2
      m_RotationOrder: 4
    path: Tool_HandPinch02
  m_FloatCurves: []
  m_PPtrCurves: []
  m_SampleRate: 30
  m_WrapMode: 0
  m_Bounds:
    m_Center: {x: 0, y: 0, z: 0}
    m_Extent: {x: 0, y: 0, z: 0}
  m_ClipBindingConstant:
    genericBindings:
    - serializedVersion: 2
      path: 651062355
      attribute: 1
      script: {fileID: 0}
      typeID: 4
      customType: 0
      isPPtrCurve: 0
    - serializedVersion: 2
      path: 651062355
      attribute: 2
      script: {fileID: 0}
      typeID: 4
      customType: 0
      isPPtrCurve: 0
    - serializedVersion: 2
      path: 651062355
      attribute: 3
      script: {fileID: 0}
      typeID: 4
      customType: 0
      isPPtrCurve: 0
    pptrCurveMapping: []
  m_AnimationClipSettings:
    serializedVersion: 2
    m_AdditiveReferencePoseClip: {fileID: 0}
    m_AdditiveReferencePoseTime: 0
    m_StartTime: 0
    m_StopTime: 0.46666718
    m_OrientationOffsetY: 0
    m_Level: 0
    m_CycleOffset: 0
    m_HasAdditiveReferencePose: 0
    m_LoopTime: 0
    m_LoopBlend: 0
    m_LoopBlendOrientation: 0
    m_LoopBlendPositionY: 0
    m_LoopBlendPositionXZ: 0
    m_KeepOriginalOrientation: 0
    m_KeepOriginalPositionY: 0
    m_KeepOriginalPositionXZ: 0
    m_HeightFromFeet: 0
    m_Mirror: 0
  m_EditorCurves: []
  m_EulerEditorCurves: []
  m_HasGenericRootTransform: 0
  m_HasMotionFloatCurves: 0
  m_GenerateMotionCurves: 0
  m_Events:
  - time: 0
    functionName: OnClipStart
    data: 
    objectReferenceParameter: {fileID: 0}
    floatParameter: 0
    intParameter: 10500295
    messageOptions: 0
  - time: 0.46666718
    functionName: OnClipEnd
    data: 
    objectReferenceParameter: {fileID: 0}
    floatParameter: 0
    intParameter: 10500295
    messageOptions: 0
