%YAML 1.1
%TAG !u! tag:unity3d.com,2011:
--- !u!74 &7400000
AnimationClip:
  m_ObjectHideFlags: 0
  m_PrefabParentObject: {fileID: 0}
  m_PrefabInternal: {fileID: 0}
  m_Name: Anim_10500169
  serializedVersion: 6
  m_Legacy: 0
  m_Compressed: 0
  m_UseHighQualityCurve: 1
  m_RotationCurves:
  - curve:
      serializedVersion: 2
      m_Curve:
      - serializedVersion: 2
        time: 0
        value: {x: 0, y: 0, z: -0, w: 1}
        inSlope: {x: 0, y: -0, z: 0, w: 0}
        outSlope: {x: 0, y: -0, z: 0, w: 0}
        tangentMode: 0
      - serializedVersion: 2
        time: 0.06666668
        value: {x: 0, y: -0, z: -0, w: 1}
        inSlope: {x: 1.733739e-12, y: 1.7759213e-25, z: 1.5364954e-12, w: 0}
        outSlope: {x: 1.733739e-12, y: 1.7759213e-25, z: 1.5364954e-12, w: 0}
        tangentMode: 0
      - serializedVersion: 2
        time: 0.10000001
        value: {x: 1.1558259e-13, y: 1.1839474e-26, z: 1.0243302e-13, w: 1}
        inSlope: {x: 8.216808, y: 8.216808, z: 6.707017, w: -8.292984}
        outSlope: {x: 8.216808, y: 8.216808, z: 6.707017, w: -8.292984}
        tangentMode: 0
      - serializedVersion: 2
        time: 0.13333334
        value: {x: 0.5477872, y: 0.5477872, z: 0.44713444, w: 0.44713444}
        inSlope: {x: 8.216808, y: 8.216808, z: 6.707017, w: -8.292984}
        outSlope: {x: 8.216808, y: 8.216808, z: 6.707017, w: -8.292984}
        tangentMode: 0
      - serializedVersion: 2
        time: 0.16666669
        value: {x: 0.5477872, y: 0.5477872, z: 0.44713444, w: 0.44713444}
        inSlope: {x: 0, y: 0, z: 0, w: 0}
        outSlope: {x: 0, y: 0, z: 0, w: 0}
        tangentMode: 0
      - serializedVersion: 2
        time: 0.46666667
        value: {x: 0.5477872, y: 0.5477872, z: 0.44713444, w: 0.44713444}
        inSlope: {x: 0, y: 0, z: 0, w: 0}
        outSlope: {x: 0, y: 0, z: 0, w: 0}
        tangentMode: 0
      m_PreInfinity: 2
      m_PostInfinity: 2
      m_RotationOrder: 4
    path: Tool_HandPinch02
  m_CompressedRotationCurves: []
  m_EulerCurves: []
  m_PositionCurves:
  - curve:
      serializedVersion: 2
      m_Curve:
      - serializedVersion: 2
        time: 0
        value: {x: -0.6612892, y: -0.2029419, z: 0}
        inSlope: {x: 0, y: 0, z: 0}
        outSlope: {x: 0, y: 0, z: 0}
        tangentMode: 0
      - serializedVersion: 2
        time: 0.10000001
        value: {x: -0.6612892, y: -0.2029419, z: 0}
        inSlope: {x: -0, y: -2.2303587e-15, z: -0}
        outSlope: {x: 0.000058458732, y: 0.000025426105, z: 0.000015037954}
        tangentMode: 0
      - serializedVersion: 2
        time: 0.13333334
        value: {x: -0.20879462, y: 0.022070676, z: 0.13967873}
        inSlope: {x: 1.5698277, y: 0.00001132322, z: 0.000005724728}
        outSlope: {x: 1.569806, y: 2.1684045e-16, z: -0.0000020725802}
        tangentMode: 0
      - serializedVersion: 2
        time: 0.16666667
        value: {x: -0.19135235, y: 0.022070676, z: 0.13187844}
        inSlope: {x: 0.24682975, y: 9.2931624e-17, z: -0.23401205}
        outSlope: {x: 0.24683197, y: 2.1684045e-16, z: -0.23401067}
        tangentMode: 0
      - serializedVersion: 2
        time: 0.2
        value: {x: -0.18860981, y: 0.022070676, z: 0.12407813}
        inSlope: {x: 0.026071258, y: 9.2931624e-17, z: 0.00000036482433}
        outSlope: {x: 0.026069527, y: 2.1684036e-16, z: 0.000000009323802}
        tangentMode: 0
      - serializedVersion: 2
        time: 0.26666668
        value: {x: -0.18933293, y: 0.022070676, z: 0.13911279}
        inSlope: {x: -0.09115064, y: 9.2931624e-17, z: 0.18144932}
        outSlope: {x: -0.09114555, y: 2.1684045e-16, z: 0.18145667}
        tangentMode: 0
      - serializedVersion: 2
        time: 0.3
        value: {x: -0.24289028, y: 0.022070676, z: 0.14164227}
        inSlope: {x: -1.5957733, y: 9.2931624e-17, z: 0.050424375}
        outSlope: {x: -1.5957836, y: 2.1684045e-16, z: 0.05042604}
        tangentMode: 0
      - serializedVersion: 2
        time: 0.33333334
        value: {x: -0.29571867, y: 0.022070676, z: 0.14247441}
        inSlope: {x: 0.000009538418, y: 9.2931624e-17, z: 0.00000050793585}
        outSlope: {x: 0.0000005530817, y: 2.1684045e-16, z: 0.000001378714}
        tangentMode: 0
      - serializedVersion: 2
        time: 0.36666667
        value: {x: -0.2956314, y: 0.022070676, z: 0.12939003}
        inSlope: {x: 0.0026189, y: 9.2931624e-17, z: -0.37893942}
        outSlope: {x: 0.0026128544, y: 2.1684045e-16, z: -0.37894195}
        tangentMode: 0
      - serializedVersion: 2
        time: 0.4
        value: {x: -0.2955442, y: 0.022070676, z: 0.11721171}
        inSlope: {x: -0.0000054925326, y: 9.2931624e-17, z: 0.0000009906807}
        outSlope: {x: 0.000014506426, y: -0.0000024847943, z: -0.0000037446187}
        tangentMode: 0
      - serializedVersion: 2
        time: 0.43333334
        value: {x: -0.38819557, y: 0.04874304, z: 0.1620115}
        inSlope: {x: -2.7795248, y: 0.80016726, z: 1.3439884}
        outSlope: {x: -2.7795322, y: 0.8001676, z: 1.3439887}
        tangentMode: 0
      - serializedVersion: 2
        time: 0.46666667
        value: {x: -0.48084694, y: 0.0754154, z: 0.20681131}
        inSlope: {x: 0.00001131332, y: -0.00000348264, z: -0.0000024567325}
        outSlope: {x: -0, y: 1.7347221e-15, z: -0}
        tangentMode: 0
      m_PreInfinity: 2
      m_PostInfinity: 2
      m_RotationOrder: 4
    path: Tool_HandPinch02
  m_ScaleCurves:
  - curve:
      serializedVersion: 2
      m_Curve:
      - serializedVersion: 2
        time: 0
        value: {x: 1, y: 1, z: 1}
        inSlope: {x: 0, y: 0, z: 0}
        outSlope: {x: 0, y: 0, z: 0}
        tangentMode: 0
      - serializedVersion: 2
        time: 0.46666667
        value: {x: 1, y: 1, z: 1}
        inSlope: {x: 0, y: 0, z: 0}
        outSlope: {x: 0, y: 0, z: 0}
        tangentMode: 0
      m_PreInfinity: 2
      m_PostInfinity: 2
      m_RotationOrder: 4
    path: Tool_HandPinch02
  m_FloatCurves: []
  m_PPtrCurves: []
  m_SampleRate: 30
  m_WrapMode: 0
  m_Bounds:
    m_Center: {x: 0, y: 0, z: 0}
    m_Extent: {x: 0, y: 0, z: 0}
  m_ClipBindingConstant:
    genericBindings:
    - serializedVersion: 2
      path: 651062355
      attribute: 1
      script: {fileID: 0}
      typeID: 4
      customType: 0
      isPPtrCurve: 0
    - serializedVersion: 2
      path: 651062355
      attribute: 2
      script: {fileID: 0}
      typeID: 4
      customType: 0
      isPPtrCurve: 0
    - serializedVersion: 2
      path: 651062355
      attribute: 3
      script: {fileID: 0}
      typeID: 4
      customType: 0
      isPPtrCurve: 0
    pptrCurveMapping: []
  m_AnimationClipSettings:
    serializedVersion: 2
    m_AdditiveReferencePoseClip: {fileID: 0}
    m_AdditiveReferencePoseTime: 0
    m_StartTime: 0
    m_StopTime: 0.46666667
    m_OrientationOffsetY: 0
    m_Level: 0
    m_CycleOffset: 0
    m_HasAdditiveReferencePose: 0
    m_LoopTime: 0
    m_LoopBlend: 0
    m_LoopBlendOrientation: 0
    m_LoopBlendPositionY: 0
    m_LoopBlendPositionXZ: 0
    m_KeepOriginalOrientation: 0
    m_KeepOriginalPositionY: 0
    m_KeepOriginalPositionXZ: 0
    m_HeightFromFeet: 0
    m_Mirror: 0
  m_EditorCurves: []
  m_EulerEditorCurves: []
  m_HasGenericRootTransform: 0
  m_HasMotionFloatCurves: 0
  m_GenerateMotionCurves: 0
  m_Events:
  - time: 0
    functionName: OnClipStart
    data: 
    objectReferenceParameter: {fileID: 0}
    floatParameter: 0
    intParameter: 10500169
    messageOptions: 0
  - time: 0.46666667
    functionName: OnClipEnd
    data: 
    objectReferenceParameter: {fileID: 0}
    floatParameter: 0
    intParameter: 10500169
    messageOptions: 0
