%YAML 1.1
%TAG !u! tag:unity3d.com,2011:
--- !u!74 &7400000
AnimationClip:
  m_ObjectHideFlags: 0
  m_PrefabParentObject: {fileID: 0}
  m_PrefabInternal: {fileID: 0}
  m_Name: Anim_10500044
  serializedVersion: 6
  m_Legacy: 0
  m_Compressed: 0
  m_UseHighQualityCurve: 1
  m_RotationCurves:
  - curve:
      serializedVersion: 2
      m_Curve:
      - serializedVersion: 2
        time: 0
        value: {x: -0.00000023953365, y: -0.7997385, z: 0.00000013333208, w: -0.6003485}
        inSlope: {x: 0, y: 0, z: 0, w: 0}
        outSlope: {x: 0, y: 0, z: 0, w: 0}
        tangentMode: 0
      - serializedVersion: 2
        time: 0.06666684
        value: {x: -0.00000023953365, y: -0.7997385, z: 0.00000013333208, w: -0.6003485}
        inSlope: {x: 0, y: 0, z: 0, w: 0}
        outSlope: {x: 0, y: 0, z: 0, w: 0}
        tangentMode: 0
      - serializedVersion: 2
        time: 0.10000014
        value: {x: -0.00000023953365, y: -0.7997385, z: 0.00000013333208, w: -0.6003485}
        inSlope: {x: -6.156144, y: 5.839946, z: 8.637253, w: 0.3679887}
        outSlope: {x: -6.156144, y: 5.839946, z: 8.637253, w: 0.3679887}
        tangentMode: 0
      - serializedVersion: 2
        time: 0.13333344
        value: {x: -0.41040945, y: -0.41040918, z: 0.57581645, w: -0.5758159}
        inSlope: {x: -6.156144, y: 5.839946, z: 8.637253, w: 0.3679887}
        outSlope: {x: -6.156144, y: 5.839946, z: 8.637253, w: 0.3679887}
        tangentMode: 0
      - serializedVersion: 2
        time: 0.16666698
        value: {x: -0.41040945, y: -0.41040918, z: 0.57581645, w: -0.5758159}
        inSlope: {x: 0, y: 0, z: 0, w: 0}
        outSlope: {x: 0, y: 0, z: 0, w: 0}
        tangentMode: 0
      - serializedVersion: 2
        time: 0.20000029
        value: {x: -0.41040945, y: -0.41040918, z: 0.57581645, w: -0.5758159}
        inSlope: {x: 0.18965247, y: 0.18965247, z: 0.13208014, w: -0.13208103}
        outSlope: {x: 0.18965247, y: 0.18965247, z: 0.13208014, w: -0.13208103}
        tangentMode: 0
      - serializedVersion: 2
        time: 0.2666669
        value: {x: -0.38205883, y: -0.3820586, z: 0.59500545, w: -0.5950049}
        inSlope: {x: 0.23560725, y: 0.2356068, z: 0.15575513, w: -0.15575424}
        outSlope: {x: 0.23560725, y: 0.2356068, z: 0.15575513, w: -0.15575424}
        tangentMode: 0
      - serializedVersion: 2
        time: 0.3333335
        value: {x: -0.38205883, y: -0.3820586, z: 0.59500545, w: -0.5950049}
        inSlope: {x: 0, y: 0, z: 0, w: 0}
        outSlope: {x: 0, y: 0, z: 0, w: 0}
        tangentMode: 0
      - serializedVersion: 2
        time: 0.4666667
        value: {x: -0.38205883, y: -0.3820586, z: 0.59500545, w: -0.5950049}
        inSlope: {x: 0, y: 0, z: 0, w: 0}
        outSlope: {x: 0, y: 0, z: 0, w: 0}
        tangentMode: 0
      m_PreInfinity: 2
      m_PostInfinity: 2
      m_RotationOrder: 4
    path: Tool_PlasticSpudger02
  m_CompressedRotationCurves: []
  m_EulerCurves: []
  m_PositionCurves:
  - curve:
      serializedVersion: 2
      m_Curve:
      - serializedVersion: 2
        time: 0
        value: {x: -0.041565, y: 0.31909356, z: 0.22317505}
        inSlope: {x: 0, y: 0, z: 0}
        outSlope: {x: 0, y: 0, z: 0}
        tangentMode: 0
      - serializedVersion: 2
        time: 0.10000014
        value: {x: -0.041565, y: 0.31909356, z: 0.22317505}
        inSlope: {x: -0, y: -0, z: 1.4868968e-15}
        outSlope: {x: -0.000048336977, y: -0.000085671796, z: -0.000115663344}
        tangentMode: 0
      - serializedVersion: 2
        time: 0.13333344
        value: {x: -0.12118536, y: 0.1743792, z: 0.02444458}
        inSlope: {x: 0.0000330873, y: 0.00006121122, z: 0.000087631255}
        outSlope: {x: -0, y: 0.0000023571708, z: 0.0000014516432}
        tangentMode: 0
      - serializedVersion: 2
        time: 0.16666675
        value: {x: -0.12118536, y: 0.17566094, z: 0.030670166}
        inSlope: {x: -0, y: 0.038453776, z: 0.18676533}
        outSlope: {x: -0, y: 0.03845218, z: 0.18676932}
        tangentMode: 0
      - serializedVersion: 2
        time: 0.20000005
        value: {x: -0.12118536, y: 0.17694268, z: 0.036895752}
        inSlope: {x: -0, y: -0.000001368123, z: 0.00000012118123}
        outSlope: {x: -0, y: 0.0000018896206, z: -0.000000613816}
        tangentMode: 0
      - serializedVersion: 2
        time: 0.23333335
        value: {x: -0.12118536, y: 0.17346367, z: 0.035186768}
        inSlope: {x: -0, y: -0.07827611, z: -0.010986505}
        outSlope: {x: -0, y: -0.07827653, z: -0.010985774}
        tangentMode: 0
      - serializedVersion: 2
        time: 0.26666665
        value: {x: -0.12118536, y: 0.17172417, z: 0.035064697}
        inSlope: {x: -0, y: -0.05859633, z: -0.010985774}
        outSlope: {x: -0, y: -0.05859552, z: -0.010981848}
        tangentMode: 0
      - serializedVersion: 2
        time: 0.29999995
        value: {x: -0.12118536, y: 0.16955742, z: 0.017974854}
        inSlope: {x: -0, y: -0.0000019698505, z: -0.000007399152}
        outSlope: {x: -0, y: -0.0000012445709, z: 3.2526097e-16}
        tangentMode: 0
      - serializedVersion: 2
        time: 0.33333325
        value: {x: -0.12118536, y: 0.18603691, z: 0.017974854}
        inSlope: {x: -0, y: 0.4911947, z: 1.3939756e-16}
        outSlope: {x: -0, y: 0.49115488, z: -0.0000012914797}
        tangentMode: 0
      - serializedVersion: 2
        time: 0.3666668
        value: {x: -0.12118536, y: 0.20230278, z: 0.019317627}
        inSlope: {x: -0, y: 0.100229606, z: 0.120846905}
        outSlope: {x: 0.00000035320656, y: 0.100250676, z: 0.12086135}
        tangentMode: 0
      - serializedVersion: 2
        time: 0.4000001
        value: {x: -0.12155157, y: 0.20341668, z: 0.040924072}
        inSlope: {x: 0.0000014175762, y: 0.100250676, z: -0.0000068657296}
        outSlope: {x: 0.000013497922, y: 0.10026065, z: -0.0000037494005}
        tangentMode: 0
      - serializedVersion: 2
        time: 0.4333334
        value: {x: -0.05050665, y: 0.25790176, z: 0.020721436}
        inSlope: {x: 2.1313307, y: 1.6094857, z: -0.6060742}
        outSlope: {x: 2.1313634, y: 1.6095088, z: -0.60608345}
        tangentMode: 0
      - serializedVersion: 2
        time: 0.4666667
        value: {x: 0.02053827, y: 0.31071648, z: 0.0005187988}
        inSlope: {x: 0.000001823118, y: 0.0000030854799, z: -0.0000004897687}
        outSlope: {x: 6.5052194e-16, y: 6.9389007e-15, z: 3.388135e-18}
        tangentMode: 0
      m_PreInfinity: 2
      m_PostInfinity: 2
      m_RotationOrder: 4
    path: Tool_PlasticSpudger02
  m_ScaleCurves:
  - curve:
      serializedVersion: 2
      m_Curve:
      - serializedVersion: 2
        time: 0
        value: {x: 1, y: 1, z: 1}
        inSlope: {x: 0, y: 0, z: 0}
        outSlope: {x: 0, y: 0, z: 0}
        tangentMode: 0
      - serializedVersion: 2
        time: 0.4666667
        value: {x: 1, y: 1, z: 1}
        inSlope: {x: 0, y: 0, z: 0}
        outSlope: {x: 0, y: 0, z: 0}
        tangentMode: 0
      m_PreInfinity: 2
      m_PostInfinity: 2
      m_RotationOrder: 4
    path: Tool_PlasticSpudger02
  m_FloatCurves: []
  m_PPtrCurves: []
  m_SampleRate: 30
  m_WrapMode: 0
  m_Bounds:
    m_Center: {x: 0, y: 0, z: 0}
    m_Extent: {x: 0, y: 0, z: 0}
  m_ClipBindingConstant:
    genericBindings:
    - serializedVersion: 2
      path: 2719527444
      attribute: 1
      script: {fileID: 0}
      typeID: 4
      customType: 0
      isPPtrCurve: 0
    - serializedVersion: 2
      path: 2719527444
      attribute: 2
      script: {fileID: 0}
      typeID: 4
      customType: 0
      isPPtrCurve: 0
    - serializedVersion: 2
      path: 2719527444
      attribute: 3
      script: {fileID: 0}
      typeID: 4
      customType: 0
      isPPtrCurve: 0
    pptrCurveMapping: []
  m_AnimationClipSettings:
    serializedVersion: 2
    m_AdditiveReferencePoseClip: {fileID: 0}
    m_AdditiveReferencePoseTime: 0
    m_StartTime: 0
    m_StopTime: 0.4666667
    m_OrientationOffsetY: 0
    m_Level: 0
    m_CycleOffset: 0
    m_HasAdditiveReferencePose: 0
    m_LoopTime: 0
    m_LoopBlend: 0
    m_LoopBlendOrientation: 0
    m_LoopBlendPositionY: 0
    m_LoopBlendPositionXZ: 0
    m_KeepOriginalOrientation: 0
    m_KeepOriginalPositionY: 0
    m_KeepOriginalPositionXZ: 0
    m_HeightFromFeet: 0
    m_Mirror: 0
  m_EditorCurves: []
  m_EulerEditorCurves: []
  m_HasGenericRootTransform: 0
  m_HasMotionFloatCurves: 0
  m_GenerateMotionCurves: 0
  m_Events:
  - time: 0
    functionName: OnClipStart
    data: 
    objectReferenceParameter: {fileID: 0}
    floatParameter: 0
    intParameter: 10500044
    messageOptions: 0
  - time: 0.4666667
    functionName: OnClipEnd
    data: 
    objectReferenceParameter: {fileID: 0}
    floatParameter: 0
    intParameter: 10500044
    messageOptions: 0
