%YAML 1.1
%TAG !u! tag:unity3d.com,2011:
--- !u!74 &7400000
AnimationClip:
  m_ObjectHideFlags: 0
  m_PrefabParentObject: {fileID: 0}
  m_PrefabInternal: {fileID: 0}
  m_Name: Anim_10500017
  serializedVersion: 6
  m_Legacy: 0
  m_Compressed: 0
  m_UseHighQualityCurve: 1
  m_RotationCurves:
  - curve:
      serializedVersion: 2
      m_Curve:
      - serializedVersion: 2
        time: 0
        value: {x: 0.5551884, y: 0.5551884, z: -0.43791077, w: 0.43791077}
        inSlope: {x: 0, y: 0, z: 0, w: 0}
        outSlope: {x: 0, y: 0, z: 0, w: 0}
        tangentMode: 0
      - serializedVersion: 2
        time: 0.06666666
        value: {x: 0.5551884, y: 0.5551884, z: -0.43791077, w: 0.43791077}
        inSlope: {x: 0, y: 0, z: 0, w: 0}
        outSlope: {x: 0, y: 0, z: 0, w: 0}
        tangentMode: 0
      - serializedVersion: 2
        time: 0.100000024
        value: {x: 0.5551884, y: 0.5551884, z: -0.43791077, w: 0.43791077}
        inSlope: {x: -8.327834, y: 3.449502, z: 6.568668, w: 2.7208323}
        outSlope: {x: -8.327834, y: 3.449502, z: 6.568668, w: 2.7208323}
        tangentMode: 0
      - serializedVersion: 2
        time: 0.13333333
        value: {x: 8.599803e-17, y: 0.785155, z: -8.599803e-17, w: 0.6192994}
        inSlope: {x: -8.327834, y: 3.449502, z: 6.568668, w: 2.7208323}
        outSlope: {x: -8.327834, y: 3.449502, z: 6.568668, w: 2.7208323}
        tangentMode: 0
      - serializedVersion: 2
        time: 0.16666669
        value: {x: 8.599803e-17, y: 0.785155, z: -8.599803e-17, w: 0.6192994}
        inSlope: {x: 0, y: 0, z: 0, w: 0}
        outSlope: {x: 0, y: 0, z: 0, w: 0}
        tangentMode: 0
      - serializedVersion: 2
        time: 0.19999999
        value: {x: 8.599803e-17, y: 0.785155, z: -8.599803e-17, w: 0.6192994}
        inSlope: {x: -2.7245023e-17, y: 1.0204965, z: 2.7245023e-17, w: -1.4654406}
        outSlope: {x: -2.7245023e-17, y: 1.0204965, z: 2.7245023e-17, w: -1.4654406}
        tangentMode: 0
      - serializedVersion: 2
        time: 0.23333335
        value: {x: 8.4181694e-17, y: 0.85318816, z: -8.4181694e-17, w: 0.5216033}
        inSlope: {x: -3.1945656e-17, y: 1.1361881, z: 3.1945656e-17, w: -1.6579006}
        outSlope: {x: -3.1945656e-17, y: 1.1361881, z: 3.1945656e-17, w: -1.6579006}
        tangentMode: 0
      - serializedVersion: 2
        time: 0.2666667
        value: {x: 8.386832e-17, y: 0.86090094, z: -8.386832e-17, w: 0.5087726}
        inSlope: {x: -2.968988e-17, y: 0.60614115, z: 2.968988e-17, w: -1.0910143}
        outSlope: {x: -2.968988e-17, y: 0.60614115, z: 2.968988e-17, w: -1.0910143}
        tangentMode: 0
      - serializedVersion: 2
        time: 0.3
        value: {x: 8.220237e-17, y: 0.89359754, z: -8.220237e-17, w: 0.44886905}
        inSlope: {x: -2.4989249e-17, y: 0.49044955, z: 2.4989249e-17, w: -0.89855427}
        outSlope: {x: -2.4989249e-17, y: 0.49044955, z: 2.4989249e-17, w: -0.89855427}
        tangentMode: 0
      - serializedVersion: 2
        time: 0.33333337
        value: {x: 8.220237e-17, y: 0.89359754, z: -8.220237e-17, w: 0.44886905}
        inSlope: {x: 0, y: 0, z: 0, w: 0}
        outSlope: {x: 0, y: 0, z: 0, w: 0}
        tangentMode: 0
      - serializedVersion: 2
        time: 0.36666667
        value: {x: 8.220237e-17, y: 0.89359754, z: -8.220237e-17, w: 0.44886905}
        inSlope: {x: 3.5183866e-17, y: -0.7552513, z: -3.5183866e-17, w: 1.3298479}
        outSlope: {x: 3.5183866e-17, y: -0.7552513, z: -3.5183866e-17, w: 1.3298479}
        tangentMode: 0
      - serializedVersion: 2
        time: 0.40000004
        value: {x: 8.4547963e-17, y: 0.8432474, z: -8.4547963e-17, w: 0.53752565}
        inSlope: {x: 5.7184445e-17, y: -1.6419859, z: -5.7184445e-17, w: 2.575879}
        outSlope: {x: 5.7184445e-17, y: -1.6419859, z: -5.7184445e-17, w: 2.575879}
        tangentMode: 0
      - serializedVersion: 2
        time: 0.43333334
        value: {x: 8.601467e-17, y: 0.7841318, z: -8.601467e-17, w: 0.6205943}
        inSlope: {x: 2.2000577e-17, y: -0.88673466, z: -2.2000577e-17, w: 1.2460312}
        outSlope: {x: 2.2000577e-17, y: -0.88673466, z: -2.2000577e-17, w: 1.2460312}
        tangentMode: 0
      - serializedVersion: 2
        time: 0.46666664
        value: {x: 8.601467e-17, y: 0.7841318, z: -8.601467e-17, w: 0.6205943}
        inSlope: {x: 0, y: 0, z: 0, w: 0}
        outSlope: {x: 0, y: 0, z: 0, w: 0}
        tangentMode: 0
      m_PreInfinity: 2
      m_PostInfinity: 2
      m_RotationOrder: 4
    path: Tool_PlasticSpudger02
  m_CompressedRotationCurves: []
  m_EulerCurves: []
  m_PositionCurves:
  - curve:
      serializedVersion: 2
      m_Curve:
      - serializedVersion: 2
        time: 0
        value: {x: 0.31437874, y: -0.14252663, z: 0.2180176}
        inSlope: {x: 0, y: 0, z: 0}
        outSlope: {x: 0, y: 0, z: 0}
        tangentMode: 0
      - serializedVersion: 2
        time: 0.099999964
        value: {x: 0.31437874, y: -0.14252663, z: 0.21801758}
        inSlope: {x: 1.4869074e-15, y: -1.1151805e-15, z: 2.230361e-15}
        outSlope: {x: 0.00008513263, y: -0.00005331972, z: 0.000035805093}
        tangentMode: 0
      - serializedVersion: 2
        time: 0.13333333
        value: {x: 0.00466156, y: 0.041851044, z: 0.08483887}
        inSlope: {x: -0.5982258, y: -0.000064794935, z: -1.48019}
        outSlope: {x: -0.59833586, y: -0, z: -1.4802411}
        tangentMode: 0
      - serializedVersion: 2
        time: 0.16666663
        value: {x: -0.0019866023, y: 0.041851044, z: 0.068391785}
        inSlope: {x: -0.085564725, y: -0, z: -0.30395722}
        outSlope: {x: -0.08556397, y: -0, z: -0.3039529}
        tangentMode: 0
      - serializedVersion: 2
        time: 0.19999999
        value: {x: -0.002937317, y: 0.041851044, z: 0.064575195}
        inSlope: {x: 0.00000015289197, y: -0, z: -0.08288161}
        outSlope: {x: 0.0000009903416, y: -0, z: -0.082883745}
        tangentMode: 0
      - serializedVersion: 2
        time: 0.23333329
        value: {x: 0.010837555, y: 0.041851044, z: 0.06286621}
        inSlope: {x: 0.19500855, y: -0, z: -0.00000021682004}
        outSlope: {x: 0.19500686, y: -0, z: 0.00000133521}
        tangentMode: 0
      - serializedVersion: 2
        time: 0.26666665
        value: {x: 0.013004303, y: 0.041851044, z: 0.063964844}
        inSlope: {x: 0.14694187, y: -0, z: 0.00000133521}
        outSlope: {x: 0.14694265, y: -0, z: 0.0000005839274}
        tangentMode: 0
      - serializedVersion: 2
        time: 0.29999995
        value: {x: 0.020633698, y: 0.041851044, z: 0.06225586}
        inSlope: {x: 0.00000082825227, y: -0, z: 0.0000005839274}
        outSlope: {x: 6.505208e-16, y: -0, z: 8.6736105e-16}
        tangentMode: 0
      - serializedVersion: 2
        time: 0.36666662
        value: {x: 0.020633698, y: 0.041851044, z: 0.06225586}
        inSlope: {x: 2.7879512e-16, y: -0, z: 3.7172684e-16}
        outSlope: {x: -0.000016045762, y: -0.000015294634, z: -0.000011569091}
        tangentMode: 0
      - serializedVersion: 2
        time: 0.39999998
        value: {x: 0.07608414, y: 0.09534836, z: 0.10021973}
        inSlope: {x: 1.6634989, y: 1.604906, z: 1.1389055}
        outSlope: {x: 1.6635143, y: 1.6049193, z: 1.1389169}
        tangentMode: 0
      - serializedVersion: 2
        time: 0.43333328
        value: {x: 0.13153458, y: 0.14884567, z: 0.1381836}
        inSlope: {x: 0.000005574219, y: 0.0000021343924, z: 0.000003065972}
        outSlope: {x: 8.6736105e-16, y: 1.7347221e-15, z: 3.4694442e-15}
        tangentMode: 0
      - serializedVersion: 2
        time: 0.46666664
        value: {x: 0.13153458, y: 0.14884567, z: 0.1381836}
        inSlope: {x: 0, y: 0, z: 0}
        outSlope: {x: 0, y: 0, z: 0}
        tangentMode: 0
      m_PreInfinity: 2
      m_PostInfinity: 2
      m_RotationOrder: 4
    path: Tool_PlasticSpudger02
  m_ScaleCurves:
  - curve:
      serializedVersion: 2
      m_Curve:
      - serializedVersion: 2
        time: 0
        value: {x: 1, y: 1, z: 1}
        inSlope: {x: 0, y: 0, z: 0}
        outSlope: {x: 0, y: 0, z: 0}
        tangentMode: 0
      - serializedVersion: 2
        time: 0.46666664
        value: {x: 1, y: 1, z: 1}
        inSlope: {x: 0, y: 0, z: 0}
        outSlope: {x: 0, y: 0, z: 0}
        tangentMode: 0
      m_PreInfinity: 2
      m_PostInfinity: 2
      m_RotationOrder: 4
    path: Tool_PlasticSpudger02
  m_FloatCurves: []
  m_PPtrCurves: []
  m_SampleRate: 30
  m_WrapMode: 0
  m_Bounds:
    m_Center: {x: 0, y: 0, z: 0}
    m_Extent: {x: 0, y: 0, z: 0}
  m_ClipBindingConstant:
    genericBindings:
    - serializedVersion: 2
      path: 2719527444
      attribute: 1
      script: {fileID: 0}
      typeID: 4
      customType: 0
      isPPtrCurve: 0
    - serializedVersion: 2
      path: 2719527444
      attribute: 2
      script: {fileID: 0}
      typeID: 4
      customType: 0
      isPPtrCurve: 0
    - serializedVersion: 2
      path: 2719527444
      attribute: 3
      script: {fileID: 0}
      typeID: 4
      customType: 0
      isPPtrCurve: 0
    pptrCurveMapping: []
  m_AnimationClipSettings:
    serializedVersion: 2
    m_AdditiveReferencePoseClip: {fileID: 0}
    m_AdditiveReferencePoseTime: 0
    m_StartTime: 0
    m_StopTime: 0.46666664
    m_OrientationOffsetY: 0
    m_Level: 0
    m_CycleOffset: 0
    m_HasAdditiveReferencePose: 0
    m_LoopTime: 0
    m_LoopBlend: 0
    m_LoopBlendOrientation: 0
    m_LoopBlendPositionY: 0
    m_LoopBlendPositionXZ: 0
    m_KeepOriginalOrientation: 0
    m_KeepOriginalPositionY: 0
    m_KeepOriginalPositionXZ: 0
    m_HeightFromFeet: 0
    m_Mirror: 0
  m_EditorCurves: []
  m_EulerEditorCurves: []
  m_HasGenericRootTransform: 0
  m_HasMotionFloatCurves: 0
  m_GenerateMotionCurves: 0
  m_Events:
  - time: 0
    functionName: OnClipStart
    data: 
    objectReferenceParameter: {fileID: 0}
    floatParameter: 0
    intParameter: 10500017
    messageOptions: 0
  - time: 0.46666664
    functionName: OnClipEnd
    data: 
    objectReferenceParameter: {fileID: 0}
    floatParameter: 0
    intParameter: 10500017
    messageOptions: 0
