%YAML 1.1
%TAG !u! tag:unity3d.com,2011:
--- !u!74 &7400000
AnimationClip:
  m_ObjectHideFlags: 0
  m_PrefabParentObject: {fileID: 0}
  m_PrefabInternal: {fileID: 0}
  m_Name: Anim_10500350
  serializedVersion: 6
  m_Legacy: 0
  m_Compressed: 0
  m_UseHighQualityCurve: 1
  m_RotationCurves:
  - curve:
      serializedVersion: 2
      m_Curve:
      - serializedVersion: 2
        time: 0
        value: {x: -0.7071068, y: -0.0000010198323, z: 0.0000010198323, w: 0.7071068}
        inSlope: {x: 0, y: 0.0000026433145, z: -0.0000026433145, w: 0}
        outSlope: {x: 0, y: 0.0000026433145, z: -0.0000026433145, w: 0}
        tangentMode: 0
      - serializedVersion: 2
        time: 0.46666622
        value: {x: -0.7071068, y: -0.000000045654208, z: 0.000000045654208, w: 0.7071068}
        inSlope: {x: 0, y: 0.0000008833124, z: -0.0000008833124, w: 0}
        outSlope: {x: 0, y: 0.0000008833124, z: -0.0000008833124, w: 0}
        tangentMode: 0
      m_PreInfinity: 2
      m_PostInfinity: 2
      m_RotationOrder: 4
    path: 
  - curve:
      serializedVersion: 2
      m_Curve:
      - serializedVersion: 2
        time: 0
        value: {x: -6.123234e-17, y: -1, z: 6.123234e-17, w: 6.123234e-17}
        inSlope: {x: 0, y: 0, z: 0, w: 0}
        outSlope: {x: 0, y: 0, z: 0, w: 0}
        tangentMode: 0
      - serializedVersion: 2
        time: 0.3000002
        value: {x: -6.123234e-17, y: -1, z: 6.123234e-17, w: 6.123234e-17}
        inSlope: {x: 0, y: 0, z: 0, w: 0}
        outSlope: {x: 0, y: 0, z: 0, w: 0}
        tangentMode: 0
      - serializedVersion: 2
        time: 0.33333302
        value: {x: -6.123234e-17, y: -1, z: 6.123234e-17, w: 6.123234e-17}
        inSlope: {x: 9.184729e-16, y: 4.3934817, z: -9.184729e-16, w: 10.606602}
        outSlope: {x: 9.184729e-16, y: 4.3934817, z: -9.184729e-16, w: 10.606602}
        tangentMode: 0
      - serializedVersion: 2
        time: 0.3666668
        value: {x: 0, y: -0.7070973, z: -0, w: 0.70711625}
        inSlope: {x: 9.184729e-16, y: 14.9998, z: -9.184729e-16, w: 14.9998}
        outSlope: {x: 9.184729e-16, y: 14.9998, z: -9.184729e-16, w: 14.9998}
        tangentMode: 0
      - serializedVersion: 2
        time: 0.40000057
        value: {x: 0, y: -0, z: -0, w: 1}
        inSlope: {x: 0, y: 10.6063175, z: 0, w: 4.3931975}
        outSlope: {x: 0, y: 10.6063175, z: 0, w: 4.3931975}
        tangentMode: 0
      - serializedVersion: 2
        time: 0.4333334
        value: {x: 0, y: -0, z: -0, w: 1}
        inSlope: {x: 0, y: 0, z: 0, w: 0}
        outSlope: {x: 0, y: 0, z: 0, w: 0}
        tangentMode: 0
      - serializedVersion: 2
        time: 0.46666622
        value: {x: 0, y: -0, z: -0, w: 1}
        inSlope: {x: 0, y: 0, z: 0, w: 0}
        outSlope: {x: 0, y: 0, z: 0, w: 0}
        tangentMode: 0
      m_PreInfinity: 2
      m_PostInfinity: 2
      m_RotationOrder: 4
    path: HangPoint_Display
  - curve:
      serializedVersion: 2
      m_Curve:
      - serializedVersion: 2
        time: 0
        value: {x: 0, y: 0, z: -0, w: 1}
        inSlope: {x: 0, y: 0, z: 0, w: 0}
        outSlope: {x: 0, y: 0, z: 0, w: 0}
        tangentMode: 0
      - serializedVersion: 2
        time: 0.46666622
        value: {x: 0, y: 0, z: -0, w: 1}
        inSlope: {x: 0, y: 0, z: 0, w: 0}
        outSlope: {x: 0, y: 0, z: 0, w: 0}
        tangentMode: 0
      m_PreInfinity: 2
      m_PostInfinity: 2
      m_RotationOrder: 4
    path: HangPoint_Tray
  m_CompressedRotationCurves: []
  m_EulerCurves: []
  m_PositionCurves:
  - curve:
      serializedVersion: 2
      m_Curve:
      - serializedVersion: 2
        time: 0
        value: {x: 0, y: 0, z: 0}
        inSlope: {x: 0, y: 0, z: 0}
        outSlope: {x: 0, y: 0, z: 0}
        tangentMode: 0
      - serializedVersion: 2
        time: 0.46666622
        value: {x: 0, y: 0, z: 0}
        inSlope: {x: 0, y: 0, z: 0}
        outSlope: {x: 0, y: 0, z: 0}
        tangentMode: 0
      m_PreInfinity: 2
      m_PostInfinity: 2
      m_RotationOrder: 4
    path: 
  - curve:
      serializedVersion: 2
      m_Curve:
      - serializedVersion: 2
        time: 0
        value: {x: -0.27980334, y: -0.22136943, z: 0.049845878}
        inSlope: {x: 0, y: 0, z: 0}
        outSlope: {x: 0, y: 0, z: 0}
        tangentMode: 0
      - serializedVersion: 2
        time: 0.1333332
        value: {x: -0.27980334, y: -0.22136943, z: 0.049845878}
        inSlope: {x: -1.4869286e-15, y: -0, z: 3.7173216e-16}
        outSlope: {x: 0.000017833734, y: -0.0000015534555, z: 0.0001341635}
        tangentMode: 0
      - serializedVersion: 2
        time: 0.16666603
        value: {x: -0.27780616, y: -0.22147132, z: 0.057203893}
        inSlope: {x: 0.17972432, y: -0.0000036822253, z: 0.00012830939}
        outSlope: {x: 0.18130837, y: -1.7347004e-15, z: 1.3010252e-15}
        tangentMode: 0
      - serializedVersion: 2
        time: 0.19999981
        value: {x: -0.13760236, y: -0.22147132, z: 0.057203893}
        inSlope: {x: 0.0015644503, y: -7.4344304e-16, z: 5.575823e-16}
        outSlope: {x: -1.7347499e-15, y: -0.0010454451, z: -0.0006927997}
        tangentMode: 0
      - serializedVersion: 2
        time: 0.23333263
        value: {x: -0.13760236, y: -0.27983284, z: 0.018425139}
        inSlope: {x: -7.434643e-16, y: -0.0010433163, z: -0.0006925336}
        outSlope: {x: -1.7347004e-15, y: -5.204101e-15, z: 1.8586076e-16}
        tangentMode: 0
      - serializedVersion: 2
        time: 0.29999924
        value: {x: -0.13760236, y: -0.27983284, z: 0.018425139}
        inSlope: {x: -7.434643e-16, y: -2.230393e-15, z: 4.3368749e-16}
        outSlope: {x: -1.7347004e-15, y: -5.204101e-15, z: 0.0009711532}
        tangentMode: 0
      - serializedVersion: 2
        time: 0.33333302
        value: {x: -0.13760236, y: -0.27983284, z: 0.107414395}
        inSlope: {x: -7.4344304e-16, y: -2.2303292e-15, z: 0.001063486}
        outSlope: {x: 0.000937637, y: -5.20425e-15, z: 1.7347499e-15}
        tangentMode: 0
      - serializedVersion: 2
        time: 0.36666584
        value: {x: -0.072387695, y: -0.27983284, z: 0.107414395}
        inSlope: {x: 2.0646193, y: -2.230393e-15, z: 7.434643e-16}
        outSlope: {x: 2.0641048, y: -5.204101e-15, z: 1.7347004e-15}
        tangentMode: 0
      - serializedVersion: 2
        time: 0.39999962
        value: {x: -0, y: -0.27983284, z: 0.107414395}
        inSlope: {x: 0.00072864426, y: -2.2303292e-15, z: 7.4344304e-16}
        outSlope: {x: -0, y: -5.204101e-15, z: 1.7347004e-15}
        tangentMode: 0
      - serializedVersion: 2
        time: 0.46666622
        value: {x: 0, y: -0.27983284, z: 0.107414395}
        inSlope: {x: 0, y: 0, z: 0}
        outSlope: {x: 0, y: 0, z: 0}
        tangentMode: 0
      m_PreInfinity: 2
      m_PostInfinity: 2
      m_RotationOrder: 4
    path: HangPoint_Display
  - curve:
      serializedVersion: 2
      m_Curve:
      - serializedVersion: 2
        time: 0
        value: {x: 0, y: 0.075912476, z: 0}
        inSlope: {x: 0, y: 0, z: 0}
        outSlope: {x: 0, y: 0, z: 0}
        tangentMode: 0
      - serializedVersion: 2
        time: 0.33333302
        value: {x: -0, y: 0.075912476, z: 0}
        inSlope: {x: -0, y: 3.7173216e-16, z: -0}
        outSlope: {x: -0, y: 8.673502e-16, z: -0}
        tangentMode: 0
      - serializedVersion: 2
        time: 0.46666622
        value: {x: 0, y: 0.075912476, z: 0}
        inSlope: {x: 0, y: 0, z: 0}
        outSlope: {x: 0, y: 0, z: 0}
        tangentMode: 0
      m_PreInfinity: 2
      m_PostInfinity: 2
      m_RotationOrder: 4
    path: HangPoint_Tray
  m_ScaleCurves:
  - curve:
      serializedVersion: 2
      m_Curve:
      - serializedVersion: 2
        time: 0
        value: {x: 1, y: 1, z: 1}
        inSlope: {x: 0, y: 0, z: 0}
        outSlope: {x: 0, y: 0, z: 0}
        tangentMode: 0
      - serializedVersion: 2
        time: 0.46666622
        value: {x: 1, y: 1, z: 1}
        inSlope: {x: 0, y: 0, z: 0}
        outSlope: {x: 0, y: 0, z: 0}
        tangentMode: 0
      m_PreInfinity: 2
      m_PostInfinity: 2
      m_RotationOrder: 4
    path: 
  - curve:
      serializedVersion: 2
      m_Curve:
      - serializedVersion: 2
        time: 0
        value: {x: 1, y: 1, z: 1}
        inSlope: {x: 0, y: 0, z: 0}
        outSlope: {x: 0, y: 0, z: 0}
        tangentMode: 0
      - serializedVersion: 2
        time: 0.46666622
        value: {x: 1, y: 1, z: 1}
        inSlope: {x: 0, y: 0, z: 0}
        outSlope: {x: 0, y: 0, z: 0}
        tangentMode: 0
      m_PreInfinity: 2
      m_PostInfinity: 2
      m_RotationOrder: 4
    path: HangPoint_Display
  - curve:
      serializedVersion: 2
      m_Curve:
      - serializedVersion: 2
        time: 0
        value: {x: 1, y: 1, z: 1}
        inSlope: {x: 0, y: 0, z: 0}
        outSlope: {x: 0, y: 0, z: 0}
        tangentMode: 0
      - serializedVersion: 2
        time: 0.46666622
        value: {x: 1, y: 1, z: 1}
        inSlope: {x: 0, y: 0, z: 0}
        outSlope: {x: 0, y: 0, z: 0}
        tangentMode: 0
      m_PreInfinity: 2
      m_PostInfinity: 2
      m_RotationOrder: 4
    path: HangPoint_Tray
  m_FloatCurves: []
  m_PPtrCurves: []
  m_SampleRate: 30
  m_WrapMode: 0
  m_Bounds:
    m_Center: {x: 0, y: 0, z: 0}
    m_Extent: {x: 0, y: 0, z: 0}
  m_ClipBindingConstant:
    genericBindings:
    - serializedVersion: 2
      path: 1803485242
      attribute: 1
      script: {fileID: 0}
      typeID: 4
      customType: 0
      isPPtrCurve: 0
    - serializedVersion: 2
      path: 0
      attribute: 2
      script: {fileID: 0}
      typeID: 4
      customType: 0
      isPPtrCurve: 0
    - serializedVersion: 2
      path: 1803485242
      attribute: 2
      script: {fileID: 0}
      typeID: 4
      customType: 0
      isPPtrCurve: 0
    - serializedVersion: 2
      path: 0
      attribute: 1
      script: {fileID: 0}
      typeID: 4
      customType: 0
      isPPtrCurve: 0
    - serializedVersion: 2
      path: 2323925787
      attribute: 1
      script: {fileID: 0}
      typeID: 4
      customType: 0
      isPPtrCurve: 0
    - serializedVersion: 2
      path: 2323925787
      attribute: 2
      script: {fileID: 0}
      typeID: 4
      customType: 0
      isPPtrCurve: 0
    - serializedVersion: 2
      path: 0
      attribute: 3
      script: {fileID: 0}
      typeID: 4
      customType: 0
      isPPtrCurve: 0
    - serializedVersion: 2
      path: 1803485242
      attribute: 3
      script: {fileID: 0}
      typeID: 4
      customType: 0
      isPPtrCurve: 0
    - serializedVersion: 2
      path: 2323925787
      attribute: 3
      script: {fileID: 0}
      typeID: 4
      customType: 0
      isPPtrCurve: 0
    pptrCurveMapping: []
  m_AnimationClipSettings:
    serializedVersion: 2
    m_AdditiveReferencePoseClip: {fileID: 0}
    m_AdditiveReferencePoseTime: 0
    m_StartTime: 0
    m_StopTime: 0.46666622
    m_OrientationOffsetY: 0
    m_Level: 0
    m_CycleOffset: 0
    m_HasAdditiveReferencePose: 0
    m_LoopTime: 0
    m_LoopBlend: 0
    m_LoopBlendOrientation: 0
    m_LoopBlendPositionY: 0
    m_LoopBlendPositionXZ: 0
    m_KeepOriginalOrientation: 0
    m_KeepOriginalPositionY: 0
    m_KeepOriginalPositionXZ: 0
    m_HeightFromFeet: 0
    m_Mirror: 0
  m_EditorCurves: []
  m_EulerEditorCurves: []
  m_HasGenericRootTransform: 1
  m_HasMotionFloatCurves: 0
  m_GenerateMotionCurves: 0
  m_Events:
  - time: 0
    functionName: OnClipStart
    data: 
    objectReferenceParameter: {fileID: 0}
    floatParameter: 0
    intParameter: 10500350
    messageOptions: 0
  - time: 0.46666622
    functionName: OnClipEnd
    data: 
    objectReferenceParameter: {fileID: 0}
    floatParameter: 0
    intParameter: 10500350
    messageOptions: 0
