%YAML 1.1
%TAG !u! tag:unity3d.com,2011:
--- !u!74 &7400000
AnimationClip:
  m_ObjectHideFlags: 0
  m_PrefabParentObject: {fileID: 0}
  m_PrefabInternal: {fileID: 0}
  m_Name: Anim_10500231
  serializedVersion: 6
  m_Legacy: 0
  m_Compressed: 0
  m_UseHighQualityCurve: 1
  m_RotationCurves:
  - curve:
      serializedVersion: 2
      m_Curve:
      - serializedVersion: 2
        time: 0
        value: {x: 0.0000009519952, y: 0.65859735, z: -0.0000009269886, w: 0.7524955}
        inSlope: {x: 0, y: 0, z: 0, w: 0}
        outSlope: {x: 0, y: 0, z: 0, w: 0}
        tangentMode: 0
      - serializedVersion: 2
        time: 0.46666622
        value: {x: 0.0000009519952, y: 0.65859735, z: -0.0000009269886, w: 0.7524955}
        inSlope: {x: 0, y: 0, z: 0, w: 0}
        outSlope: {x: 0, y: 0, z: 0, w: 0}
        tangentMode: 0
      m_PreInfinity: 2
      m_PostInfinity: 2
      m_RotationOrder: 4
    path: Tool_Tweezers02
  - curve:
      serializedVersion: 2
      m_Curve:
      - serializedVersion: 2
        time: 0
        value: {x: 0, y: -0.050738033, z: 0, w: 0.9987357}
        inSlope: {x: 0, y: -0.046027366, z: 0, w: -0.002764466}
        outSlope: {x: 0, y: -0.046027366, z: 0, w: -0.002764466}
        tangentMode: 0
      - serializedVersion: 2
        time: 0.0666666
        value: {x: 0, y: -0.05380652, z: -0, w: 0.9985514}
        inSlope: {x: 0, y: 0, z: 0, w: 0}
        outSlope: {x: 0, y: 0, z: 0, w: 0}
        tangentMode: 0
      - serializedVersion: 2
        time: 0.16666698
        value: {x: 0, y: -0.05994468, z: -0, w: 0.9982017}
        inSlope: {x: 0, y: -0.18410689, z: 0, w: -0.011056978}
        outSlope: {x: 0, y: -0.18410689, z: 0, w: -0.011056978}
        tangentMode: 0
      - serializedVersion: 2
        time: 0.3666668
        value: {x: 0, y: -0.0660803, z: -0, w: 0.9978143}
        inSlope: {x: 0, y: 0, z: 0, w: 0}
        outSlope: {x: 0, y: 0, z: 0, w: 0}
        tangentMode: 0
      - serializedVersion: 2
        time: 0.40000057
        value: {x: 0, y: -0.0660803, z: -0, w: 0.9978143}
        inSlope: {x: 0, y: 0.18410952, z: 0, w: 0.011057128}
        outSlope: {x: 0, y: 0.18410952, z: 0, w: 0.011057128}
        tangentMode: 0
      - serializedVersion: 2
        time: 0.4333334
        value: {x: 0, y: -0.05380652, z: -0, w: 0.9985514}
        inSlope: {x: 0, y: 0.18410952, z: 0, w: 0.011057128}
        outSlope: {x: 0, y: 0.18410952, z: 0, w: 0.011057128}
        tangentMode: 0
      - serializedVersion: 2
        time: 0.46666622
        value: {x: 0, y: -0.05035449, z: 0, w: 0.99875873}
        inSlope: {x: 0, y: 0.034522187, z: 0, w: 0.0020733494}
        outSlope: {x: 0, y: 0.034522187, z: 0, w: 0.0020733494}
        tangentMode: 0
      m_PreInfinity: 2
      m_PostInfinity: 2
      m_RotationOrder: 4
    path: Tool_Tweezers02/Tool_Tweezers03
  m_CompressedRotationCurves: []
  m_EulerCurves: []
  m_PositionCurves:
  - curve:
      serializedVersion: 2
      m_Curve:
      - serializedVersion: 2
        time: 0
        value: {x: 0.08256137, y: 0.084495395, z: 0.21399781}
        inSlope: {x: 0, y: 0, z: 0}
        outSlope: {x: 0, y: 0, z: 0}
        tangentMode: 0
      - serializedVersion: 2
        time: 0.09999943
        value: {x: 0.08256137, y: 0.084495395, z: 0.21399781}
        inSlope: {x: -3.7173216e-16, y: 3.7173216e-16, z: 1.4869286e-15}
        outSlope: {x: -0.000062376435, y: -0.00002590866, z: -0.000015604104}
        tangentMode: 0
      - serializedVersion: 2
        time: 0.1333332
        value: {x: -0.022663236, y: 0.033958286, z: 0.17884156}
        inSlope: {x: -0.07684803, y: -0.42288914, z: -0.6362505}
        outSlope: {x: -0.0769008, y: -0.422953, z: -0.63633037}
        tangentMode: 0
      - serializedVersion: 2
        time: 0.16666603
        value: {x: -0.02351762, y: 0.029259183, z: 0.17157932}
        inSlope: {x: -0.010998883, y: -0.060495373, z: -0.09349195}
        outSlope: {x: -0.010995776, y: -0.06047871, z: -0.09346884}
        tangentMode: 0
      - serializedVersion: 2
        time: 0.19999981
        value: {x: -0.023639798, y: 0.028587192, z: 0.17054078}
        inSlope: {x: 0.00000006951075, y: -0.0000002296947, z: -0.0000014873108}
        outSlope: {x: -2.787991e-16, y: 2.1684374e-16, z: 0.0000771248}
        tangentMode: 0
      - serializedVersion: 2
        time: 0.23333263
        value: {x: -0.023639798, y: 0.028587192, z: 0.18494508}
        inSlope: {x: 5.885759e-16, y: 9.293304e-17, z: 0.4322259}
        outSlope: {x: -2.787911e-16, y: 2.1683755e-16, z: 0.43212146}
        tangentMode: 0
      - serializedVersion: 2
        time: 0.2666664
        value: {x: -0.023639798, y: 0.028587192, z: 0.19934937}
        inSlope: {x: 5.8855904e-16, y: 9.293038e-17, z: 0.0000042143133}
        outSlope: {x: 0.00012118646, y: 2.1684374e-16, z: 5.20425e-15}
        tangentMode: 0
      - serializedVersion: 2
        time: 0.29999924
        value: {x: -0.00062954426, y: 0.028587192, z: 0.19934937}
        inSlope: {x: 0.6904724, y: 9.293304e-17, z: 2.230393e-15}
        outSlope: {x: 0.69028485, y: 2.1683755e-16, z: 5.204101e-15}
        tangentMode: 0
      - serializedVersion: 2
        time: 0.33333302
        value: {x: 0.02238071, y: 0.028587192, z: 0.19934937}
        inSlope: {x: 0.000007446736, y: 9.293038e-17, z: 2.2303292e-15}
        outSlope: {x: -0, y: 2.1684374e-16, z: -0.000074847565}
        tangentMode: 0
      - serializedVersion: 2
        time: 0.36666584
        value: {x: 0.02238071, y: 0.028587192, z: 0.18506715}
        inSlope: {x: -0, y: 9.293304e-17, z: -0.42857704}
        outSlope: {x: -0, y: 2.1683755e-16, z: -0.42844877}
        tangentMode: 0
      - serializedVersion: 2
        time: 0.39999962
        value: {x: 0.02238071, y: 0.028587192, z: 0.17078492}
        inSlope: {x: -0, y: 9.293038e-17, z: -0.000009919799}
        outSlope: {x: -0, y: 2.1684374e-16, z: 1.2391073e-15}
        tangentMode: 0
      - serializedVersion: 2
        time: 0.43333244
        value: {x: 0.02238071, y: 0.028587192, z: 0.17078492}
        inSlope: {x: -0, y: 9.293304e-17, z: 6.1955357e-15}
        outSlope: {x: -0.00016252886, y: 2.1683755e-16, z: -0.000042422173}
        tangentMode: 0
      - serializedVersion: 2
        time: 0.46666622
        value: {x: 0.16758335, y: 0.028587192, z: 0.20594117}
        inSlope: {x: 0.00018551503, y: 9.293038e-17, z: 0.00004272618}
        outSlope: {x: 5.204101e-15, y: 2.1683755e-16, z: -0}
        tangentMode: 0
      m_PreInfinity: 2
      m_PostInfinity: 2
      m_RotationOrder: 4
    path: Tool_Tweezers02
  - curve:
      serializedVersion: 2
      m_Curve:
      - serializedVersion: 2
        time: 0
        value: {x: 0.008098871, y: 5.6736277e-10, z: -0.0012252554}
        inSlope: {x: 0, y: 0, z: 0}
        outSlope: {x: 0, y: 0, z: 0}
        tangentMode: 0
      - serializedVersion: 2
        time: 0.46666622
        value: {x: 0.008098871, y: 5.6736277e-10, z: -0.0012252554}
        inSlope: {x: 0, y: 0, z: 0}
        outSlope: {x: 0, y: 0, z: 0}
        tangentMode: 0
      m_PreInfinity: 2
      m_PostInfinity: 2
      m_RotationOrder: 4
    path: Tool_Tweezers02/Tool_Tweezers03
  m_ScaleCurves:
  - curve:
      serializedVersion: 2
      m_Curve:
      - serializedVersion: 2
        time: 0
        value: {x: 1, y: 1, z: 1}
        inSlope: {x: 0, y: 0, z: 0}
        outSlope: {x: 0, y: 0, z: 0}
        tangentMode: 0
      - serializedVersion: 2
        time: 0.46666622
        value: {x: 1, y: 1, z: 1}
        inSlope: {x: 0, y: 0, z: 0}
        outSlope: {x: 0, y: 0, z: 0}
        tangentMode: 0
      m_PreInfinity: 2
      m_PostInfinity: 2
      m_RotationOrder: 4
    path: Tool_Tweezers02
  - curve:
      serializedVersion: 2
      m_Curve:
      - serializedVersion: 2
        time: 0
        value: {x: 1, y: 1, z: 1}
        inSlope: {x: 0, y: 0, z: 0}
        outSlope: {x: 0, y: 0, z: 0}
        tangentMode: 0
      - serializedVersion: 2
        time: 0.46666622
        value: {x: 1, y: 1, z: 1}
        inSlope: {x: 0, y: 0, z: 0}
        outSlope: {x: 0, y: 0, z: 0}
        tangentMode: 0
      m_PreInfinity: 2
      m_PostInfinity: 2
      m_RotationOrder: 4
    path: Tool_Tweezers02/Tool_Tweezers03
  m_FloatCurves: []
  m_PPtrCurves: []
  m_SampleRate: 30
  m_WrapMode: 0
  m_Bounds:
    m_Center: {x: 0, y: 0, z: 0}
    m_Extent: {x: 0, y: 0, z: 0}
  m_ClipBindingConstant:
    genericBindings:
    - serializedVersion: 2
      path: 4162974765
      attribute: 1
      script: {fileID: 0}
      typeID: 4
      customType: 0
      isPPtrCurve: 0
    - serializedVersion: 2
      path: 3787453774
      attribute: 2
      script: {fileID: 0}
      typeID: 4
      customType: 0
      isPPtrCurve: 0
    - serializedVersion: 2
      path: 3787453774
      attribute: 1
      script: {fileID: 0}
      typeID: 4
      customType: 0
      isPPtrCurve: 0
    - serializedVersion: 2
      path: 4162974765
      attribute: 2
      script: {fileID: 0}
      typeID: 4
      customType: 0
      isPPtrCurve: 0
    - serializedVersion: 2
      path: 4162974765
      attribute: 3
      script: {fileID: 0}
      typeID: 4
      customType: 0
      isPPtrCurve: 0
    - serializedVersion: 2
      path: 3787453774
      attribute: 3
      script: {fileID: 0}
      typeID: 4
      customType: 0
      isPPtrCurve: 0
    pptrCurveMapping: []
  m_AnimationClipSettings:
    serializedVersion: 2
    m_AdditiveReferencePoseClip: {fileID: 0}
    m_AdditiveReferencePoseTime: 0
    m_StartTime: 0
    m_StopTime: 0.46666622
    m_OrientationOffsetY: 0
    m_Level: 0
    m_CycleOffset: 0
    m_HasAdditiveReferencePose: 0
    m_LoopTime: 0
    m_LoopBlend: 0
    m_LoopBlendOrientation: 0
    m_LoopBlendPositionY: 0
    m_LoopBlendPositionXZ: 0
    m_KeepOriginalOrientation: 0
    m_KeepOriginalPositionY: 0
    m_KeepOriginalPositionXZ: 0
    m_HeightFromFeet: 0
    m_Mirror: 0
  m_EditorCurves: []
  m_EulerEditorCurves: []
  m_HasGenericRootTransform: 0
  m_HasMotionFloatCurves: 0
  m_GenerateMotionCurves: 0
  m_Events:
  - time: 0
    functionName: OnClipStart
    data: 
    objectReferenceParameter: {fileID: 0}
    floatParameter: 0
    intParameter: 10500231
    messageOptions: 0
  - time: 0.46666622
    functionName: OnClipEnd
    data: 
    objectReferenceParameter: {fileID: 0}
    floatParameter: 0
    intParameter: 10500231
    messageOptions: 0
