%YAML 1.1
%TAG !u! tag:unity3d.com,2011:
--- !u!74 &7400000
AnimationClip:
  m_ObjectHideFlags: 0
  m_PrefabParentObject: {fileID: 0}
  m_PrefabInternal: {fileID: 0}
  m_Name: Anim_10500184
  serializedVersion: 6
  m_Legacy: 0
  m_Compressed: 0
  m_UseHighQualityCurve: 1
  m_RotationCurves:
  - curve:
      serializedVersion: 2
      m_Curve:
      - serializedVersion: 2
        time: 0
        value: {x: 0.40821585, y: 0.40821585, z: -0.5773732, w: 0.5773732}
        inSlope: {x: 0, y: 0, z: 0, w: 0}
        outSlope: {x: 0, y: 0, z: 0, w: 0}
        tangentMode: 0
      - serializedVersion: 2
        time: 0.20000005
        value: {x: 0.40821585, y: 0.40821585, z: -0.5773732, w: 0.5773732}
        inSlope: {x: -0.02828193, y: -0.02828193, z: -0.019926902, w: 0.019926902}
        outSlope: {x: -0.02828193, y: -0.02828193, z: -0.019926902, w: 0.019926902}
        tangentMode: 0
      - serializedVersion: 2
        time: 0.4333334
        value: {x: 0.38763237, y: 0.38763237, z: -0.5913892, w: 0.5913892}
        inSlope: {x: 0, y: 0, z: 0, w: 0}
        outSlope: {x: 0, y: 0, z: 0, w: 0}
        tangentMode: 0
      - serializedVersion: 2
        time: 0.4666667
        value: {x: 0.38763237, y: 0.38763237, z: -0.5913892, w: 0.5913892}
        inSlope: {x: 0, y: 0, z: 0, w: 0}
        outSlope: {x: 0, y: 0, z: 0, w: 0}
        tangentMode: 0
      m_PreInfinity: 2
      m_PostInfinity: 2
      m_RotationOrder: 4
    path: Tool_PlasticSpudger02
  m_CompressedRotationCurves: []
  m_EulerCurves: []
  m_PositionCurves:
  - curve:
      serializedVersion: 2
      m_Curve:
      - serializedVersion: 2
        time: 0
        value: {x: -0.10058279, y: 0.12322521, z: 0.08642743}
        inSlope: {x: 0, y: 0, z: 0}
        outSlope: {x: 0, y: 0, z: 0}
        tangentMode: 0
      - serializedVersion: 2
        time: 0.10000014
        value: {x: -0.1005828, y: 0.12322521, z: 0.08642743}
        inSlope: {x: -3.717242e-16, y: 3.717242e-16, z: 1.1151726e-15}
        outSlope: {x: 0.00004349622, y: -0.00009017896, z: -0.0000071478316}
        tangentMode: 0
      - serializedVersion: 2
        time: 0.13333344
        value: {x: -0.026814425, y: -0.032719612, z: 0.069825865}
        inSlope: {x: -0.00003234012, y: -0.17624748, z: -0.32947958}
        outSlope: {x: -2.1684065e-16, y: -0.17631823, z: -0.32949153}
        tangentMode: 0
      - serializedVersion: 2
        time: 0.16666675
        value: {x: -0.026814425, y: -0.034678683, z: 0.06446167}
        inSlope: {x: -9.293171e-17, y: -0.025214987, z: -0.10620274}
        outSlope: {x: -2.1684065e-16, y: -0.0252139, z: -0.10620192}
        tangentMode: 0
      - serializedVersion: 2
        time: 0.23333335
        value: {x: -0.026814425, y: -0.03463613, z: 0.06232708}
        inSlope: {x: -9.293171e-17, y: 0.015801854, z: -0.008595667}
        outSlope: {x: -2.1684065e-16, y: 0.015802236, z: -0.008595423}
        tangentMode: 0
      - serializedVersion: 2
        time: 0.3666668
        value: {x: -0.026814425, y: -0.031257622, z: 0.062501065}
        inSlope: {x: -9.293105e-17, y: 0.021055728, z: 0.005256}
        outSlope: {x: -2.1684065e-16, y: 0.021058086, z: 0.005254814}
        tangentMode: 0
      - serializedVersion: 2
        time: 0.4333334
        value: {x: -0.026814425, y: -0.030812263, z: 0.06262372}
        inSlope: {x: -9.293171e-17, y: -3.7172684e-16, z: 5.5759025e-16}
        outSlope: {x: -0.000014304546, y: 0.000042008996, z: 0.000012596337}
        tangentMode: 0
      - serializedVersion: 2
        time: 0.4666667
        value: {x: -0.113728486, y: 0.22297192, z: 0.13513348}
        inSlope: {x: 0.00000033053624, y: -0.0000018962503, z: -0.00000017609872}
        outSlope: {x: -1.7347252e-15, y: 5.2041755e-15, z: 8.673626e-16}
        tangentMode: 0
      m_PreInfinity: 2
      m_PostInfinity: 2
      m_RotationOrder: 4
    path: Tool_PlasticSpudger02
  m_ScaleCurves:
  - curve:
      serializedVersion: 2
      m_Curve:
      - serializedVersion: 2
        time: 0
        value: {x: 1, y: 1, z: 1}
        inSlope: {x: 0, y: 0, z: 0}
        outSlope: {x: 0, y: 0, z: 0}
        tangentMode: 0
      - serializedVersion: 2
        time: 0.4666667
        value: {x: 1, y: 1, z: 1}
        inSlope: {x: 0, y: 0, z: 0}
        outSlope: {x: 0, y: 0, z: 0}
        tangentMode: 0
      m_PreInfinity: 2
      m_PostInfinity: 2
      m_RotationOrder: 4
    path: Tool_PlasticSpudger02
  m_FloatCurves: []
  m_PPtrCurves: []
  m_SampleRate: 30
  m_WrapMode: 0
  m_Bounds:
    m_Center: {x: 0, y: 0, z: 0}
    m_Extent: {x: 0, y: 0, z: 0}
  m_ClipBindingConstant:
    genericBindings:
    - serializedVersion: 2
      path: 2719527444
      attribute: 1
      script: {fileID: 0}
      typeID: 4
      customType: 0
      isPPtrCurve: 0
    - serializedVersion: 2
      path: 2719527444
      attribute: 2
      script: {fileID: 0}
      typeID: 4
      customType: 0
      isPPtrCurve: 0
    - serializedVersion: 2
      path: 2719527444
      attribute: 3
      script: {fileID: 0}
      typeID: 4
      customType: 0
      isPPtrCurve: 0
    pptrCurveMapping: []
  m_AnimationClipSettings:
    serializedVersion: 2
    m_AdditiveReferencePoseClip: {fileID: 0}
    m_AdditiveReferencePoseTime: 0
    m_StartTime: 0
    m_StopTime: 0.4666667
    m_OrientationOffsetY: 0
    m_Level: 0
    m_CycleOffset: 0
    m_HasAdditiveReferencePose: 0
    m_LoopTime: 0
    m_LoopBlend: 0
    m_LoopBlendOrientation: 0
    m_LoopBlendPositionY: 0
    m_LoopBlendPositionXZ: 0
    m_KeepOriginalOrientation: 0
    m_KeepOriginalPositionY: 0
    m_KeepOriginalPositionXZ: 0
    m_HeightFromFeet: 0
    m_Mirror: 0
  m_EditorCurves: []
  m_EulerEditorCurves: []
  m_HasGenericRootTransform: 0
  m_HasMotionFloatCurves: 0
  m_GenerateMotionCurves: 0
  m_Events:
  - time: 0
    functionName: OnClipStart
    data: 
    objectReferenceParameter: {fileID: 0}
    floatParameter: 0
    intParameter: 10500184
    messageOptions: 0
  - time: 0.4666667
    functionName: OnClipEnd
    data: 
    objectReferenceParameter: {fileID: 0}
    floatParameter: 0
    intParameter: 10500184
    messageOptions: 0
