%YAML 1.1
%TAG !u! tag:unity3d.com,2011:
--- !u!74 &7400000
AnimationClip:
  m_ObjectHideFlags: 0
  m_PrefabParentObject: {fileID: 0}
  m_PrefabInternal: {fileID: 0}
  m_Name: Anim_10500281
  serializedVersion: 6
  m_Legacy: 0
  m_Compressed: 0
  m_UseHighQualityCurve: 1
  m_RotationCurves:
  - curve:
      serializedVersion: 2
      m_Curve:
      - serializedVersion: 2
        time: 0
        value: {x: 0.6678607, y: 0.6678607, z: 0.2322974, w: 0.2322974}
        inSlope: {x: 0, y: 0, z: 0, w: 0}
        outSlope: {x: 0, y: 0, z: 0, w: 0}
        tangentMode: 0
      - serializedVersion: 2
        time: 0.23333347
        value: {x: 0.6678607, y: 0.6678607, z: 0.2322974, w: 0.2322974}
        inSlope: {x: 0, y: 0, z: 0, w: 0}
        outSlope: {x: 0, y: 0, z: 0, w: 0}
        tangentMode: 0
      - serializedVersion: 2
        time: 0.26666677
        value: {x: 0.6678607, y: 0.6678607, z: 0.2322974, w: 0.2322974}
        inSlope: {x: -8.784156, y: -8.784156, z: 7.0501475, w: 7.0501475}
        outSlope: {x: -8.784156, y: -8.784156, z: 7.0501475, w: 7.0501475}
        tangentMode: 0
      - serializedVersion: 2
        time: 0.30000007
        value: {x: 0.082250826, y: 0.082250826, z: 0.7023068, w: 0.7023068}
        inSlope: {x: -8.784156, y: -8.784156, z: 7.0501475, w: 7.0501475}
        outSlope: {x: -8.784156, y: -8.784156, z: 7.0501475, w: 7.0501475}
        tangentMode: 0
      - serializedVersion: 2
        time: 0.3333335
        value: {x: 0.082250826, y: 0.082250826, z: 0.7023068, w: 0.7023068}
        inSlope: {x: 0, y: 0, z: 0, w: 0}
        outSlope: {x: 0, y: 0, z: 0, w: 0}
        tangentMode: 0
      - serializedVersion: 2
        time: 0.4666667
        value: {x: 0.082250826, y: 0.082250826, z: 0.7023068, w: 0.7023068}
        inSlope: {x: 0, y: 0, z: 0, w: 0}
        outSlope: {x: 0, y: 0, z: 0, w: 0}
        tangentMode: 0
      m_PreInfinity: 2
      m_PostInfinity: 2
      m_RotationOrder: 4
    path: Tool_HandPress02
  m_CompressedRotationCurves: []
  m_EulerCurves: []
  m_PositionCurves:
  - curve:
      serializedVersion: 2
      m_Curve:
      - serializedVersion: 2
        time: 0
        value: {x: -0.40894318, y: -0.021588072, z: 0.41027835}
        inSlope: {x: 0, y: 0, z: 0}
        outSlope: {x: 0, y: 0, z: 0}
        tangentMode: 0
      - serializedVersion: 2
        time: 0.26666665
        value: {x: -0.40894318, y: -0.021588072, z: 0.41027832}
        inSlope: {x: -1.3877801e-14, y: -1.8586342e-16, z: -0}
        outSlope: {x: -0.00016631372, y: -0.00021456988, z: 0.0004950659}
        tangentMode: 0
      - serializedVersion: 2
        time: 0.30000007
        value: {x: -0.18351522, y: 0.2659316, z: -0.24994981}
        inSlope: {x: -0.0001577988, y: -0.00020445841, z: 0.00046526367}
        outSlope: {x: -0, y: 6.9389007e-15, z: 0.00000070098355}
        tangentMode: 0
      - serializedVersion: 2
        time: 0.36666667
        value: {x: -0.18351522, y: 0.2659316, z: -0.22779405}
        inSlope: {x: -0, y: 2.9738147e-15, z: 0.12188247}
        outSlope: {x: -0, y: 6.9389007e-15, z: 0.12187681}
        tangentMode: 0
      - serializedVersion: 2
        time: 0.4333334
        value: {x: -0.18351522, y: 0.2659316, z: -0.22508562}
        inSlope: {x: -0, y: 2.9738041e-15, z: 0.12187638}
        outSlope: {x: -0.000030763495, y: -0.000033090215, z: 0.12192987}
        tangentMode: 0
      - serializedVersion: 2
        time: 0.4666667
        value: {x: -0.38529745, y: 0.059388638, z: 0.06707394}
        inSlope: {x: 0.0000032963333, y: 0.0000020339846, z: 0.000000074165115}
        outSlope: {x: -6.9389007e-15, y: 1.3010439e-15, z: 1.177135e-15}
        tangentMode: 0
      m_PreInfinity: 2
      m_PostInfinity: 2
      m_RotationOrder: 4
    path: Tool_HandPress02
  m_ScaleCurves:
  - curve:
      serializedVersion: 2
      m_Curve:
      - serializedVersion: 2
        time: 0
        value: {x: 1, y: 1, z: 1}
        inSlope: {x: 0, y: 0, z: 0}
        outSlope: {x: 0, y: 0, z: 0}
        tangentMode: 0
      - serializedVersion: 2
        time: 0.4666667
        value: {x: 1, y: 1, z: 1}
        inSlope: {x: 0, y: 0, z: 0}
        outSlope: {x: 0, y: 0, z: 0}
        tangentMode: 0
      m_PreInfinity: 2
      m_PostInfinity: 2
      m_RotationOrder: 4
    path: Tool_HandPress02
  m_FloatCurves: []
  m_PPtrCurves: []
  m_SampleRate: 30
  m_WrapMode: 0
  m_Bounds:
    m_Center: {x: 0, y: 0, z: 0}
    m_Extent: {x: 0, y: 0, z: 0}
  m_ClipBindingConstant:
    genericBindings:
    - serializedVersion: 2
      path: 2019931156
      attribute: 1
      script: {fileID: 0}
      typeID: 4
      customType: 0
      isPPtrCurve: 0
    - serializedVersion: 2
      path: 2019931156
      attribute: 2
      script: {fileID: 0}
      typeID: 4
      customType: 0
      isPPtrCurve: 0
    - serializedVersion: 2
      path: 2019931156
      attribute: 3
      script: {fileID: 0}
      typeID: 4
      customType: 0
      isPPtrCurve: 0
    pptrCurveMapping: []
  m_AnimationClipSettings:
    serializedVersion: 2
    m_AdditiveReferencePoseClip: {fileID: 0}
    m_AdditiveReferencePoseTime: 0
    m_StartTime: 0
    m_StopTime: 0.4666667
    m_OrientationOffsetY: 0
    m_Level: 0
    m_CycleOffset: 0
    m_HasAdditiveReferencePose: 0
    m_LoopTime: 0
    m_LoopBlend: 0
    m_LoopBlendOrientation: 0
    m_LoopBlendPositionY: 0
    m_LoopBlendPositionXZ: 0
    m_KeepOriginalOrientation: 0
    m_KeepOriginalPositionY: 0
    m_KeepOriginalPositionXZ: 0
    m_HeightFromFeet: 0
    m_Mirror: 0
  m_EditorCurves: []
  m_EulerEditorCurves: []
  m_HasGenericRootTransform: 0
  m_HasMotionFloatCurves: 0
  m_GenerateMotionCurves: 0
  m_Events:
  - time: 0
    functionName: OnClipStart
    data: 
    objectReferenceParameter: {fileID: 0}
    floatParameter: 0
    intParameter: 10500281
    messageOptions: 0
  - time: 0.4666667
    functionName: OnClipEnd
    data: 
    objectReferenceParameter: {fileID: 0}
    floatParameter: 0
    intParameter: 10500281
    messageOptions: 0
