%YAML 1.1
%TAG !u! tag:unity3d.com,2011:
--- !u!74 &7400000
AnimationClip:
  m_ObjectHideFlags: 0
  m_PrefabParentObject: {fileID: 0}
  m_PrefabInternal: {fileID: 0}
  m_Name: Anim_10500082
  serializedVersion: 6
  m_Legacy: 0
  m_Compressed: 0
  m_UseHighQualityCurve: 1
  m_RotationCurves:
  - curve:
      serializedVersion: 2
      m_Curve:
      - serializedVersion: 2
        time: 0
        value: {x: 0.0000004666561, y: 0.72502106, z: -0.0000005445352, w: 0.6887268}
        inSlope: {x: 0, y: 0, z: 0, w: 0}
        outSlope: {x: 0, y: 0, z: 0, w: 0}
        tangentMode: 0
      - serializedVersion: 2
        time: 0.3333335
        value: {x: 0.0000004666561, y: 0.72502106, z: -0.0000005445352, w: 0.6887268}
        inSlope: {x: 0, y: 0, z: 0, w: 0}
        outSlope: {x: 0, y: 0, z: 0, w: 0}
        tangentMode: 0
      - serializedVersion: 2
        time: 0.4666667
        value: {x: 0.0000004666561, y: 0.72502106, z: -0.0000005445352, w: 0.6887268}
        inSlope: {x: 0, y: 0, z: 0, w: 0}
        outSlope: {x: 0, y: 0, z: 0, w: 0}
        tangentMode: 0
      m_PreInfinity: 2
      m_PostInfinity: 2
      m_RotationOrder: 4
    path: Tool_Tweezers02
  - curve:
      serializedVersion: 2
      m_Curve:
      - serializedVersion: 2
        time: 0.00000047683716
        value: {x: 0, y: -0.049905874, z: -0, w: 0.99875396}
        inSlope: {x: 0, y: 0, z: 0, w: 0}
        outSlope: {x: 0, y: 0, z: 0, w: 0}
        tangentMode: 0
      - serializedVersion: 2
        time: 0.36666727
        value: {x: 0, y: -0.057102118, z: -0, w: 0.9983683}
        inSlope: {x: 0, y: 0.05424203, z: 0, w: 0.003004971}
        outSlope: {x: 0, y: 0.05424203, z: 0, w: 0.003004971}
        tangentMode: 0
      - serializedVersion: 2
        time: 0.4666667
        value: {x: 0, y: -0.044993073, z: 0, w: 0.9989779}
        inSlope: {x: 0, y: 0.10075127, z: 0, w: 0.004969244}
        outSlope: {x: 0, y: 0.10075127, z: 0, w: 0.004969244}
        tangentMode: 0
      m_PreInfinity: 2
      m_PostInfinity: 2
      m_RotationOrder: 4
    path: Tool_Tweezers02/Tool_Tweezers03
  m_CompressedRotationCurves: []
  m_EulerCurves: []
  m_PositionCurves:
  - curve:
      serializedVersion: 2
      m_Curve:
      - serializedVersion: 2
        time: 0
        value: {x: 0.07610834, y: 0.18495268, z: 0.28706992}
        inSlope: {x: 0, y: 0, z: 0}
        outSlope: {x: 0, y: 0, z: 0}
        tangentMode: 0
      - serializedVersion: 2
        time: 0.099999905
        value: {x: 0.07610834, y: 0.18495268, z: 0.28706992}
        inSlope: {x: 3.7172684e-16, y: 6.9389007e-15, z: -3.9650857e-15}
        outSlope: {x: -0.00010121408, y: 0.000027633774, z: 0.000011699584}
        tangentMode: 0
      - serializedVersion: 2
        time: 0.1333332
        value: {x: -0.09294379, y: 0.22809309, z: 0.31246054}
        inSlope: {x: 0.000072810355, y: -0.000017069751, z: -0.000013845287}
        outSlope: {x: -1.7347252e-15, y: 6.9389007e-15, z: 0.000016026936}
        tangentMode: 0
      - serializedVersion: 2
        time: 0.19999981
        value: {x: -0.09294379, y: 0.22809309, z: 0.28499472}
        inSlope: {x: -7.434537e-16, y: 2.9738147e-15, z: 0.0000011257605}
        outSlope: {x: -1.7347004e-15, y: 6.9388016e-15, z: 5.204101e-15}
        tangentMode: 0
      - serializedVersion: 2
        time: 0.23333359
        value: {x: -0.09294379, y: 0.22809309, z: 0.28499472}
        inSlope: {x: -7.4344304e-16, y: 2.9737722e-15, z: 2.2303292e-15}
        outSlope: {x: -1.7347252e-15, y: 0.0000013003639, z: 0.0000008954012}
        tangentMode: 0
      - serializedVersion: 2
        time: 0.2666669
        value: {x: -0.09294379, y: 0.22740974, z: 0.30061972}
        inSlope: {x: -7.434537e-16, y: -0.061500106, z: 0.0000051528796}
        outSlope: {x: -0.000020953625, y: -0.061515283, z: 3.4694503e-15}
        tangentMode: 0
      - serializedVersion: 2
        time: 0.3000002
        value: {x: -0.11044562, y: 0.21637954, z: 0.30061972}
        inSlope: {x: -0.52231777, y: -0.3241123, z: 1.4869074e-15}
        outSlope: {x: -0.52235454, y: -0.32413176, z: 0.0000031541358}
        tangentMode: 0
      - serializedVersion: 2
        time: 0.3333335
        value: {x: -0.12776816, y: 0.20580034, z: 0.29927695}
        inSlope: {x: -0.000004520719, y: -0.0000014004513, z: -0.12084963}
        outSlope: {x: -1.7347252e-15, y: 0.0000014235235, z: -0.12089741}
        tangentMode: 0
      - serializedVersion: 2
        time: 0.3666668
        value: {x: -0.12776816, y: 0.20681886, z: 0.27657187}
        inSlope: {x: -7.434537e-16, y: 0.09166706, z: 0.00003626419}
        outSlope: {x: -0.0000072795706, y: 0.091660544, z: -0.000007236364}
        tangentMode: 0
      - serializedVersion: 2
        time: 0.4000001
        value: {x: -0.09409098, y: 0.2256481, z: 0.29707414}
        inSlope: {x: 1.44313, y: 0.7588713, z: 0.87854904}
        outSlope: {x: 1.4431713, y: 0.7588947, z: 0.87858146}
        tangentMode: 0
      - serializedVersion: 2
        time: 0.4333334
        value: {x: -0.031562503, y: 0.25740895, z: 0.33514068}
        inSlope: {x: 1.4430089, y: 0.72826636, z: 0.8784793}
        outSlope: {x: 1.4430311, y: 0.7282785, z: 0.878496}
        tangentMode: 0
      - serializedVersion: 2
        time: 0.4666667
        value: {x: 0.0021146536, y: 0.2742017, z: 0.3556429}
        inSlope: {x: 0.000013565442, y: 0.000011256514, z: 0.000007835109}
        outSlope: {x: 1.355254e-17, y: -0, z: 1.0408351e-14}
        tangentMode: 0
      m_PreInfinity: 2
      m_PostInfinity: 2
      m_RotationOrder: 4
    path: Tool_Tweezers02
  - curve:
      serializedVersion: 2
      m_Curve:
      - serializedVersion: 2
        time: 0
        value: {x: 0.008098871, y: 5.6736277e-10, z: -0.0012252554}
        inSlope: {x: 0, y: 0, z: 0}
        outSlope: {x: 0, y: 0, z: 0}
        tangentMode: 0
      - serializedVersion: 2
        time: 0.099999905
        value: {x: 0.008098871, y: 5.6736277e-10, z: -0.0012252554}
        inSlope: {x: 6.969878e-17, y: -7.385548e-24, z: -5.808232e-18}
        outSlope: {x: 1.6263048e-16, y: 7.385548e-24, z: -1.355254e-17}
        tangentMode: 0
      - serializedVersion: 2
        time: 0.1333332
        value: {x: 0.008098871, y: 5.6736277e-10, z: -0.0012252554}
        inSlope: {x: 6.969878e-17, y: -7.385548e-24, z: -5.808232e-18}
        outSlope: {x: 1.6263048e-16, y: 0.00000015947165, z: -0.000000005488157}
        tangentMode: 0
      - serializedVersion: 2
        time: 0.16666651
        value: {x: 0.008098871, y: -0.00015258795, z: -0.0012252552}
        inSlope: {x: 6.969878e-17, y: -0.004578112, z: 0.000000011142618}
        outSlope: {x: 1.6263048e-16, y: -0.004577704, z: -0.00000001796124}
        tangentMode: 0
      - serializedVersion: 2
        time: 0.19999981
        value: {x: 0.008098871, y: -0.00030517645, z: -0.001225255}
        inSlope: {x: 6.969878e-17, y: -0.0000000017501279, z: -0.00000001796124}
        outSlope: {x: 1.6262816e-16, y: -3.3880867e-18, z: -1.5488396e-17}
        tangentMode: 0
      - serializedVersion: 2
        time: 0.4666667
        value: {x: 0.008098871, y: -0.00030517645, z: -0.001225255}
        inSlope: {x: 0, y: 0, z: 0}
        outSlope: {x: 0, y: 0, z: 0}
        tangentMode: 0
      m_PreInfinity: 2
      m_PostInfinity: 2
      m_RotationOrder: 4
    path: Tool_Tweezers02/Tool_Tweezers03
  m_ScaleCurves:
  - curve:
      serializedVersion: 2
      m_Curve:
      - serializedVersion: 2
        time: 0
        value: {x: 1, y: 1, z: 1}
        inSlope: {x: 0, y: 0, z: 0}
        outSlope: {x: 0, y: 0, z: 0}
        tangentMode: 0
      - serializedVersion: 2
        time: 0.4666667
        value: {x: 1, y: 1, z: 1}
        inSlope: {x: 0, y: 0, z: 0}
        outSlope: {x: 0, y: 0, z: 0}
        tangentMode: 0
      m_PreInfinity: 2
      m_PostInfinity: 2
      m_RotationOrder: 4
    path: Tool_Tweezers02
  - curve:
      serializedVersion: 2
      m_Curve:
      - serializedVersion: 2
        time: 0
        value: {x: 1, y: 1, z: 1}
        inSlope: {x: 0, y: 0, z: 0}
        outSlope: {x: 0, y: 0, z: 0}
        tangentMode: 0
      - serializedVersion: 2
        time: 0.4666667
        value: {x: 1, y: 1, z: 1}
        inSlope: {x: 0, y: 0, z: 0}
        outSlope: {x: 0, y: 0, z: 0}
        tangentMode: 0
      m_PreInfinity: 2
      m_PostInfinity: 2
      m_RotationOrder: 4
    path: Tool_Tweezers02/Tool_Tweezers03
  m_FloatCurves: []
  m_PPtrCurves: []
  m_SampleRate: 30
  m_WrapMode: 0
  m_Bounds:
    m_Center: {x: 0, y: 0, z: 0}
    m_Extent: {x: 0, y: 0, z: 0}
  m_ClipBindingConstant:
    genericBindings:
    - serializedVersion: 2
      path: 4162974765
      attribute: 1
      script: {fileID: 0}
      typeID: 4
      customType: 0
      isPPtrCurve: 0
    - serializedVersion: 2
      path: 3787453774
      attribute: 1
      script: {fileID: 0}
      typeID: 4
      customType: 0
      isPPtrCurve: 0
    - serializedVersion: 2
      path: 3787453774
      attribute: 2
      script: {fileID: 0}
      typeID: 4
      customType: 0
      isPPtrCurve: 0
    - serializedVersion: 2
      path: 4162974765
      attribute: 2
      script: {fileID: 0}
      typeID: 4
      customType: 0
      isPPtrCurve: 0
    - serializedVersion: 2
      path: 4162974765
      attribute: 3
      script: {fileID: 0}
      typeID: 4
      customType: 0
      isPPtrCurve: 0
    - serializedVersion: 2
      path: 3787453774
      attribute: 3
      script: {fileID: 0}
      typeID: 4
      customType: 0
      isPPtrCurve: 0
    pptrCurveMapping: []
  m_AnimationClipSettings:
    serializedVersion: 2
    m_AdditiveReferencePoseClip: {fileID: 0}
    m_AdditiveReferencePoseTime: 0
    m_StartTime: 0
    m_StopTime: 0.4666667
    m_OrientationOffsetY: 0
    m_Level: 0
    m_CycleOffset: 0
    m_HasAdditiveReferencePose: 0
    m_LoopTime: 0
    m_LoopBlend: 0
    m_LoopBlendOrientation: 0
    m_LoopBlendPositionY: 0
    m_LoopBlendPositionXZ: 0
    m_KeepOriginalOrientation: 0
    m_KeepOriginalPositionY: 0
    m_KeepOriginalPositionXZ: 0
    m_HeightFromFeet: 0
    m_Mirror: 0
  m_EditorCurves: []
  m_EulerEditorCurves: []
  m_HasGenericRootTransform: 0
  m_HasMotionFloatCurves: 0
  m_GenerateMotionCurves: 0
  m_Events:
  - time: 0
    functionName: OnClipStart
    data: 
    objectReferenceParameter: {fileID: 0}
    floatParameter: 0
    intParameter: 10500082
    messageOptions: 0
  - time: 0.4666667
    functionName: OnClipEnd
    data: 
    objectReferenceParameter: {fileID: 0}
    floatParameter: 0
    intParameter: 10500082
    messageOptions: 0
