%YAML 1.1
%TAG !u! tag:unity3d.com,2011:
--- !u!74 &7400000
AnimationClip:
  m_ObjectHideFlags: 0
  m_PrefabParentObject: {fileID: 0}
  m_PrefabInternal: {fileID: 0}
  m_Name: Anim_10500348
  serializedVersion: 6
  m_Legacy: 0
  m_Compressed: 0
  m_UseHighQualityCurve: 1
  m_RotationCurves:
  - curve:
      serializedVersion: 2
      m_Curve:
      - serializedVersion: 2
        time: 0
        value: {x: 0, y: 0, z: -0, w: 1}
        inSlope: {x: 0, y: 0, z: 0, w: 0}
        outSlope: {x: 0, y: 0, z: 0, w: 0}
        tangentMode: 0
      - serializedVersion: 2
        time: 0.46666682
        value: {x: 0, y: 0, z: -0, w: 1}
        inSlope: {x: 0, y: 0, z: 0, w: 0}
        outSlope: {x: 0, y: 0, z: 0, w: 0}
        tangentMode: 0
      m_PreInfinity: 2
      m_PostInfinity: 2
      m_RotationOrder: 4
    path: Tool_NestFixture_X402
  - curve:
      serializedVersion: 2
      m_Curve:
      - serializedVersion: 2
        time: 0
        value: {x: 0, y: -0, z: -0, w: 1}
        inSlope: {x: 0, y: 0, z: 0, w: 0}
        outSlope: {x: 0, y: 0, z: 0, w: 0}
        tangentMode: 0
      - serializedVersion: 2
        time: 0.46666682
        value: {x: 0, y: -0, z: -0, w: 1}
        inSlope: {x: 0, y: 0, z: 0, w: 0}
        outSlope: {x: 0, y: 0, z: 0, w: 0}
        tangentMode: 0
      m_PreInfinity: 2
      m_PostInfinity: 2
      m_RotationOrder: 4
    path: Tool_NestFixture_X402/Tool_NestFixture_X403
  m_CompressedRotationCurves: []
  m_EulerCurves: []
  m_PositionCurves:
  - curve:
      serializedVersion: 2
      m_Curve:
      - serializedVersion: 2
        time: 0
        value: {x: -0.12002051, y: -0.0010769889, z: 4.1313013e-17}
        inSlope: {x: 0, y: 0, z: 0}
        outSlope: {x: 0, y: 0, z: 0}
        tangentMode: 0
      - serializedVersion: 2
        time: 0.4333334
        value: {x: -0.12002051, y: -0.0010769889, z: 4.1313013e-17}
        inSlope: {x: -3.7172552e-16, y: -1.16164224e-17, z: -1.0455021e-30}
        outSlope: {x: -0.00011544819, y: 0.000020353591, z: 4.952396e-31}
        tangentMode: 0
      - serializedVersion: 2
        time: 0.4666667
        value: {x: -0.82116187, y: 0.121408835, z: 4.1313013e-17}
        inSlope: {x: 0.0000037612156, y: -0.0000009338013, z: -1.0455058e-30}
        outSlope: {x: 0.0000037612156, y: -0.0000009338013, z: -1.0455058e-30}
        tangentMode: 0
      m_PreInfinity: 2
      m_PostInfinity: 2
      m_RotationOrder: 4
    path: Tool_NestFixture_X402
  - curve:
      serializedVersion: 2
      m_Curve:
      - serializedVersion: 2
        time: 0
        value: {x: 0, y: 0, z: 0.22119907}
        inSlope: {x: 0, y: 0, z: 0}
        outSlope: {x: 0, y: 0, z: 0}
        tangentMode: 0
      - serializedVersion: 2
        time: 0.16666675
        value: {x: -0, y: 0, z: 0.22119907}
        inSlope: {x: -0, y: -0, z: 7.4345104e-16}
        outSlope: {x: -0, y: 2.3430422e-13, z: -0.000006811025}
        tangentMode: 0
      - serializedVersion: 2
        time: 0.20000005
        value: {x: -0, y: 0.0000000020547835, z: 0.17409614}
        inSlope: {x: -0, y: 0.00000008804833, z: -2.0183816}
        outSlope: {x: -0, y: 0.00000008804893, z: -2.01839}
        tangentMode: 0
      - serializedVersion: 2
        time: 0.23333335
        value: {x: -0, y: 0.0000000058699055, z: 0.08664002}
        inSlope: {x: -0, y: 0.00000008804893, z: -2.018392}
        outSlope: {x: -0, y: 0.0000000880483, z: -2.0183787}
        tangentMode: 0
      - serializedVersion: 2
        time: 0.26666665
        value: {x: -0, y: 0.0000000079246885, z: 0.039537117}
        inSlope: {x: -0, y: 1.0896787e-13, z: -0.0000050761023}
        outSlope: {x: -0, y: 5.8936887e-12, z: -0.00013525492}
        tangentMode: 0
      - serializedVersion: 2
        time: 0.30000007
        value: {x: -0, y: 0, z: 0.22119907}
        inSlope: {x: -0, y: 5.576483e-12, z: -0.00012673998}
        outSlope: {x: -0, y: -0, z: 1.7347252e-15}
        tangentMode: 0
      - serializedVersion: 2
        time: 0.39999998
        value: {x: -0, y: 0, z: 0.22119907}
        inSlope: {x: -0, y: -0, z: 7.434537e-16}
        outSlope: {x: -0, y: -0, z: 0.00007490409}
        tangentMode: 0
      - serializedVersion: 2
        time: 0.4333334
        value: {x: -0, y: 0, z: 0.12310791}
        inSlope: {x: -0, y: -0, z: 0.0000621317}
        outSlope: {x: -0, y: -0, z: 2.6020878e-15}
        tangentMode: 0
      - serializedVersion: 2
        time: 0.4666667
        value: {x: -0, y: 0, z: 0.12310791}
        inSlope: {x: -0, y: -0, z: 1.1151805e-15}
        outSlope: {x: -0, y: -0, z: 1.1151805e-15}
        tangentMode: 0
      m_PreInfinity: 2
      m_PostInfinity: 2
      m_RotationOrder: 4
    path: Tool_NestFixture_X402/Tool_NestFixture_X403
  m_ScaleCurves:
  - curve:
      serializedVersion: 2
      m_Curve:
      - serializedVersion: 2
        time: 0
        value: {x: 1, y: 1, z: 1}
        inSlope: {x: 0, y: 0, z: 0}
        outSlope: {x: 0, y: 0, z: 0}
        tangentMode: 0
      - serializedVersion: 2
        time: 0.46666682
        value: {x: 1, y: 1, z: 1}
        inSlope: {x: 0, y: 0, z: 0}
        outSlope: {x: 0, y: 0, z: 0}
        tangentMode: 0
      m_PreInfinity: 2
      m_PostInfinity: 2
      m_RotationOrder: 4
    path: Tool_NestFixture_X402
  - curve:
      serializedVersion: 2
      m_Curve:
      - serializedVersion: 2
        time: 0
        value: {x: 1, y: 1, z: 1}
        inSlope: {x: 0, y: 0, z: 0}
        outSlope: {x: 0, y: 0, z: 0}
        tangentMode: 0
      - serializedVersion: 2
        time: 0.46666682
        value: {x: 1, y: 1, z: 1}
        inSlope: {x: 0, y: 0, z: 0}
        outSlope: {x: 0, y: 0, z: 0}
        tangentMode: 0
      m_PreInfinity: 2
      m_PostInfinity: 2
      m_RotationOrder: 4
    path: Tool_NestFixture_X402/Tool_NestFixture_X403
  m_FloatCurves: []
  m_PPtrCurves: []
  m_SampleRate: 30
  m_WrapMode: 0
  m_Bounds:
    m_Center: {x: 0, y: 0, z: 0}
    m_Extent: {x: 0, y: 0, z: 0}
  m_ClipBindingConstant:
    genericBindings:
    - serializedVersion: 2
      path: 2293264191
      attribute: 1
      script: {fileID: 0}
      typeID: 4
      customType: 0
      isPPtrCurve: 0
    - serializedVersion: 2
      path: 2452289619
      attribute: 1
      script: {fileID: 0}
      typeID: 4
      customType: 0
      isPPtrCurve: 0
    - serializedVersion: 2
      path: 2293264191
      attribute: 2
      script: {fileID: 0}
      typeID: 4
      customType: 0
      isPPtrCurve: 0
    - serializedVersion: 2
      path: 2452289619
      attribute: 2
      script: {fileID: 0}
      typeID: 4
      customType: 0
      isPPtrCurve: 0
    - serializedVersion: 2
      path: 2293264191
      attribute: 3
      script: {fileID: 0}
      typeID: 4
      customType: 0
      isPPtrCurve: 0
    - serializedVersion: 2
      path: 2452289619
      attribute: 3
      script: {fileID: 0}
      typeID: 4
      customType: 0
      isPPtrCurve: 0
    pptrCurveMapping: []
  m_AnimationClipSettings:
    serializedVersion: 2
    m_AdditiveReferencePoseClip: {fileID: 0}
    m_AdditiveReferencePoseTime: 0
    m_StartTime: 0
    m_StopTime: 0.46666682
    m_OrientationOffsetY: 0
    m_Level: 0
    m_CycleOffset: 0
    m_HasAdditiveReferencePose: 0
    m_LoopTime: 0
    m_LoopBlend: 0
    m_LoopBlendOrientation: 0
    m_LoopBlendPositionY: 0
    m_LoopBlendPositionXZ: 0
    m_KeepOriginalOrientation: 0
    m_KeepOriginalPositionY: 0
    m_KeepOriginalPositionXZ: 0
    m_HeightFromFeet: 0
    m_Mirror: 0
  m_EditorCurves: []
  m_EulerEditorCurves: []
  m_HasGenericRootTransform: 0
  m_HasMotionFloatCurves: 0
  m_GenerateMotionCurves: 0
  m_Events:
  - time: 0
    functionName: OnClipStart
    data: 
    objectReferenceParameter: {fileID: 0}
    floatParameter: 0
    intParameter: 10500348
    messageOptions: 0
  - time: 0.46666682
    functionName: OnClipEnd
    data: 
    objectReferenceParameter: {fileID: 0}
    floatParameter: 0
    intParameter: 10500348
    messageOptions: 0
