%YAML 1.1
%TAG !u! tag:unity3d.com,2011:
--- !u!74 &7400000
AnimationClip:
  m_ObjectHideFlags: 0
  m_PrefabParentObject: {fileID: 0}
  m_PrefabInternal: {fileID: 0}
  m_Name: Anim_10500255
  serializedVersion: 6
  m_Legacy: 0
  m_Compressed: 0
  m_UseHighQualityCurve: 1
  m_RotationCurves:
  - curve:
      serializedVersion: 2
      m_Curve:
      - serializedVersion: 2
        time: 0
        value: {x: 0.7071068, y: 0.00000036608247, z: 0.7071068, w: -0.00000036608247}
        inSlope: {x: 0, y: -0.00000061013304, z: 0, w: 0.00000061013304}
        outSlope: {x: 0, y: -0.00000061013304, z: 0, w: 0.00000061013304}
        tangentMode: 0
      - serializedVersion: 2
        time: 0.3000002
        value: {x: 0.7071068, y: 2.0030707e-16, z: 0.7071068, w: -2.0030707e-16}
        inSlope: {x: 0, y: 0, z: 0, w: 0}
        outSlope: {x: 0, y: 0, z: 0, w: 0}
        tangentMode: 0
      - serializedVersion: 2
        time: 0.3333335
        value: {x: 0.7071068, y: 2.0030707e-16, z: 0.7071068, w: -2.0030707e-16}
        inSlope: {x: -0.36152458, y: -2.7456133, z: -0.36152458, w: 2.7456133}
        outSlope: {x: -0.36152458, y: -2.7456133, z: -0.36152458, w: 2.7456133}
        tangentMode: 0
      - serializedVersion: 2
        time: 0.3666668
        value: {x: 0.6830052, y: -0.18304071, z: 0.6830052, w: 0.18304071}
        inSlope: {x: -3.1066337, y: -7.500022, z: -3.1066337, w: 7.500022}
        outSlope: {x: -3.1066337, y: -7.500022, z: -3.1066337, w: 7.500022}
        tangentMode: 0
      - serializedVersion: 2
        time: 0.40000033
        value: {x: 0.4999968, y: -0.5000032, z: 0.4999968, w: 0.5000032}
        inSlope: {x: -10.245069, y: -7.8609657, z: -10.245069, w: 7.8609657}
        outSlope: {x: -10.245069, y: -7.8609657, z: -10.245069, w: 7.8609657}
        tangentMode: 0
      - serializedVersion: 2
        time: 0.43333364
        value: {x: 1.7319123e-16, y: -0.7071068, z: 1.7319123e-16, w: 0.7071068}
        inSlope: {x: -7.4999595, y: -3.1065571, z: -7.4999595, w: 3.1065571}
        outSlope: {x: -7.4999595, y: -3.1065571, z: -7.4999595, w: 3.1065571}
        tangentMode: 0
      - serializedVersion: 2
        time: 0.4666667
        value: {x: 1.7319123e-16, y: -0.7071068, z: 1.7319123e-16, w: 0.7071068}
        inSlope: {x: 0, y: 0, z: 0, w: 0}
        outSlope: {x: 0, y: 0, z: 0, w: 0}
        tangentMode: 0
      m_PreInfinity: 2
      m_PostInfinity: 2
      m_RotationOrder: 4
    path: Tool_Screwdriver02
  m_CompressedRotationCurves: []
  m_EulerCurves: []
  m_PositionCurves:
  - curve:
      serializedVersion: 2
      m_Curve:
      - serializedVersion: 2
        time: 0
        value: {x: -0.15074158, y: -0.18056297, z: 0.18492174}
        inSlope: {x: 0, y: 0, z: 0}
        outSlope: {x: 0, y: 0, z: 0}
        tangentMode: 0
      - serializedVersion: 2
        time: 0.10000014
        value: {x: -0.15074158, y: -0.18056297, z: 0.18492174}
        inSlope: {x: -7.434484e-16, y: -0, z: 7.434484e-16}
        outSlope: {x: 0.00008503726, y: 0.00016437874, z: -0.000014698211}
        tangentMode: 0
      - serializedVersion: 2
        time: 0.13333344
        value: {x: -0.011749268, y: 0.09470558, z: 0.14219713}
        inSlope: {x: -0.00005918483, y: -0.00011927577, z: -0.8800781}
        outSlope: {x: -3.2526097e-16, y: 1.7347252e-15, z: -0.88010955}
        tangentMode: 0
      - serializedVersion: 2
        time: 0.16666675
        value: {x: -0.011749268, y: 0.09470558, z: 0.12624821}
        inSlope: {x: -1.3939756e-16, y: 7.434537e-16, z: -0.3186013}
        outSlope: {x: -3.2526097e-16, y: 1.7347252e-15, z: -0.31860572}
        tangentMode: 0
      - serializedVersion: 2
        time: 0.20000005
        value: {x: -0.011749268, y: 0.09470558, z: 0.1209569}
        inSlope: {x: -1.3939756e-16, y: 7.434537e-16, z: 0.0000005723619}
        outSlope: {x: -3.2526097e-16, y: 1.7347252e-15, z: 0.0000010793893}
        tangentMode: 0
      - serializedVersion: 2
        time: 0.26666665
        value: {x: -0.011749268, y: 0.09470558, z: 0.13804674}
        inSlope: {x: -1.3939756e-16, y: 7.434537e-16, z: 0.0000013454817}
        outSlope: {x: -3.2526097e-16, y: 0.0000044625476, z: 1.7347252e-15}
        tangentMode: 0
      - serializedVersion: 2
        time: 0.29999995
        value: {x: -0.011749268, y: 0.070261, z: 0.13804674}
        inSlope: {x: -1.3939756e-16, y: -0.73334944, z: 7.434537e-16}
        outSlope: {x: -3.2526097e-16, y: -0.7333245, z: 1.7347252e-15}
        tangentMode: 0
      - serializedVersion: 2
        time: 0.33333325
        value: {x: -0.011749268, y: 0.04581642, z: 0.13804674}
        inSlope: {x: -1.3939756e-16, y: -0.000008442934, z: 7.434537e-16}
        outSlope: {x: -3.2525864e-16, y: 1.3010346e-15, z: 0.00000893954}
        tangentMode: 0
      - serializedVersion: 2
        time: 0.4000001
        value: {x: -0.011749268, y: 0.04581642, z: 0.119492054}
        inSlope: {x: -1.3939756e-16, y: 5.5759025e-16, z: 0.0000025533852}
        outSlope: {x: -3.2526097e-16, y: 1.3010439e-15, z: 8.673626e-16}
        tangentMode: 0
      - serializedVersion: 2
        time: 0.4333334
        value: {x: -0.011749268, y: 0.04581642, z: 0.119492054}
        inSlope: {x: -1.3939756e-16, y: 5.5759025e-16, z: 3.7172684e-16}
        outSlope: {x: 0.000028141292, y: 0.000015172954, z: 0.000024933297}
        tangentMode: 0
      - serializedVersion: 2
        time: 0.4666667
        value: {x: 0.15454102, y: 0.13602638, z: 0.265244}
        inSlope: {x: 0.00000020158922, y: -0.00000079259115, z: -0.0000006115753}
        outSlope: {x: -0, y: 1.9825429e-15, z: 3.9650857e-15}
        tangentMode: 0
      m_PreInfinity: 2
      m_PostInfinity: 2
      m_RotationOrder: 4
    path: Tool_Screwdriver02
  m_ScaleCurves:
  - curve:
      serializedVersion: 2
      m_Curve:
      - serializedVersion: 2
        time: 0
        value: {x: 1, y: 1, z: 1}
        inSlope: {x: 0, y: 0, z: 0}
        outSlope: {x: 0, y: 0, z: 0}
        tangentMode: 0
      - serializedVersion: 2
        time: 0.4666667
        value: {x: 1, y: 1, z: 1}
        inSlope: {x: 0, y: 0, z: 0}
        outSlope: {x: 0, y: 0, z: 0}
        tangentMode: 0
      m_PreInfinity: 2
      m_PostInfinity: 2
      m_RotationOrder: 4
    path: Tool_Screwdriver02
  m_FloatCurves: []
  m_PPtrCurves: []
  m_SampleRate: 30
  m_WrapMode: 0
  m_Bounds:
    m_Center: {x: 0, y: 0, z: 0}
    m_Extent: {x: 0, y: 0, z: 0}
  m_ClipBindingConstant:
    genericBindings:
    - serializedVersion: 2
      path: 1491648166
      attribute: 1
      script: {fileID: 0}
      typeID: 4
      customType: 0
      isPPtrCurve: 0
    - serializedVersion: 2
      path: 1491648166
      attribute: 2
      script: {fileID: 0}
      typeID: 4
      customType: 0
      isPPtrCurve: 0
    - serializedVersion: 2
      path: 1491648166
      attribute: 3
      script: {fileID: 0}
      typeID: 4
      customType: 0
      isPPtrCurve: 0
    pptrCurveMapping: []
  m_AnimationClipSettings:
    serializedVersion: 2
    m_AdditiveReferencePoseClip: {fileID: 0}
    m_AdditiveReferencePoseTime: 0
    m_StartTime: 0
    m_StopTime: 0.4666667
    m_OrientationOffsetY: 0
    m_Level: 0
    m_CycleOffset: 0
    m_HasAdditiveReferencePose: 0
    m_LoopTime: 0
    m_LoopBlend: 0
    m_LoopBlendOrientation: 0
    m_LoopBlendPositionY: 0
    m_LoopBlendPositionXZ: 0
    m_KeepOriginalOrientation: 0
    m_KeepOriginalPositionY: 0
    m_KeepOriginalPositionXZ: 0
    m_HeightFromFeet: 0
    m_Mirror: 0
  m_EditorCurves: []
  m_EulerEditorCurves: []
  m_HasGenericRootTransform: 0
  m_HasMotionFloatCurves: 0
  m_GenerateMotionCurves: 0
  m_Events:
  - time: 0
    functionName: OnClipStart
    data: 
    objectReferenceParameter: {fileID: 0}
    floatParameter: 0
    intParameter: 10500255
    messageOptions: 0
  - time: 0.4666667
    functionName: OnClipEnd
    data: 
    objectReferenceParameter: {fileID: 0}
    floatParameter: 0
    intParameter: 10500255
    messageOptions: 0
