%YAML 1.1
%TAG !u! tag:unity3d.com,2011:
--- !u!74 &7400000
AnimationClip:
  m_ObjectHideFlags: 0
  m_PrefabParentObject: {fileID: 0}
  m_PrefabInternal: {fileID: 0}
  m_Name: Anim_10500257
  serializedVersion: 6
  m_Legacy: 0
  m_Compressed: 0
  m_UseHighQualityCurve: 1
  m_RotationCurves:
  - curve:
      serializedVersion: 2
      m_Curve:
      - serializedVersion: 2
        time: 0
        value: {x: 0.65859735, y: -0.0000009545042, z: -0.7524955, w: -0.00000092985533}
        inSlope: {x: 0, y: 0, z: 0, w: 0}
        outSlope: {x: 0, y: 0, z: 0, w: 0}
        tangentMode: 0
      - serializedVersion: 2
        time: 0.0666666
        value: {x: 0.65859735, y: -0.0000009545042, z: -0.7524955, w: -0.00000092985533}
        inSlope: {x: 0, y: -0.000000014310708, z: 0, w: -0.000000016350223}
        outSlope: {x: 0, y: -0.000000014310708, z: 0, w: -0.000000016350223}
        tangentMode: 0
      - serializedVersion: 2
        time: 0.10000038
        value: {x: 0.65859735, y: -0.0000009554583, z: -0.7524955, w: -0.00000093094536}
        inSlope: {x: -2.8935351, y: -6.9855824, z: 3.3060734, w: -7.9815383}
        outSlope: {x: -2.8935351, y: -6.9855824, z: 3.3060734, w: -7.9815383}
        tangentMode: 0
      - serializedVersion: 2
        time: 0.1333332
        value: {x: 0.46569794, y: -0.46569934, z: -0.532094, w: -0.5320954}
        inSlope: {x: -2.8935351, y: -6.9855824, z: 3.3060734, w: -7.9815383}
        outSlope: {x: -2.8935351, y: -6.9855824, z: 3.3060734, w: -7.9815383}
        tangentMode: 0
      - serializedVersion: 2
        time: 0.16666698
        value: {x: 0.46569794, y: -0.46569934, z: -0.532094, w: -0.5320954}
        inSlope: {x: 0, y: 0, z: 0, w: 0}
        outSlope: {x: 0, y: 0, z: 0, w: 0}
        tangentMode: 0
      - serializedVersion: 2
        time: 0.46666622
        value: {x: 0.46569794, y: -0.46569934, z: -0.532094, w: -0.5320954}
        inSlope: {x: 0, y: 0, z: 0, w: 0}
        outSlope: {x: 0, y: 0, z: 0, w: 0}
        tangentMode: 0
      m_PreInfinity: 2
      m_PostInfinity: 2
      m_RotationOrder: 4
    path: Tool_Tweezers02
  - curve:
      serializedVersion: 2
      m_Curve:
      - serializedVersion: 2
        time: 0
        value: {x: 0, y: -0.05934489, z: 0, w: 0.9982312}
        inSlope: {x: 0, y: 0.054177955, z: 0, w: 0.0033271345}
        outSlope: {x: 0, y: 0.054177955, z: 0, w: 0.0033271345}
        tangentMode: 0
      - serializedVersion: 2
        time: 0.0666666
        value: {x: 0, y: -0.057237975, z: -0, w: 0.9983606}
        inSlope: {x: 0, y: 0, z: 0, w: 0}
        outSlope: {x: 0, y: 0, z: 0, w: 0}
        tangentMode: 0
      - serializedVersion: 2
        time: 0.4333334
        value: {x: 0, y: -0.057237975, z: -0, w: 0.9983606}
        inSlope: {x: 0, y: 0.10674472, z: 0, w: 0.006501774}
        outSlope: {x: 0, y: 0.10674472, z: 0, w: 0.006501774}
        tangentMode: 0
      - serializedVersion: 2
        time: 0.46666622
        value: {x: 0, y: -0.05496077, z: 0, w: 0.9984993}
        inSlope: {x: 0, y: 0.034159344, z: 0, w: 0.002080675}
        outSlope: {x: 0, y: 0.034159344, z: 0, w: 0.002080675}
        tangentMode: 0
      m_PreInfinity: 2
      m_PostInfinity: 2
      m_RotationOrder: 4
    path: Tool_Tweezers02/Tool_Tweezers03
  m_CompressedRotationCurves: []
  m_EulerCurves: []
  m_PositionCurves:
  - curve:
      serializedVersion: 2
      m_Curve:
      - serializedVersion: 2
        time: 0
        value: {x: 0.18576239, y: -0.03270182, z: 0.27096212}
        inSlope: {x: 0, y: 0, z: 0}
        outSlope: {x: 0, y: 0, z: 0}
        tangentMode: 0
      - serializedVersion: 2
        time: 0.09999943
        value: {x: 0.18576239, y: -0.03270182, z: 0.27096212}
        inSlope: {x: 6.9389998e-15, y: -2.7879912e-16, z: 2.230393e-15}
        outSlope: {x: -0.00014678818, y: 0.00016934295, z: -0.000036601235}
        tangentMode: 0
      - serializedVersion: 2
        time: 0.1333332
        value: {x: -0.064314, y: 0.25326926, z: 0.19051778}
        inSlope: {x: -0.3843561, y: 0.09659373, z: -1.201416}
        outSlope: {x: -0.38450223, y: 0.09673172, z: -1.2015721}
        tangentMode: 0
      - serializedVersion: 2
        time: 0.16666603
        value: {x: -0.06858591, y: 0.25434393, z: 0.17716807}
        inSlope: {x: -0.054995276, y: 0.013837427, z: -0.17186277}
        outSlope: {x: -0.054980546, y: 0.013832392, z: -0.17181364}
        tangentMode: 0
      - serializedVersion: 2
        time: 0.19999981
        value: {x: -0.06919681, y: 0.2544976, z: 0.175259}
        inSlope: {x: -0.00000025380652, y: 0.00000004216213, z: 0.000000835317}
        outSlope: {x: -4.3368749e-16, y: -0, z: 0.00006389531}
        tangentMode: 0
      - serializedVersion: 2
        time: 0.2666664
        value: {x: -0.06919681, y: 0.2544976, z: 0.19894063}
        inSlope: {x: -1.8586076e-16, y: -0, z: 0.0000010965709}
        outSlope: {x: -0.000189001, y: 0.00014616315, z: -0.000011613257}
        tangentMode: 0
      - serializedVersion: 2
        time: 0.29999924
        value: {x: -0.10531989, y: 0.28266647, z: 0.19619322}
        inSlope: {x: -1.0839499, y: 0.8452678, z: -0.1648167}
        outSlope: {x: -1.0836565, y: 0.8450392, z: -0.16479044}
        tangentMode: 0
      - serializedVersion: 2
        time: 0.33333302
        value: {x: -0.14144297, y: 0.31083536, z: 0.1879543}
        inSlope: {x: -0.00001386671, y: 0.000009921582, z: -0.41195908}
        outSlope: {x: -2.602125e-15, y: 6.9389998e-15, z: -0.41206193}
        tangentMode: 0
      - serializedVersion: 2
        time: 0.36666584
        value: {x: -0.14144297, y: 0.31083536, z: 0.16872907}
        inSlope: {x: -1.1151965e-15, y: 2.9738573e-15, z: -0.4945092}
        outSlope: {x: -2.6020505e-15, y: 6.9388016e-15, z: -0.4943628}
        tangentMode: 0
      - serializedVersion: 2
        time: 0.39999962
        value: {x: -0.14144297, y: 0.31083536, z: 0.15499532}
        inSlope: {x: -1.1151646e-15, y: 2.9737722e-15, z: -0.0000063484745}
        outSlope: {x: -2.602125e-15, y: 6.9389998e-15, z: 1.7347499e-15}
        tangentMode: 0
      - serializedVersion: 2
        time: 0.43333244
        value: {x: -0.14144297, y: 0.31083536, z: 0.15499532}
        inSlope: {x: -1.1151965e-15, y: 2.9738573e-15, z: 7.434643e-16}
        outSlope: {x: 0.0001637816, y: 0.00019002339, z: -0.000102111095}
        tangentMode: 0
      - serializedVersion: 2
        time: 0.46666622
        value: {x: -0.28406686, y: 0.14140177, z: 0.24569356}
        inSlope: {x: -0.00017681181, y: -0.0002186887, z: 0.0001150172}
        outSlope: {x: -5.204101e-15, y: 1.7347004e-15, z: 3.4694008e-15}
        tangentMode: 0
      m_PreInfinity: 2
      m_PostInfinity: 2
      m_RotationOrder: 4
    path: Tool_Tweezers02
  - curve:
      serializedVersion: 2
      m_Curve:
      - serializedVersion: 2
        time: 0
        value: {x: 0.008098871, y: 5.6736277e-10, z: -0.0012252554}
        inSlope: {x: 0, y: 0, z: 0}
        outSlope: {x: 0, y: 0, z: 0}
        tangentMode: 0
      - serializedVersion: 2
        time: 0.46666622
        value: {x: 0.008098871, y: 5.6736277e-10, z: -0.0012252554}
        inSlope: {x: 0, y: 0, z: 0}
        outSlope: {x: 0, y: 0, z: 0}
        tangentMode: 0
      m_PreInfinity: 2
      m_PostInfinity: 2
      m_RotationOrder: 4
    path: Tool_Tweezers02/Tool_Tweezers03
  m_ScaleCurves:
  - curve:
      serializedVersion: 2
      m_Curve:
      - serializedVersion: 2
        time: 0
        value: {x: 1, y: 1, z: 1}
        inSlope: {x: 0, y: 0, z: 0}
        outSlope: {x: 0, y: 0, z: 0}
        tangentMode: 0
      - serializedVersion: 2
        time: 0.46666622
        value: {x: 1, y: 1, z: 1}
        inSlope: {x: 0, y: 0, z: 0}
        outSlope: {x: 0, y: 0, z: 0}
        tangentMode: 0
      m_PreInfinity: 2
      m_PostInfinity: 2
      m_RotationOrder: 4
    path: Tool_Tweezers02
  - curve:
      serializedVersion: 2
      m_Curve:
      - serializedVersion: 2
        time: 0
        value: {x: 1, y: 1, z: 1}
        inSlope: {x: 0, y: 0, z: 0}
        outSlope: {x: 0, y: 0, z: 0}
        tangentMode: 0
      - serializedVersion: 2
        time: 0.46666622
        value: {x: 1, y: 1, z: 1}
        inSlope: {x: 0, y: 0, z: 0}
        outSlope: {x: 0, y: 0, z: 0}
        tangentMode: 0
      m_PreInfinity: 2
      m_PostInfinity: 2
      m_RotationOrder: 4
    path: Tool_Tweezers02/Tool_Tweezers03
  m_FloatCurves: []
  m_PPtrCurves: []
  m_SampleRate: 30
  m_WrapMode: 0
  m_Bounds:
    m_Center: {x: 0, y: 0, z: 0}
    m_Extent: {x: 0, y: 0, z: 0}
  m_ClipBindingConstant:
    genericBindings:
    - serializedVersion: 2
      path: 4162974765
      attribute: 1
      script: {fileID: 0}
      typeID: 4
      customType: 0
      isPPtrCurve: 0
    - serializedVersion: 2
      path: 4162974765
      attribute: 2
      script: {fileID: 0}
      typeID: 4
      customType: 0
      isPPtrCurve: 0
    - serializedVersion: 2
      path: 3787453774
      attribute: 2
      script: {fileID: 0}
      typeID: 4
      customType: 0
      isPPtrCurve: 0
    - serializedVersion: 2
      path: 3787453774
      attribute: 1
      script: {fileID: 0}
      typeID: 4
      customType: 0
      isPPtrCurve: 0
    - serializedVersion: 2
      path: 4162974765
      attribute: 3
      script: {fileID: 0}
      typeID: 4
      customType: 0
      isPPtrCurve: 0
    - serializedVersion: 2
      path: 3787453774
      attribute: 3
      script: {fileID: 0}
      typeID: 4
      customType: 0
      isPPtrCurve: 0
    pptrCurveMapping: []
  m_AnimationClipSettings:
    serializedVersion: 2
    m_AdditiveReferencePoseClip: {fileID: 0}
    m_AdditiveReferencePoseTime: 0
    m_StartTime: 0
    m_StopTime: 0.46666622
    m_OrientationOffsetY: 0
    m_Level: 0
    m_CycleOffset: 0
    m_HasAdditiveReferencePose: 0
    m_LoopTime: 0
    m_LoopBlend: 0
    m_LoopBlendOrientation: 0
    m_LoopBlendPositionY: 0
    m_LoopBlendPositionXZ: 0
    m_KeepOriginalOrientation: 0
    m_KeepOriginalPositionY: 0
    m_KeepOriginalPositionXZ: 0
    m_HeightFromFeet: 0
    m_Mirror: 0
  m_EditorCurves: []
  m_EulerEditorCurves: []
  m_HasGenericRootTransform: 0
  m_HasMotionFloatCurves: 0
  m_GenerateMotionCurves: 0
  m_Events:
  - time: 0
    functionName: OnClipStart
    data: 
    objectReferenceParameter: {fileID: 0}
    floatParameter: 0
    intParameter: 10500257
    messageOptions: 0
  - time: 0.46666622
    functionName: OnClipEnd
    data: 
    objectReferenceParameter: {fileID: 0}
    floatParameter: 0
    intParameter: 10500257
    messageOptions: 0
