%YAML 1.1
%TAG !u! tag:unity3d.com,2011:
--- !u!74 &7400000
AnimationClip:
  m_ObjectHideFlags: 0
  m_PrefabParentObject: {fileID: 0}
  m_PrefabInternal: {fileID: 0}
  m_Name: Anim_10500134
  serializedVersion: 6
  m_Legacy: 0
  m_Compressed: 0
  m_UseHighQualityCurve: 1
  m_RotationCurves:
  - curve:
      serializedVersion: 2
      m_Curve:
      - serializedVersion: 2
        time: 0
        value: {x: -0.53964186, y: 0.58674747, z: 0.43865052, w: -0.41484916}
        inSlope: {x: 0, y: 0, z: 0, w: 0}
        outSlope: {x: 0, y: 0, z: 0, w: 0}
        tangentMode: 0
      - serializedVersion: 2
        time: 0.3333335
        value: {x: -0.53964186, y: 0.58674747, z: 0.43865052, w: -0.41484916}
        inSlope: {x: 0, y: 0, z: 0, w: 0}
        outSlope: {x: 0, y: 0, z: 0, w: 0}
        tangentMode: 0
      - serializedVersion: 2
        time: 0.3666668
        value: {x: -0.53964186, y: 0.58674747, z: 0.43865052, w: -0.41484916}
        inSlope: {x: 8.620479, y: 3.7265449, z: -1.7584351, w: 12.896111}
        outSlope: {x: 8.620479, y: 3.7265449, z: -1.7584351, w: 12.896111}
        tangentMode: 0
      - serializedVersion: 2
        time: 0.4000001
        value: {x: 0.035056155, y: 0.83518356, z: 0.32142162, w: 0.4448907}
        inSlope: {x: 1.8909402, y: -7.614475, z: 5.4331417, w: 12.609943}
        outSlope: {x: 1.8909402, y: -7.614475, z: 5.4331417, w: 12.609943}
        tangentMode: 0
      - serializedVersion: 2
        time: 0.4333334
        value: {x: -0.41357931, y: 0.0791163, z: 0.80085963, w: 0.42581293}
        inSlope: {x: -0.52584267, y: -12.527765, z: -4.821329, w: 8.326647}
        outSlope: {x: -0.52584267, y: -12.527765, z: -4.821329, w: 8.326647}
        tangentMode: 0
      - serializedVersion: 2
        time: 0.4666667
        value: {x: 0, y: 0, z: -0, w: 1}
        inSlope: {x: 12.407392, y: -2.3734913, z: -24.025812, w: 17.225628}
        outSlope: {x: 12.407392, y: -2.3734913, z: -24.025812, w: 17.225628}
        tangentMode: 0
      m_PreInfinity: 2
      m_PostInfinity: 2
      m_RotationOrder: 4
    path: Tool_HandPinch02
  m_CompressedRotationCurves: []
  m_EulerCurves: []
  m_PositionCurves:
  - curve:
      serializedVersion: 2
      m_Curve:
      - serializedVersion: 2
        time: 0
        value: {x: 0.37841272, y: -0.091377765, z: 0.17595288}
        inSlope: {x: 0, y: 0, z: 0}
        outSlope: {x: 0, y: 0, z: 0}
        tangentMode: 0
      - serializedVersion: 2
        time: 0.099999905
        value: {x: 0.37841272, y: -0.091377765, z: 0.17595288}
        inSlope: {x: 1.4869074e-15, y: -0, z: -0}
        outSlope: {x: 0.0000403949, y: 0.00018422265, z: -0.000028813414}
        tangentMode: 0
      - serializedVersion: 2
        time: 0.1333332
        value: {x: 0.44350225, y: 0.21587321, z: 0.12652281}
        inSlope: {x: -0.000031982232, y: -0.00013189514, z: 0.000022276328}
        outSlope: {x: 0.000090583635, y: 0.000088619396, z: 2.6020878e-15}
        tangentMode: 0
      - serializedVersion: 2
        time: 0.16666651
        value: {x: 0.3495298, y: 0.12486979, z: 0.12652281}
        inSlope: {x: -3.1497624, y: -2.8100302, z: 1.1151805e-15}
        outSlope: {x: -3.1495135, y: -2.8097842, z: 2.6020878e-15}
        tangentMode: 0
      - serializedVersion: 2
        time: 0.19999981
        value: {x: 0.2335372, y: 0.028556317, z: 0.12652281}
        inSlope: {x: -0.8363316, y: 0.0000026042424, z: 1.1151805e-15}
        outSlope: {x: -0.8363236, y: 4.336751e-16, z: 0.0000010004828}
        tangentMode: 0
      - serializedVersion: 2
        time: 0.23333359
        value: {x: 0.2242446, y: 0.028556317, z: 0.11858824}
        inSlope: {x: -0.3833727, y: 1.8586076e-16, z: 0.0000010004828}
        outSlope: {x: -0.3833787, y: 4.336813e-16, z: 1.7347252e-15}
        tangentMode: 0
      - serializedVersion: 2
        time: 0.2666669
        value: {x: 0.20797873, y: 0.028556317, z: 0.11858824}
        inSlope: {x: -0.34790543, y: 1.8586342e-16, z: 7.434537e-16}
        outSlope: {x: -0.34792307, y: 4.336813e-16, z: 1.7347252e-15}
        tangentMode: 0
      - serializedVersion: 2
        time: 0.3666668
        value: {x: 0.20105124, y: 0.028556317, z: 0.11858824}
        inSlope: {x: 0.0000006782017, y: 1.8586342e-16, z: 7.434537e-16}
        outSlope: {x: 0.00003963834, y: 0.00001100878, z: 0.0000066289786}
        tangentMode: 0
      - serializedVersion: 2
        time: 0.4000001
        value: {x: -0.022544054, y: -0.031468596, z: 0.087839626}
        inSlope: {x: -9.581476, y: -2.57218, z: -1.317635}
        outSlope: {x: -9.581754, y: -2.5722554, z: -1.3176728}
        tangentMode: 0
      - serializedVersion: 2
        time: 0.4333334
        value: {x: -0.43769398, y: -0.142917, z: 0.030748602}
        inSlope: {x: -9.580677, y: -2.5719652, z: -1.3175248}
        outSlope: {x: -9.580834, y: -2.5720026, z: -1.3175453}
        tangentMode: 0
      - serializedVersion: 2
        time: 0.4666667
        value: {x: -0.6612892, y: -0.2029419, z: 0}
        inSlope: {x: -0.0000983279, y: -0.000023532672, z: -0.000012510382}
        outSlope: {x: -0.0000983279, y: -0.000023532672, z: -0.000012510382}
        tangentMode: 0
      m_PreInfinity: 2
      m_PostInfinity: 2
      m_RotationOrder: 4
    path: Tool_HandPinch02
  m_ScaleCurves:
  - curve:
      serializedVersion: 2
      m_Curve:
      - serializedVersion: 2
        time: 0
        value: {x: 1, y: 1, z: 1}
        inSlope: {x: 0, y: 0, z: 0}
        outSlope: {x: 0, y: 0, z: 0}
        tangentMode: 0
      - serializedVersion: 2
        time: 0.4666667
        value: {x: 1, y: 1, z: 1}
        inSlope: {x: 0, y: 0, z: 0}
        outSlope: {x: 0, y: 0, z: 0}
        tangentMode: 0
      m_PreInfinity: 2
      m_PostInfinity: 2
      m_RotationOrder: 4
    path: Tool_HandPinch02
  m_FloatCurves: []
  m_PPtrCurves: []
  m_SampleRate: 30
  m_WrapMode: 0
  m_Bounds:
    m_Center: {x: 0, y: 0, z: 0}
    m_Extent: {x: 0, y: 0, z: 0}
  m_ClipBindingConstant:
    genericBindings:
    - serializedVersion: 2
      path: 651062355
      attribute: 1
      script: {fileID: 0}
      typeID: 4
      customType: 0
      isPPtrCurve: 0
    - serializedVersion: 2
      path: 651062355
      attribute: 2
      script: {fileID: 0}
      typeID: 4
      customType: 0
      isPPtrCurve: 0
    - serializedVersion: 2
      path: 651062355
      attribute: 3
      script: {fileID: 0}
      typeID: 4
      customType: 0
      isPPtrCurve: 0
    pptrCurveMapping: []
  m_AnimationClipSettings:
    serializedVersion: 2
    m_AdditiveReferencePoseClip: {fileID: 0}
    m_AdditiveReferencePoseTime: 0
    m_StartTime: 0
    m_StopTime: 0.4666667
    m_OrientationOffsetY: 0
    m_Level: 0
    m_CycleOffset: 0
    m_HasAdditiveReferencePose: 0
    m_LoopTime: 0
    m_LoopBlend: 0
    m_LoopBlendOrientation: 0
    m_LoopBlendPositionY: 0
    m_LoopBlendPositionXZ: 0
    m_KeepOriginalOrientation: 0
    m_KeepOriginalPositionY: 0
    m_KeepOriginalPositionXZ: 0
    m_HeightFromFeet: 0
    m_Mirror: 0
  m_EditorCurves: []
  m_EulerEditorCurves: []
  m_HasGenericRootTransform: 0
  m_HasMotionFloatCurves: 0
  m_GenerateMotionCurves: 0
  m_Events:
  - time: 0
    functionName: OnClipStart
    data: 
    objectReferenceParameter: {fileID: 0}
    floatParameter: 0
    intParameter: 10500134
    messageOptions: 0
  - time: 0.4666667
    functionName: OnClipEnd
    data: 
    objectReferenceParameter: {fileID: 0}
    floatParameter: 0
    intParameter: 10500134
    messageOptions: 0
