%YAML 1.1
%TAG !u! tag:unity3d.com,2011:
--- !u!74 &7400000
AnimationClip:
  m_ObjectHideFlags: 0
  m_PrefabParentObject: {fileID: 0}
  m_PrefabInternal: {fileID: 0}
  m_Name: Anim_10500225
  serializedVersion: 6
  m_Legacy: 0
  m_Compressed: 0
  m_UseHighQualityCurve: 1
  m_RotationCurves:
  - curve:
      serializedVersion: 2
      m_Curve:
      - serializedVersion: 2
        time: 0
        value: {x: 1.7319123e-16, y: -0.7071068, z: 1.7319123e-16, w: 0.7071068}
        inSlope: {x: 0, y: 0, z: 0, w: 0}
        outSlope: {x: 0, y: 0, z: 0, w: 0}
        tangentMode: 0
      - serializedVersion: 2
        time: 0.4666667
        value: {x: 1.7319123e-16, y: -0.7071068, z: 1.7319123e-16, w: 0.7071068}
        inSlope: {x: 0, y: 0, z: 0, w: 0}
        outSlope: {x: 0, y: 0, z: 0, w: 0}
        tangentMode: 0
      m_PreInfinity: 2
      m_PostInfinity: 2
      m_RotationOrder: 4
    path: Tool_Screwdriver02
  m_CompressedRotationCurves: []
  m_EulerCurves: []
  m_PositionCurves:
  - curve:
      serializedVersion: 2
      m_Curve:
      - serializedVersion: 2
        time: 0
        value: {x: -0.14874268, y: -0.064596176, z: 0.14885923}
        inSlope: {x: 0, y: 0, z: 0}
        outSlope: {x: 0, y: 0, z: 0}
        tangentMode: 0
      - serializedVersion: 2
        time: 0.10000014
        value: {x: -0.14874268, y: -0.064596176, z: 0.14885923}
        inSlope: {x: -7.434484e-16, y: 9.912643e-16, z: 7.434484e-16}
        outSlope: {x: 0.0000839715, y: -0.000001736726, z: 0.00000214774}
        tangentMode: 0
      - serializedVersion: 2
        time: 0.13333344
        value: {x: -0.007507324, y: -0.066244125, z: 0.15325376}
        inSlope: {x: -0.00006131495, y: 0.00000039201333, z: -0.0000021097387}
        outSlope: {x: -1.6263048e-16, y: -4.336813e-16, z: -0.0000017384876}
        tangentMode: 0
      - serializedVersion: 2
        time: 0.16666675
        value: {x: -0.007507324, y: -0.066244125, z: 0.13738462}
        inSlope: {x: -6.969878e-17, y: -1.8586342e-16, z: -0.47607085}
        outSlope: {x: -1.6263048e-16, y: -4.336813e-16, z: -0.47607884}
        tangentMode: 0
      - serializedVersion: 2
        time: 0.20000005
        value: {x: -0.007507324, y: -0.066244125, z: 0.12151548}
        inSlope: {x: -6.969878e-17, y: -1.8586342e-16, z: 0.0000009224363}
        outSlope: {x: -1.6263048e-16, y: -4.336813e-16, z: 0.0000010313524}
        tangentMode: 0
      - serializedVersion: 2
        time: 0.26666665
        value: {x: -0.007507324, y: -0.066244125, z: 0.13152525}
        inSlope: {x: -6.969878e-17, y: -1.8586342e-16, z: 0.0000012974448}
        outSlope: {x: -1.6263048e-16, y: -0.0000012961201, z: 1.7347252e-15}
        tangentMode: 0
      - serializedVersion: 2
        time: 0.29999995
        value: {x: -0.007507324, y: -0.0763073, z: 0.13152525}
        inSlope: {x: -6.969878e-17, y: -0.30190337, z: 7.434537e-16}
        outSlope: {x: -1.6263048e-16, y: -0.30189058, z: 1.7347252e-15}
        tangentMode: 0
      - serializedVersion: 2
        time: 0.33333325
        value: {x: -0.007507324, y: -0.08637047, z: 0.13152525}
        inSlope: {x: -6.969878e-17, y: -0.0000034248592, z: 7.434537e-16}
        outSlope: {x: -1.6262932e-16, y: -0, z: 0.000006048027}
        tangentMode: 0
      - serializedVersion: 2
        time: 0.4000001
        value: {x: -0.007507324, y: -0.08637047, z: 0.12090513}
        inSlope: {x: -6.969878e-17, y: -0, z: -0.00000060424037}
        outSlope: {x: 0.000017231236, y: 0.00002319223, z: 8.673626e-16}
        tangentMode: 0
      - serializedVersion: 2
        time: 0.4333334
        value: {x: 0.08242798, y: 0.03008461, z: 0.12090513}
        inSlope: {x: 2.6980374, y: 3.4936266, z: 3.7172684e-16}
        outSlope: {x: 2.698077, y: 3.493677, z: 8.673626e-16}
        tangentMode: 0
      - serializedVersion: 2
        time: 0.4666667
        value: {x: 0.17236328, y: 0.14653969, z: 0.12090513}
        inSlope: {x: 0.00000094970744, y: 0.0000006076372, z: 3.7172684e-16}
        outSlope: {x: 1.7347252e-15, y: 3.4694503e-15, z: 8.673626e-16}
        tangentMode: 0
      m_PreInfinity: 2
      m_PostInfinity: 2
      m_RotationOrder: 4
    path: Tool_Screwdriver02
  m_ScaleCurves:
  - curve:
      serializedVersion: 2
      m_Curve:
      - serializedVersion: 2
        time: 0
        value: {x: 1, y: 1, z: 1}
        inSlope: {x: 0, y: 0, z: 0}
        outSlope: {x: 0, y: 0, z: 0}
        tangentMode: 0
      - serializedVersion: 2
        time: 0.4666667
        value: {x: 1, y: 1, z: 1}
        inSlope: {x: 0, y: 0, z: 0}
        outSlope: {x: 0, y: 0, z: 0}
        tangentMode: 0
      m_PreInfinity: 2
      m_PostInfinity: 2
      m_RotationOrder: 4
    path: Tool_Screwdriver02
  m_FloatCurves: []
  m_PPtrCurves: []
  m_SampleRate: 30
  m_WrapMode: 0
  m_Bounds:
    m_Center: {x: 0, y: 0, z: 0}
    m_Extent: {x: 0, y: 0, z: 0}
  m_ClipBindingConstant:
    genericBindings:
    - serializedVersion: 2
      path: 1491648166
      attribute: 1
      script: {fileID: 0}
      typeID: 4
      customType: 0
      isPPtrCurve: 0
    - serializedVersion: 2
      path: 1491648166
      attribute: 2
      script: {fileID: 0}
      typeID: 4
      customType: 0
      isPPtrCurve: 0
    - serializedVersion: 2
      path: 1491648166
      attribute: 3
      script: {fileID: 0}
      typeID: 4
      customType: 0
      isPPtrCurve: 0
    pptrCurveMapping: []
  m_AnimationClipSettings:
    serializedVersion: 2
    m_AdditiveReferencePoseClip: {fileID: 0}
    m_AdditiveReferencePoseTime: 0
    m_StartTime: 0
    m_StopTime: 0.4666667
    m_OrientationOffsetY: 0
    m_Level: 0
    m_CycleOffset: 0
    m_HasAdditiveReferencePose: 0
    m_LoopTime: 0
    m_LoopBlend: 0
    m_LoopBlendOrientation: 0
    m_LoopBlendPositionY: 0
    m_LoopBlendPositionXZ: 0
    m_KeepOriginalOrientation: 0
    m_KeepOriginalPositionY: 0
    m_KeepOriginalPositionXZ: 0
    m_HeightFromFeet: 0
    m_Mirror: 0
  m_EditorCurves: []
  m_EulerEditorCurves: []
  m_HasGenericRootTransform: 0
  m_HasMotionFloatCurves: 0
  m_GenerateMotionCurves: 0
  m_Events:
  - time: 0
    functionName: OnClipStart
    data: 
    objectReferenceParameter: {fileID: 0}
    floatParameter: 0
    intParameter: 10500225
    messageOptions: 0
  - time: 0.4666667
    functionName: OnClipEnd
    data: 
    objectReferenceParameter: {fileID: 0}
    floatParameter: 0
    intParameter: 10500225
    messageOptions: 0
