%YAML 1.1
%TAG !u! tag:unity3d.com,2011:
--- !u!74 &7400000
AnimationClip:
  m_ObjectHideFlags: 0
  m_PrefabParentObject: {fileID: 0}
  m_PrefabInternal: {fileID: 0}
  m_Name: Anim_10500016
  serializedVersion: 6
  m_Legacy: 0
  m_Compressed: 0
  m_UseHighQualityCurve: 1
  m_RotationCurves:
  - curve:
      serializedVersion: 2
      m_Curve:
      - serializedVersion: 2
        time: 0
        value: {x: 0.9284125, y: 0.05050266, z: 0.35985115, w: -0.077503815}
        inSlope: {x: 0.039540198, y: -0.0058526313, z: -0.102327526, w: -0.0065469313}
        outSlope: {x: 0.039540198, y: -0.0058526313, z: -0.102327526, w: -0.0065469313}
        tangentMode: 0
      - serializedVersion: 2
        time: 0.19999999
        value: {x: 0.9301344, y: 0.04997258, z: 0.35541213, w: -0.07768487}
        inSlope: {x: 0, y: 0, z: 0, w: 0}
        outSlope: {x: 0, y: 0, z: 0, w: 0}
        tangentMode: 0
      - serializedVersion: 2
        time: 0.23333335
        value: {x: 0.9301344, y: 0.04997258, z: 0.35541213, w: -0.07768487}
        inSlope: {x: -0.40587154, y: 0.07945747, z: 0.96025866, w: 0.055127956}
        outSlope: {x: -0.40587154, y: 0.07945747, z: 0.96025866, w: 0.055127956}
        tangentMode: 0
      - serializedVersion: 2
        time: 0.2666667
        value: {x: 0.9030763, y: 0.055269748, z: 0.41942942, w: -0.07400967}
        inSlope: {x: -1.1377139, y: 0.19095823, z: 2.3417513, w: 0.1478681}
        outSlope: {x: -1.1377139, y: 0.19095823, z: 2.3417513, w: 0.1478681}
        tangentMode: 0
      - serializedVersion: 2
        time: 0.3
        value: {x: 0.85428685, y: 0.062703125, z: 0.51152885, w: -0.067827}
        inSlope: {x: -0.73184234, y: 0.11150076, z: 1.3814927, w: 0.09274015}
        outSlope: {x: -0.73184234, y: 0.11150076, z: 1.3814927, w: 0.09274015}
        tangentMode: 0
      - serializedVersion: 2
        time: 0.33333337
        value: {x: 0.85428685, y: 0.062703125, z: 0.51152885, w: -0.067827}
        inSlope: {x: 0, y: 0, z: 0, w: 0}
        outSlope: {x: 0, y: 0, z: 0, w: 0}
        tangentMode: 0
      - serializedVersion: 2
        time: 0.46666664
        value: {x: 0.85428685, y: 0.062703125, z: 0.51152885, w: -0.067827}
        inSlope: {x: 0, y: 0, z: 0, w: 0}
        outSlope: {x: 0, y: 0, z: 0, w: 0}
        tangentMode: 0
      m_PreInfinity: 2
      m_PostInfinity: 2
      m_RotationOrder: 4
    path: Display01
  - curve:
      serializedVersion: 2
      m_Curve:
      - serializedVersion: 2
        time: 0
        value: {x: -0.091648914, y: 0.32433325, z: -0.011529673, w: 0.9414221}
        inSlope: {x: 0.0005253772, y: 0.043811165, z: -0.00427791, w: -0.015075791}
        outSlope: {x: 0.0005253772, y: 0.043811165, z: -0.00427791, w: -0.015075791}
        tangentMode: 0
      - serializedVersion: 2
        time: 0.16666669
        value: {x: -0.09162398, y: 0.32624018, z: -0.011714524, w: 0.94076306}
        inSlope: {x: 0, y: 0, z: 0, w: 0}
        outSlope: {x: 0, y: 0, z: 0, w: 0}
        tangentMode: 0
      - serializedVersion: 2
        time: 0.19999999
        value: {x: -0.09162398, y: 0.32624018, z: -0.011714524, w: 0.94076306}
        inSlope: {x: 0.06826261, y: 2.87409, z: -0.28672126, w: -1.3543615}
        outSlope: {x: 0.06826261, y: 2.87409, z: -0.28672126, w: -1.3543615}
        tangentMode: 0
      - serializedVersion: 2
        time: 0.23333335
        value: {x: -0.08707313, y: 0.51784635, z: -0.03082929, w: 0.8504722}
        inSlope: {x: 0.05735798, y: 2.5602124, z: -0.25468647, w: -1.1684595}
        outSlope: {x: 0.05735798, y: 2.5602124, z: -0.25468647, w: -1.1684595}
        tangentMode: 0
      - serializedVersion: 2
        time: 0.2666667
        value: {x: -0.08780011, y: 0.49692115, z: -0.028693637, w: 0.8628657}
        inSlope: {x: -0.013768443, y: -0.4010227, z: 0.040896602, w: 0.2356999}
        outSlope: {x: -0.013768443, y: -0.4010227, z: 0.040896602, w: 0.2356999}
        tangentMode: 0
      - serializedVersion: 2
        time: 0.36666667
        value: {x: -0.08799103, y: 0.4911115, z: -0.028102849, w: 0.86618555}
        inSlope: {x: 0, y: 0, z: 0, w: 0}
        outSlope: {x: 0, y: 0, z: 0, w: 0}
        tangentMode: 0
      - serializedVersion: 2
        time: 0.46666664
        value: {x: -0.08799103, y: 0.4911115, z: -0.028102849, w: 0.86618555}
        inSlope: {x: 0, y: 0, z: 0, w: 0}
        outSlope: {x: 0, y: 0, z: 0, w: 0}
        tangentMode: 0
      m_PreInfinity: 2
      m_PostInfinity: 2
      m_RotationOrder: 4
    path: Display01/Display02
  - curve:
      serializedVersion: 2
      m_Curve:
      - serializedVersion: 2
        time: 0
        value: {x: 0, y: 0, z: -0, w: 1}
        inSlope: {x: 0, y: -0, z: 0, w: 0}
        outSlope: {x: 0, y: -0, z: 0, w: 0}
        tangentMode: 0
      - serializedVersion: 2
        time: 0.46666664
        value: {x: 0, y: 0, z: -0, w: 1}
        inSlope: {x: 0, y: -0, z: 0, w: 0}
        outSlope: {x: 0, y: -0, z: 0, w: 0}
        tangentMode: 0
      m_PreInfinity: 2
      m_PostInfinity: 2
      m_RotationOrder: 4
    path: HangPoint_FPS
  - curve:
      serializedVersion: 2
      m_Curve:
      - serializedVersion: 2
        time: 0
        value: {x: 0, y: -0, z: -0, w: 1}
        inSlope: {x: 0, y: 0, z: 0, w: 0}
        outSlope: {x: 0, y: 0, z: 0, w: 0}
        tangentMode: 0
      - serializedVersion: 2
        time: 0.46666664
        value: {x: 0, y: -0, z: -0, w: 1}
        inSlope: {x: 0, y: 0, z: 0, w: 0}
        outSlope: {x: 0, y: 0, z: 0, w: 0}
        tangentMode: 0
      m_PreInfinity: 2
      m_PostInfinity: 2
      m_RotationOrder: 4
    path: HangPoint_AdhesiveTP
  m_CompressedRotationCurves: []
  m_EulerCurves: []
  m_PositionCurves:
  - curve:
      serializedVersion: 2
      m_Curve:
      - serializedVersion: 2
        time: 0
        value: {x: -0.03327684, y: 0.044291124, z: 0.001079239}
        inSlope: {x: 0, y: 0, z: 0}
        outSlope: {x: 0, y: 0, z: 0}
        tangentMode: 0
      - serializedVersion: 2
        time: 0.46666664
        value: {x: -0.03327684, y: 0.044291124, z: 0.001079239}
        inSlope: {x: 0, y: 0, z: 0}
        outSlope: {x: 0, y: 0, z: 0}
        tangentMode: 0
      m_PreInfinity: 2
      m_PostInfinity: 2
      m_RotationOrder: 4
    path: Display01
  - curve:
      serializedVersion: 2
      m_Curve:
      - serializedVersion: 2
        time: 0
        value: {x: -0.0086904345, y: 3.0331648e-10, z: 9.094947e-13}
        inSlope: {x: 0, y: 0, z: 0}
        outSlope: {x: 0, y: 0, z: 0}
        tangentMode: 0
      - serializedVersion: 2
        time: 0.46666664
        value: {x: -0.0086904345, y: 3.0331648e-10, z: 9.094947e-13}
        inSlope: {x: 0, y: 0, z: 0}
        outSlope: {x: 0, y: 0, z: 0}
        tangentMode: 0
      m_PreInfinity: 2
      m_PostInfinity: 2
      m_RotationOrder: 4
    path: Display01/Display02
  - curve:
      serializedVersion: 2
      m_Curve:
      - serializedVersion: 2
        time: 0
        value: {x: -4.2418022e-12, y: 0, z: 0}
        inSlope: {x: 8.982651e-12, y: 0, z: 0}
        outSlope: {x: 8.982651e-12, y: 0, z: 0}
        tangentMode: 0
      - serializedVersion: 2
        time: 0.46666664
        value: {x: -5.389576e-13, y: 0, z: 0}
        inSlope: {x: 5.052732e-12, y: 0, z: 0}
        outSlope: {x: 5.052732e-12, y: 0, z: 0}
        tangentMode: 0
      m_PreInfinity: 2
      m_PostInfinity: 2
      m_RotationOrder: 4
    path: HangPoint_FPS
  - curve:
      serializedVersion: 2
      m_Curve:
      - serializedVersion: 2
        time: 0
        value: {x: 1.09139364e-10, y: 0.00000020861626, z: 0.00000020861626}
        inSlope: {x: 0, y: 0, z: 0}
        outSlope: {x: 0, y: 0, z: 0}
        tangentMode: 0
      - serializedVersion: 2
        time: 0.46666664
        value: {x: 1.09139364e-10, y: 0.00000020861626, z: 0.00000020861626}
        inSlope: {x: 0, y: 0, z: 0}
        outSlope: {x: 0, y: 0, z: 0}
        tangentMode: 0
      m_PreInfinity: 2
      m_PostInfinity: 2
      m_RotationOrder: 4
    path: HangPoint_AdhesiveTP
  m_ScaleCurves:
  - curve:
      serializedVersion: 2
      m_Curve:
      - serializedVersion: 2
        time: 0
        value: {x: 0.99999994, y: 1, z: 0.99999994}
        inSlope: {x: 0, y: 0, z: 0}
        outSlope: {x: 0, y: 0, z: 0}
        tangentMode: 0
      - serializedVersion: 2
        time: 0.46666664
        value: {x: 0.99999994, y: 1, z: 0.99999994}
        inSlope: {x: 0, y: 0, z: 0}
        outSlope: {x: 0, y: 0, z: 0}
        tangentMode: 0
      m_PreInfinity: 2
      m_PostInfinity: 2
      m_RotationOrder: 4
    path: Display01
  - curve:
      serializedVersion: 2
      m_Curve:
      - serializedVersion: 2
        time: 0
        value: {x: 1, y: 1, z: 1}
        inSlope: {x: 0, y: 0, z: 0}
        outSlope: {x: 0, y: 0, z: 0}
        tangentMode: 0
      - serializedVersion: 2
        time: 0.46666664
        value: {x: 1, y: 1, z: 1}
        inSlope: {x: 0, y: 0, z: 0}
        outSlope: {x: 0, y: 0, z: 0}
        tangentMode: 0
      m_PreInfinity: 2
      m_PostInfinity: 2
      m_RotationOrder: 4
    path: Display01/Display02
  - curve:
      serializedVersion: 2
      m_Curve:
      - serializedVersion: 2
        time: 0
        value: {x: 1, y: 1, z: 1}
        inSlope: {x: 0, y: 0, z: 0}
        outSlope: {x: 0, y: 0, z: 0}
        tangentMode: 0
      - serializedVersion: 2
        time: 0.46666664
        value: {x: 1, y: 1, z: 1}
        inSlope: {x: 0, y: 0, z: 0}
        outSlope: {x: 0, y: 0, z: 0}
        tangentMode: 0
      m_PreInfinity: 2
      m_PostInfinity: 2
      m_RotationOrder: 4
    path: HangPoint_FPS
  - curve:
      serializedVersion: 2
      m_Curve:
      - serializedVersion: 2
        time: 0
        value: {x: 1, y: 1, z: 1}
        inSlope: {x: 0, y: 0, z: 0}
        outSlope: {x: 0, y: 0, z: 0}
        tangentMode: 0
      - serializedVersion: 2
        time: 0.46666664
        value: {x: 1, y: 1, z: 1}
        inSlope: {x: 0, y: 0, z: 0}
        outSlope: {x: 0, y: 0, z: 0}
        tangentMode: 0
      m_PreInfinity: 2
      m_PostInfinity: 2
      m_RotationOrder: 4
    path: HangPoint_AdhesiveTP
  m_FloatCurves: []
  m_PPtrCurves: []
  m_SampleRate: 30
  m_WrapMode: 0
  m_Bounds:
    m_Center: {x: 0, y: 0, z: 0}
    m_Extent: {x: 0, y: 0, z: 0}
  m_ClipBindingConstant:
    genericBindings:
    - serializedVersion: 2
      path: 1989236094
      attribute: 2
      script: {fileID: 0}
      typeID: 4
      customType: 0
      isPPtrCurve: 0
    - serializedVersion: 2
      path: 3902455853
      attribute: 2
      script: {fileID: 0}
      typeID: 4
      customType: 0
      isPPtrCurve: 0
    - serializedVersion: 2
      path: 1989236094
      attribute: 1
      script: {fileID: 0}
      typeID: 4
      customType: 0
      isPPtrCurve: 0
    - serializedVersion: 2
      path: 3902455853
      attribute: 1
      script: {fileID: 0}
      typeID: 4
      customType: 0
      isPPtrCurve: 0
    - serializedVersion: 2
      path: 2653939706
      attribute: 1
      script: {fileID: 0}
      typeID: 4
      customType: 0
      isPPtrCurve: 0
    - serializedVersion: 2
      path: 1952795683
      attribute: 1
      script: {fileID: 0}
      typeID: 4
      customType: 0
      isPPtrCurve: 0
    - serializedVersion: 2
      path: 2653939706
      attribute: 2
      script: {fileID: 0}
      typeID: 4
      customType: 0
      isPPtrCurve: 0
    - serializedVersion: 2
      path: 1952795683
      attribute: 2
      script: {fileID: 0}
      typeID: 4
      customType: 0
      isPPtrCurve: 0
    - serializedVersion: 2
      path: 1989236094
      attribute: 3
      script: {fileID: 0}
      typeID: 4
      customType: 0
      isPPtrCurve: 0
    - serializedVersion: 2
      path: 3902455853
      attribute: 3
      script: {fileID: 0}
      typeID: 4
      customType: 0
      isPPtrCurve: 0
    - serializedVersion: 2
      path: 2653939706
      attribute: 3
      script: {fileID: 0}
      typeID: 4
      customType: 0
      isPPtrCurve: 0
    - serializedVersion: 2
      path: 1952795683
      attribute: 3
      script: {fileID: 0}
      typeID: 4
      customType: 0
      isPPtrCurve: 0
    pptrCurveMapping: []
  m_AnimationClipSettings:
    serializedVersion: 2
    m_AdditiveReferencePoseClip: {fileID: 0}
    m_AdditiveReferencePoseTime: 0
    m_StartTime: 0
    m_StopTime: 0.46666664
    m_OrientationOffsetY: 0
    m_Level: 0
    m_CycleOffset: 0
    m_HasAdditiveReferencePose: 0
    m_LoopTime: 0
    m_LoopBlend: 0
    m_LoopBlendOrientation: 0
    m_LoopBlendPositionY: 0
    m_LoopBlendPositionXZ: 0
    m_KeepOriginalOrientation: 0
    m_KeepOriginalPositionY: 0
    m_KeepOriginalPositionXZ: 0
    m_HeightFromFeet: 0
    m_Mirror: 0
  m_EditorCurves: []
  m_EulerEditorCurves: []
  m_HasGenericRootTransform: 0
  m_HasMotionFloatCurves: 0
  m_GenerateMotionCurves: 0
  m_Events:
  - time: 0
    functionName: OnClipStart
    data: 
    objectReferenceParameter: {fileID: 0}
    floatParameter: 0
    intParameter: 10500016
    messageOptions: 0
  - time: 0.46666664
    functionName: OnClipEnd
    data: 
    objectReferenceParameter: {fileID: 0}
    floatParameter: 0
    intParameter: 10500016
    messageOptions: 0
