%YAML 1.1
%TAG !u! tag:unity3d.com,2011:
--- !u!74 &7400000
AnimationClip:
  m_ObjectHideFlags: 0
  m_PrefabParentObject: {fileID: 0}
  m_PrefabInternal: {fileID: 0}
  m_Name: Anim_10500007
  serializedVersion: 6
  m_Legacy: 0
  m_Compressed: 0
  m_UseHighQualityCurve: 1
  m_RotationCurves:
  - curve:
      serializedVersion: 2
      m_Curve:
      - serializedVersion: 2
        time: 0
        value: {x: 0, y: 0, z: -0, w: 1}
        inSlope: {x: 0, y: -0, z: 0, w: 0}
        outSlope: {x: 0, y: -0, z: 0, w: 0}
        tangentMode: 0
      - serializedVersion: 2
        time: 0.06666668
        value: {x: 0, y: -0, z: -0, w: 1}
        inSlope: {x: 1.5364954e-12, y: 0, z: 0, w: 0}
        outSlope: {x: 1.5364954e-12, y: 0, z: 0, w: 0}
        tangentMode: 0
      - serializedVersion: 2
        time: 0.10000001
        value: {x: 1.0243302e-13, y: -0, z: -0, w: 1}
        inSlope: {x: 10.606603, y: 0, z: 0, w: -4.393398}
        outSlope: {x: 10.606603, y: 0, z: 0, w: -4.393398}
        tangentMode: 0
      - serializedVersion: 2
        time: 0.13333334
        value: {x: 0.7071068, y: -0, z: -0, w: 0.7071068}
        inSlope: {x: 10.606603, y: 0, z: 0, w: -4.393398}
        outSlope: {x: 10.606603, y: 0, z: 0, w: -4.393398}
        tangentMode: 0
      - serializedVersion: 2
        time: 0.16666669
        value: {x: 0.7071068, y: -0, z: -0, w: 0.7071068}
        inSlope: {x: 0, y: 0, z: 0, w: 0}
        outSlope: {x: 0, y: 0, z: 0, w: 0}
        tangentMode: 0
      - serializedVersion: 2
        time: 0.40000004
        value: {x: 0.7071068, y: -0, z: -0, w: 0.7071068}
        inSlope: {x: 0, y: 0, z: 0, w: 0}
        outSlope: {x: 0, y: 0, z: 0, w: 0}
        tangentMode: 0
      - serializedVersion: 2
        time: 0.43333337
        value: {x: 0.7071068, y: -0, z: -0, w: 0.7071068}
        inSlope: {x: -10.606612, y: 0, z: 0, w: 4.3934016}
        outSlope: {x: -10.606612, y: 0, z: 0, w: 4.3934016}
        tangentMode: 0
      - serializedVersion: 2
        time: 0.46666667
        value: {x: 0, y: 0, z: -0, w: 1}
        inSlope: {x: -21.213224, y: 0, z: 0, w: 8.786803}
        outSlope: {x: -21.213224, y: 0, z: 0, w: 8.786803}
        tangentMode: 0
      m_PreInfinity: 2
      m_PostInfinity: 2
      m_RotationOrder: 4
    path: Tool_DisplayPlier02
  - curve:
      serializedVersion: 2
      m_Curve:
      - serializedVersion: 2
        time: 0
        value: {x: 0, y: 0, z: -0, w: 1}
        inSlope: {x: 0, y: -0, z: 0, w: 0}
        outSlope: {x: 0, y: -0, z: 0, w: 0}
        tangentMode: 0
      - serializedVersion: 2
        time: 0.06666668
        value: {x: 0, y: -0, z: -0, w: 1}
        inSlope: {x: 0, y: 0, z: -6.725186e-14, w: 0}
        outSlope: {x: 0, y: 0, z: -6.725186e-14, w: 0}
        tangentMode: 0
      - serializedVersion: 2
        time: 0.10000001
        value: {x: 0, y: -0, z: -4.483457e-15, w: 1}
        inSlope: {x: 0, y: 0, z: -0.51554745, w: -0.0088620195}
        outSlope: {x: 0, y: 0, z: -0.51554745, w: -0.0088620195}
        tangentMode: 0
      - serializedVersion: 2
        time: 0.13333334
        value: {x: 0, y: -0, z: -0.03436983, w: 0.9994092}
        inSlope: {x: 0, y: 0, z: -0.2622175, w: -0.0022915038}
        outSlope: {x: 0, y: 0, z: -0.2622175, w: -0.0022915038}
        tangentMode: 0
      - serializedVersion: 2
        time: 0.20000002
        value: {x: 0, y: -0, z: -0.0005875101, w: 0.9999998}
        inSlope: {x: 0, y: 0, z: 0.25340477, w: 0.0022888186}
        outSlope: {x: 0, y: 0, z: 0.25340477, w: 0.0022888186}
        tangentMode: 0
      - serializedVersion: 2
        time: 0.3
        value: {x: 0, y: -0, z: -0.0005875101, w: 0.9999998}
        inSlope: {x: 0, y: 0, z: -0.0010235877, w: 0}
        outSlope: {x: 0, y: 0, z: -0.0010235877, w: 0}
        tangentMode: 0
      - serializedVersion: 2
        time: 0.46666667
        value: {x: 0, y: 0, z: -0, w: 1}
        inSlope: {x: 0, y: 0, z: 0.030724587, w: 0.000016093269}
        outSlope: {x: 0, y: 0, z: 0.030724587, w: 0.000016093269}
        tangentMode: 0
      m_PreInfinity: 2
      m_PostInfinity: 2
      m_RotationOrder: 4
    path: Tool_DisplayPlier02/Tool_DisplayPlier03
  - curve:
      serializedVersion: 2
      m_Curve:
      - serializedVersion: 2
        time: 0
        value: {x: 0, y: 0, z: -0, w: 1}
        inSlope: {x: 0, y: -0, z: 0, w: 0}
        outSlope: {x: 0, y: -0, z: 0, w: 0}
        tangentMode: 0
      - serializedVersion: 2
        time: 0.06666668
        value: {x: 0, y: -0, z: -0, w: 1}
        inSlope: {x: 0, y: 0, z: 2.4170474e-13, w: 0}
        outSlope: {x: 0, y: 0, z: 2.4170474e-13, w: 0}
        tangentMode: 0
      - serializedVersion: 2
        time: 0.10000001
        value: {x: 0, y: 0, z: 1.6113648e-14, w: 1}
        inSlope: {x: 0, y: 0, z: 1.8485433, w: -0.114339}
        outSlope: {x: 0, y: 0, z: 1.8485433, w: -0.114339}
        tangentMode: 0
      - serializedVersion: 2
        time: 0.13333334
        value: {x: 0, y: 0, z: 0.12323621, w: 0.9923774}
        inSlope: {x: 0, y: 0, z: 0.9292555, w: -0.028811432}
        outSlope: {x: 0, y: 0, z: 0.9292555, w: -0.028811432}
        tangentMode: 0
      - serializedVersion: 2
        time: 0.16666669
        value: {x: 0, y: 0, z: 0.061950333, w: 0.99807924}
        inSlope: {x: 0, y: 0, z: -1.8420951, w: 0.11433807}
        outSlope: {x: 0, y: 0, z: -1.8420951, w: 0.11433807}
        tangentMode: 0
      - serializedVersion: 2
        time: 0.20000002
        value: {x: 0, y: 0, z: 0.00042984265, w: 0.99999994}
        inSlope: {x: 0, y: 0, z: -0.9228074, w: 0.028810503}
        outSlope: {x: 0, y: 0, z: -0.9228074, w: 0.028810503}
        tangentMode: 0
      - serializedVersion: 2
        time: 0.23333335
        value: {x: 0, y: 0, z: 0.00042984265, w: 0.99999994}
        inSlope: {x: 0, y: 0, z: 0, w: 0}
        outSlope: {x: 0, y: 0, z: 0, w: 0}
        tangentMode: 0
      - serializedVersion: 2
        time: 0.40000004
        value: {x: 0, y: 0, z: 0.008092275, w: 0.9999673}
        inSlope: {x: 0, y: 0, z: 0.06811195, w: -0.0004935265}
        outSlope: {x: 0, y: 0, z: 0.06811195, w: -0.0004935265}
        tangentMode: 0
      - serializedVersion: 2
        time: 0.46666667
        value: {x: 0, y: 0, z: -0, w: 1}
        inSlope: {x: 0, y: 0, z: -0.2853466, w: 0.001357199}
        outSlope: {x: 0, y: 0, z: -0.2853466, w: 0.001357199}
        tangentMode: 0
      m_PreInfinity: 2
      m_PostInfinity: 2
      m_RotationOrder: 4
    path: Tool_DisplayPlier02/Tool_DisplayPlier04
  m_CompressedRotationCurves: []
  m_EulerCurves: []
  m_PositionCurves:
  - curve:
      serializedVersion: 2
      m_Curve:
      - serializedVersion: 2
        time: 0
        value: {x: -0.72509956, y: -0.62849426, z: 0}
        inSlope: {x: 0, y: 0, z: 0}
        outSlope: {x: 0, y: 0, z: 0}
        tangentMode: 0
      - serializedVersion: 2
        time: 0.10000001
        value: {x: -0.72509956, y: -0.62849426, z: 0}
        inSlope: {x: -5.9476227e-15, y: -1.3877786e-14, z: -0}
        outSlope: {x: 0.00004743475, y: 0.00007655449, z: -0}
        tangentMode: 0
      - serializedVersion: 2
        time: 0.13333334
        value: {x: -0.22042143, y: 0.00944519, z: 0}
        inSlope: {x: 6.7737365, y: 0.000031851006, z: -0}
        outSlope: {x: 6.773723, y: 1.08420224e-16, z: -0.00000013173329}
        tangentMode: 0
      - serializedVersion: 2
        time: 0.16666667
        value: {x: -0.14515793, y: 0.00944519, z: -0.001642257}
        inSlope: {x: 0.9686734, y: 4.6465812e-17, z: -0.0492678}
        outSlope: {x: 0.96866983, y: 1.08420224e-16, z: -0.049267855}
        tangentMode: 0
      - serializedVersion: 2
        time: 0.2
        value: {x: -0.13439494, y: 0.00944519, z: -0.003284514}
        inSlope: {x: 0.0000006523274, y: 4.6465812e-17, z: -0.00000008911696}
        outSlope: {x: -8.673614e-16, y: 1.0842018e-16, z: -5.421009e-17}
        tangentMode: 0
      - serializedVersion: 2
        time: 0.33333334
        value: {x: -0.13439494, y: 0.00944519, z: -0.0032798056}
        inSlope: {x: -3.717265e-16, y: 4.6465812e-17, z: 0.00042375576}
        outSlope: {x: -8.673618e-16, y: 1.08420224e-16, z: 0.00042376033}
        tangentMode: 0
      - serializedVersion: 2
        time: 0.4
        value: {x: -0.13439494, y: 0.00944519, z: -0.0031577542}
        inSlope: {x: -3.717265e-16, y: 4.6465812e-17, z: 0.0039423453}
        outSlope: {x: -8.673618e-16, y: 1.08420224e-16, z: 0.0039423686}
        tangentMode: 0
      - serializedVersion: 2
        time: 0.43333334
        value: {x: -0.13439494, y: 0.00944519, z: -0.0029841028}
        inSlope: {x: -3.717265e-16, y: 4.6465812e-17, z: 0.015628604}
        outSlope: {x: 0.000070522045, y: 0.00007086058, z: 0.0156283}
        tangentMode: 0
      - serializedVersion: 2
        time: 0.46666667
        value: {x: -0.72509956, y: -0.62849426, z: 0}
        inSlope: {x: 0.00007903699, y: 0.00007086058, z: -0.00000034890581}
        outSlope: {x: 0.00007903699, y: 0.00007086058, z: -0.00000034890581}
        tangentMode: 0
      m_PreInfinity: 2
      m_PostInfinity: 2
      m_RotationOrder: 4
    path: Tool_DisplayPlier02
  - curve:
      serializedVersion: 2
      m_Curve:
      - serializedVersion: 2
        time: 0
        value: {x: 0.044061944, y: 0, z: 0}
        inSlope: {x: 0, y: 0, z: 0}
        outSlope: {x: 0, y: 0, z: 0}
        tangentMode: 0
      - serializedVersion: 2
        time: 0.46666667
        value: {x: 0.044061944, y: 0, z: 0}
        inSlope: {x: 0, y: 0, z: 0}
        outSlope: {x: 0, y: 0, z: 0}
        tangentMode: 0
      m_PreInfinity: 2
      m_PostInfinity: 2
      m_RotationOrder: 4
    path: Tool_DisplayPlier02/Tool_DisplayPlier03
  - curve:
      serializedVersion: 2
      m_Curve:
      - serializedVersion: 2
        time: 0
        value: {x: 0.044061944, y: 0, z: 0}
        inSlope: {x: 0, y: 0, z: 0}
        outSlope: {x: 0, y: 0, z: 0}
        tangentMode: 0
      - serializedVersion: 2
        time: 0.13333334
        value: {x: 0.044061944, y: 0, z: 0}
        inSlope: {x: 1.7347236e-15, y: -0, z: -0}
        outSlope: {x: 7.43453e-16, y: 0.00000031786712, z: -1.2333712e-14}
        tangentMode: 0
      - serializedVersion: 2
        time: 0.16666667
        value: {x: 0.044061944, y: 0.0038943365, z: -1.7022686e-10}
        inSlope: {x: 1.7347236e-15, y: 0.11683035, z: -0.0000000051068136}
        outSlope: {x: 7.43453e-16, y: 0.116830416, z: -0.0000000051068203}
        tangentMode: 0
      - serializedVersion: 2
        time: 0.2
        value: {x: 0.044061944, y: 0.007788673, z: -3.4045372e-10}
        inSlope: {x: 1.7347236e-15, y: 0.00000025134406, z: -8.1208115e-15}
        outSlope: {x: 7.434527e-16, y: 1.2390877e-16, z: -3.231173e-24}
        tangentMode: 0
      - serializedVersion: 2
        time: 0.33333334
        value: {x: 0.044061944, y: 0.0077645797, z: -3.3940056e-10}
        inSlope: {x: 1.7347236e-15, y: -0.0021683783, z: 9.4784264e-11}
        outSlope: {x: 7.43453e-16, y: -0.0021683674, z: 9.4786144e-11}
        tangentMode: 0
      - serializedVersion: 2
        time: 0.4
        value: {x: 0.044061944, y: 0.0071400073, z: -3.1209965e-10}
        inSlope: {x: 1.7347236e-15, y: -0.020174235, z: 8.818452e-10}
        outSlope: {x: 7.43453e-16, y: -0.020174278, z: 8.818446e-10}
        tangentMode: 0
      - serializedVersion: 2
        time: 0.43333334
        value: {x: 0.044061944, y: 0.0062513836, z: -2.7325667e-10}
        inSlope: {x: 1.7347236e-15, y: -0.07997603, z: 0.000000003495861}
        outSlope: {x: 7.43453e-16, y: -0.0799754, z: 0.0000000034958367}
        tangentMode: 0
      - serializedVersion: 2
        time: 0.46666667
        value: {x: 0.044061944, y: 0, z: 0}
        inSlope: {x: 1.7347236e-15, y: 0.0000007718857, z: -3.2775045e-14}
        outSlope: {x: 1.7347236e-15, y: 0.0000007718857, z: -3.2775045e-14}
        tangentMode: 0
      m_PreInfinity: 2
      m_PostInfinity: 2
      m_RotationOrder: 4
    path: Tool_DisplayPlier02/Tool_DisplayPlier04
  m_ScaleCurves:
  - curve:
      serializedVersion: 2
      m_Curve:
      - serializedVersion: 2
        time: 0
        value: {x: 1, y: 1, z: 1}
        inSlope: {x: 0, y: 0, z: 0}
        outSlope: {x: 0, y: 0, z: 0}
        tangentMode: 0
      - serializedVersion: 2
        time: 0.46666667
        value: {x: 1, y: 1, z: 1}
        inSlope: {x: 0, y: 0, z: 0}
        outSlope: {x: 0, y: 0, z: 0}
        tangentMode: 0
      m_PreInfinity: 2
      m_PostInfinity: 2
      m_RotationOrder: 4
    path: Tool_DisplayPlier02
  - curve:
      serializedVersion: 2
      m_Curve:
      - serializedVersion: 2
        time: 0
        value: {x: 1, y: 1, z: 1}
        inSlope: {x: 0, y: 0, z: 0}
        outSlope: {x: 0, y: 0, z: 0}
        tangentMode: 0
      - serializedVersion: 2
        time: 0.46666667
        value: {x: 1, y: 1, z: 1}
        inSlope: {x: 0, y: 0, z: 0}
        outSlope: {x: 0, y: 0, z: 0}
        tangentMode: 0
      m_PreInfinity: 2
      m_PostInfinity: 2
      m_RotationOrder: 4
    path: Tool_DisplayPlier02/Tool_DisplayPlier03
  - curve:
      serializedVersion: 2
      m_Curve:
      - serializedVersion: 2
        time: 0
        value: {x: 1, y: 1, z: 1}
        inSlope: {x: 0, y: 0, z: 0}
        outSlope: {x: 0, y: 0, z: 0}
        tangentMode: 0
      - serializedVersion: 2
        time: 0.46666667
        value: {x: 1, y: 1, z: 1}
        inSlope: {x: 0, y: 0, z: 0}
        outSlope: {x: 0, y: 0, z: 0}
        tangentMode: 0
      m_PreInfinity: 2
      m_PostInfinity: 2
      m_RotationOrder: 4
    path: Tool_DisplayPlier02/Tool_DisplayPlier04
  m_FloatCurves: []
  m_PPtrCurves: []
  m_SampleRate: 30
  m_WrapMode: 0
  m_Bounds:
    m_Center: {x: 0, y: 0, z: 0}
    m_Extent: {x: 0, y: 0, z: 0}
  m_ClipBindingConstant:
    genericBindings:
    - serializedVersion: 2
      path: 1175445363
      attribute: 1
      script: {fileID: 0}
      typeID: 4
      customType: 0
      isPPtrCurve: 0
    - serializedVersion: 2
      path: 4151374164
      attribute: 1
      script: {fileID: 0}
      typeID: 4
      customType: 0
      isPPtrCurve: 0
    - serializedVersion: 2
      path: 1175445363
      attribute: 2
      script: {fileID: 0}
      typeID: 4
      customType: 0
      isPPtrCurve: 0
    - serializedVersion: 2
      path: 1762944247
      attribute: 2
      script: {fileID: 0}
      typeID: 4
      customType: 0
      isPPtrCurve: 0
    - serializedVersion: 2
      path: 4151374164
      attribute: 2
      script: {fileID: 0}
      typeID: 4
      customType: 0
      isPPtrCurve: 0
    - serializedVersion: 2
      path: 1762944247
      attribute: 1
      script: {fileID: 0}
      typeID: 4
      customType: 0
      isPPtrCurve: 0
    - serializedVersion: 2
      path: 1175445363
      attribute: 3
      script: {fileID: 0}
      typeID: 4
      customType: 0
      isPPtrCurve: 0
    - serializedVersion: 2
      path: 1762944247
      attribute: 3
      script: {fileID: 0}
      typeID: 4
      customType: 0
      isPPtrCurve: 0
    - serializedVersion: 2
      path: 4151374164
      attribute: 3
      script: {fileID: 0}
      typeID: 4
      customType: 0
      isPPtrCurve: 0
    pptrCurveMapping: []
  m_AnimationClipSettings:
    serializedVersion: 2
    m_AdditiveReferencePoseClip: {fileID: 0}
    m_AdditiveReferencePoseTime: 0
    m_StartTime: 0
    m_StopTime: 0.46666667
    m_OrientationOffsetY: 0
    m_Level: 0
    m_CycleOffset: 0
    m_HasAdditiveReferencePose: 0
    m_LoopTime: 0
    m_LoopBlend: 0
    m_LoopBlendOrientation: 0
    m_LoopBlendPositionY: 0
    m_LoopBlendPositionXZ: 0
    m_KeepOriginalOrientation: 0
    m_KeepOriginalPositionY: 0
    m_KeepOriginalPositionXZ: 0
    m_HeightFromFeet: 0
    m_Mirror: 0
  m_EditorCurves: []
  m_EulerEditorCurves: []
  m_HasGenericRootTransform: 0
  m_HasMotionFloatCurves: 0
  m_GenerateMotionCurves: 0
  m_Events:
  - time: 0
    functionName: OnClipStart
    data: 
    objectReferenceParameter: {fileID: 0}
    floatParameter: 0
    intParameter: 10500007
    messageOptions: 0
  - time: 0.46666667
    functionName: OnClipEnd
    data: 
    objectReferenceParameter: {fileID: 0}
    floatParameter: 0
    intParameter: 10500007
    messageOptions: 0
