%YAML 1.1
%TAG !u! tag:unity3d.com,2011:
--- !u!114 &11400000
MonoBehaviour:
  m_ObjectHideFlags: 0
  m_PrefabParentObject: {fileID: 0}
  m_PrefabInternal: {fileID: 0}
  m_GameObject: {fileID: 0}
  m_Enabled: 1
  m_EditorHideFlags: 0
  m_Script: {fileID: 11500000, guid: f5c30c6e599f4464da54cc4af1626dd9, type: 3}
  m_Name: PartData_10100038
  m_EditorClassIdentifier: 
  id: 10100038
  partName: Earpiece Speaker
  hangName: HangPoint_Earpc
  modelName: X4_Part_Earpc
  imageName: X4_Part_Earpc
  deviceId: 10000002
  recovery: 0
  belongPartId: 10100037
  pn: 13014332001,13014332101
  focusIndex: 0
  active: 1
