%YAML 1.1
%TAG !u! tag:unity3d.com,2011:
--- !u!114 &11400000
MonoBehaviour:
  m_ObjectHideFlags: 0
  m_PrefabParentObject: {fileID: 0}
  m_PrefabInternal: {fileID: 0}
  m_GameObject: {fileID: 0}
  m_Enabled: 1
  m_EditorHideFlags: 0
  m_Script: {fileID: 11500000, guid: f5c30c6e599f4464da54cc4af1626dd9, type: 3}
  m_Name: PartData_10100001
  m_EditorClassIdentifier: 
  id: 10100001
  partName: Phone
  hangName: HangPoint_Phone
  modelName: G5S_Part_Phone
  imageName: G5S_Part_Phone
  deviceId: 10000001
  recovery: 0
  belongPartId: 0
  pn: 
  focusIndex: 1
  active: 1
