%YAML 1.1
%TAG !u! tag:unity3d.com,2011:
--- !u!114 &11400000
MonoBehaviour:
  m_ObjectHideFlags: 0
  m_PrefabParentObject: {fileID: 0}
  m_PrefabInternal: {fileID: 0}
  m_GameObject: {fileID: 0}
  m_Enabled: 1
  m_EditorHideFlags: 0
  m_Script: {fileID: 11500000, guid: f5c30c6e599f4464da54cc4af1626dd9, type: 3}
  m_Name: PartData_10100050
  m_EditorClassIdentifier: 
  id: 10100050
  partName: Screw M1.4X0,3X2.3
  hangName: HangPoint_Screw03
  modelName: X4_Part_Screw03
  imageName: X4_Part_Screw01
  deviceId: 10000002
  recovery: 0
  belongPartId: 10100033
  pn: 03014188001W
  focusIndex: 0
  active: 1
