%YAML 1.1
%TAG !u! tag:unity3d.com,2011:
--- !u!114 &11400000
MonoBehaviour:
  m_ObjectHideFlags: 0
  m_PrefabParentObject: {fileID: 0}
  m_PrefabInternal: {fileID: 0}
  m_GameObject: {fileID: 0}
  m_Enabled: 1
  m_EditorHideFlags: 0
  m_Script: {fileID: 11500000, guid: f5c30c6e599f4464da54cc4af1626dd9, type: 3}
  m_Name: PartData_10100014
  m_EditorClassIdentifier: 
  id: 10100014
  partName: Earpiece Speaker
  hangName: HangPoint_Receiver
  modelName: G5S_Part_Receiver
  imageName: G5S_Part_Receiver
  deviceId: 10000001
  recovery: 1
  belongPartId: 10100008
  pn: 5R78C08508,5R78C08509
  focusIndex: 0
  active: 1
