%YAML 1.1
%TAG !u! tag:unity3d.com,2011:
--- !u!114 &11400000
MonoBehaviour:
  m_ObjectHideFlags: 0
  m_PrefabParentObject: {fileID: 0}
  m_PrefabInternal: {fileID: 0}
  m_GameObject: {fileID: 0}
  m_Enabled: 1
  m_EditorHideFlags: 0
  m_Script: {fileID: 11500000, guid: 24ac2ba606278a64a8ce6b7f7c91e0be, type: 3}
  m_Name: X4PartPosInfo
  m_EditorClassIdentifier: 
  positions:
  - PartName: X4_Part_Phone
    PartPosition: {x: -0, y: 0, z: 0}
  - PartName: X4_Part_RearHousing
    PartPosition: {x: 0, y: 0, z: 0}
  - PartName: X4_Part_Tray
    PartPosition: {x: 0, y: -0.000000007450581, z: -0.07591248}
  - PartName: X4_Part_Display
    PartPosition: {x: 0, y: 0.1298837, z: 0.27840424}
  - PartName: X4_Part_Screw01
    PartPosition: {x: -0.22769547, y: -0.00031301202, z: 2.910383e-11}
  - PartName: X4_Part_MidFrame
    PartPosition: {x: -0.10721207, y: -0.0006644354, z: 5.820766e-11}
  - PartName: X4_Part_Earpc
    PartPosition: {x: -0.10721207, y: 0.000563357, z: -0.044250492}
  - PartName: X4_Part_FrontFlash
    PartPosition: {x: -0.10721207, y: -0.0015189312, z: -0.029052738}
  - PartName: X4_Part_Vibrator
    PartPosition: {x: 0.04663086, y: -0.0006103516, z: 5.820766e-11}
  - PartName: X4_Part_Screw02
    PartPosition: {x: -0.08305359, y: 0.0009265095, z: -0.2297974}
  - PartName: X4_Part_PCB
    PartPosition: {x: -0.08305359, y: 0.0016589463, z: -0.1869507}
  - PartName: X4_Part_SecondMicGrom
    PartPosition: {x: -0.06581116, y: 0.00048331916, z: -0.1869507}
  - PartName: X4_Part_ThirdMicGrom
    PartPosition: {x: -0.06586977, y: 0.0018645972, z: -0.17343141}
  - PartName: X4_Part_EarpcGskt
    PartPosition: {x: -0.06816101, y: 0.0029711872, z: -0.22970584}
  - PartName: X4_Part_SidekeyGrom
    PartPosition: {x: -0.10783386, y: 0.00092440844, z: -0.1869507}
  - PartName: X4_Part_CopFoil
    PartPosition: {x: -0.13615417, y: 0.003276378, z: -0.1869507}
  - PartName: X4_Part_CopSlug
    PartPosition: {x: -0.11545944, y: 0.0021701008, z: -0.22882083}
  - PartName: X4_Part_HtSpread
    PartPosition: {x: -0.16423416, y: 0.0022644699, z: -0.1869507}
  - PartName: X4_Part_Screw03
    PartPosition: {x: 0, y: 0.0014648363, z: -0.048889168}
  - PartName: X4_Part_RearImager
    PartPosition: {x: 0, y: -0.00085449964, z: -0.06872559}
  - PartName: X4_Part_Bat
    PartPosition: {x: 0.11277771, y: 0.0013664515, z: -1.1641532e-10}
  - PartName: X4_Part_Screw04
    PartPosition: {x: -0.034301758, y: 0.0008027331, z: -1.1641532e-10}
  - PartName: X4_Part_HeadsetJack
    PartPosition: {x: 0, y: 0.00024414435, z: 0.030822758}
  - PartName: X4_Part_Screw05
    PartPosition: {x: 0, y: -0.0006103497, z: 0.020126345}
  - PartName: X4_Part_UsbPort
    PartPosition: {x: 0, y: -0.0002441369, z: 0.035751346}
  - PartName: X4_Part_RearFlash
    PartPosition: {x: 0, y: 0.001831051, z: -0.028686527}
  - PartName: X4_Part_Ntc
    PartPosition: {x: 0.04602051, y: 0.00024414065, z: -2.910383e-11}
  - PartName: X4_Part_Cable
    PartPosition: {x: -0.013900757, y: 0.0044665635, z: -0.1869507}
  - PartName: X4_Part_FrontImager
    PartPosition: {x: -0.08305359, y: 0.0026354939, z: -0.24929433}
  - PartName: X4_Part_CndtTape
    PartPosition: {x: -0.08305359, y: 0.0017810017, z: -0.21984866}
  - PartName: X4_Part_EarpcDeco
    PartPosition: {x: 0, y: 0.13027963, z: 0.23140718}
  - PartName: X4_Part_Fps
    PartPosition: {x: 0, y: 0.13531166, z: 0.32357025}
  - PartName: X4_Part_DisplayPad
    PartPosition: {x: 0.086428784, y: 0.12978905, z: 0.27840424}
  - PartName: X4_Part_MicGrom
    PartPosition: {x: 0.012561623, y: 0.13014138, z: 0.32180333}
  - PartName: X4_Part_FrontImagerGrom
    PartPosition: {x: 0, y: 0.1303105, z: 0.2422104}
  - PartName: X4_Part_BatAdhes
    PartPosition: {x: 0, y: -0.0016744394, z: 2.3283064e-10}
  - PartName: X4_Part_Psa
    PartPosition: {x: -0.10721207, y: -0.0006644354, z: 5.820766e-11}
