
第一周：
        空格帧--- 规则制定  1天  周三
	空格帧----空格帧方式修改（自动播放问题）美术G5S美术修改X天（>=2）  周四美术开工
                                                美术X4美术修改X天（>=2）   周四美术开工
	新增功能-比赛模式-暂时有些模型无法被选中或者很难被选中，新增部件选择按钮 - 2天 周四-周五
        新增功能 - 提示界面 1天                                                        周四-周五
        
        查找G5S丢失零件	--- Hunter
	多机型表修改	--- Hunter

第二周：
       空格帧----空格帧方式修改（自动播放问题）    程序逻辑修改    3天
       空格帧----装操作-的时候操作界面中4个视角的可点状态不正确    0天
       
       X4资源加载-？天（需要美术进度）



	动画预留帧问题 -修改方式确定
	动画预留帧问题 -美术资源、逻辑修改、表修改

	提示界面 -新界面、调用关闭处理
	操作界面 -部件选择功能
	多机型相关修改

	