目标

	1.算法导论 - 看完10.3、10.4，完成第十章所有习题。
	2.LEGO - 新建工程，移植代码，出一个空包并测试安装。
	3.LEGO - 确定美术外包最终需求，确定资源交付时间。

3月1日

	@新建工程，打空包。1
	看算法导论10.3、10.4。习题能做点算点。1.5
	@2-3点开编辑器对接会。

3月2日

	@确定骨骼动画到处的问题。2
	@确定美术开工时间，交付时间。
	做完算法导论第十章所有练习题。2