%YAML 1.1
%TAG !u! tag:unity3d.com,2011:
--- !u!114 &11400000
MonoBehaviour:
  m_ObjectHideFlags: 0
  m_PrefabParentObject: {fileID: 0}
  m_PrefabInternal: {fileID: 0}
  m_GameObject: {fileID: 0}
  m_Enabled: 1
  m_EditorHideFlags: 0
  m_Script: {fileID: 11500000, guid: 2b312efce3131ef4baf708ec77080878, type: 3}
  m_Name: TipData_10600017
  m_EditorClassIdentifier: 
  id: 10600017
  content: Use the Tweezers to apply the IMEI Label to the SIM/SD Card Tray as shown.
  actionIds: 10300073
  imageName: Tip_G5S_02
