%YAML 1.1
%TAG !u! tag:unity3d.com,2011:
--- !u!114 &11400000
MonoBehaviour:
  m_ObjectHideFlags: 0
  m_PrefabParentObject: {fileID: 0}
  m_PrefabInternal: {fileID: 0}
  m_GameObject: {fileID: 0}
  m_Enabled: 1
  m_EditorHideFlags: 0
  m_Script: {fileID: 11500000, guid: 2b312efce3131ef4baf708ec77080878, type: 3}
  m_Name: TipData_10600019
  m_EditorClassIdentifier: 
  id: 10600019
  content: Place the Display Adhesive Heating Plate (3-00-S3-10000) on the Hot Plate.
  actionIds: 10300076,10300162
  imageName: Tip_X4_02
