%YAML 1.1
%TAG !u! tag:unity3d.com,2011:
--- !u!114 &11400000
MonoBehaviour:
  m_ObjectHideFlags: 0
  m_PrefabParentObject: {fileID: 0}
  m_PrefabInternal: {fileID: 0}
  m_GameObject: {fileID: 0}
  m_Enabled: 1
  m_EditorHideFlags: 0
  m_Script: {fileID: 11500000, guid: 2b312efce3131ef4baf708ec77080878, type: 3}
  m_Name: TipData_10600041
  m_EditorClassIdentifier: 
  id: 10600041
  content: Use cotton swabs and ISP Alcohol to clean the Display bonding ledge on
    the Rear Housing, which is highlighted. Wait for the ISP Alcohol to dry completely.
  actionIds: 10300151
  imageName: 0
