%YAML 1.1
%TAG !u! tag:unity3d.com,2011:
--- !u!114 &11400000
MonoBehaviour:
  m_ObjectHideFlags: 0
  m_PrefabParentObject: {fileID: 0}
  m_PrefabInternal: {fileID: 0}
  m_GameObject: {fileID: 0}
  m_Enabled: 1
  m_EditorHideFlags: 0
  m_Script: {fileID: 11500000, guid: 077f9864361e70e45b4a3c644b88310c, type: 3}
  m_Name: DeviceData_10000002
  m_EditorClassIdentifier: 
  id: 10000002
  model: X4
  type: 0
