%YAML 1.1
%TAG !u! tag:unity3d.com,2011:
--- !u!114 &11400000
MonoBehaviour:
  m_ObjectHideFlags: 0
  m_PrefabParentObject: {fileID: 0}
  m_PrefabInternal: {fileID: 0}
  m_GameObject: {fileID: 0}
  m_Enabled: 1
  m_EditorHideFlags: 0
  m_Script: {fileID: 11500000, guid: 29141ae1986e3bd4cba33d0635dfba64, type: 3}
  m_Name: ActionClipData_10500216
  m_EditorClassIdentifier: 
  id: 10500216
  actionId: 10300113
  frameRegion: 31-45
  targetType: 0
  targetId: 10100033
  isKeyClip: 0
