%YAML 1.1
%TAG !u! tag:unity3d.com,2011:
--- !u!114 &11400000
MonoBehaviour:
  m_ObjectHideFlags: 0
  m_PrefabParentObject: {fileID: 0}
  m_PrefabInternal: {fileID: 0}
  m_GameObject: {fileID: 0}
  m_Enabled: 1
  m_EditorHideFlags: 0
  m_Script: {fileID: 11500000, guid: 9488ce525b9ba2d4b820a1abffc299b2, type: 3}
  m_Name: QuestionData_10400011
  m_EditorClassIdentifier: 
  id: 10400011
  deviceId: 10000001
  description: What will happen if Proximity Sensor Grommet is not refixed once removed?
  type: 1
  options: "Front camera cannot work \n Notification light cannot glow\n Proximity
    sensor malfunction \nDevice will work normally "
  isRandomDistribution: 1
  answer: 3
