%YAML 1.1
%TAG !u! tag:unity3d.com,2011:
--- !u!687078895 &4343727234628468602
SpriteAtlas:
  m_ObjectHideFlags: 0
  m_PrefabParentObject: {fileID: 0}
  m_PrefabInternal: {fileID: 0}
  m_Name: Icons_Tip
  m_EditorData:
    textureSettings:
      serializedVersion: 2
      anisoLevel: 1
      compressionQuality: 50
      maxTextureSize: 512
      textureCompression: 2
      filterMode: 1
      generateMipMaps: 0
      readable: 0
      crunchedCompression: 0
      sRGB: 0
    platformSettings:
    - m_BuildTarget: Android
      m_MaxTextureSize: 2048
      m_ResizeAlgorithm: 0
      m_TextureFormat: 47
      m_TextureCompression: 1
      m_CompressionQuality: 100
      m_CrunchedCompression: 0
      m_AllowsAlphaSplitting: 0
      m_Overridden: 1
      m_AndroidETC2FallbackOverride: 0
    packingParameters:
      serializedVersion: 2
      padding: 4
      blockOffset: 1
      allowAlphaSplitting: 0
      enableRotation: 1
      enableTightPacking: 0
    variantMultiplier: 1
    packables:
    - {fileID: 102900000, guid: 834104111b2d29a44a3f14f4167a1cf0, type: 3}
    bindAsDefault: 1
  m_MasterAtlas: {fileID: 0}
  m_PackedSprites: []
  m_PackedSpriteNamesToIndex: []
  m_Tag: Icons_Tip
  m_IsVariant: 0
