%YAML 1.1
%TAG !u! tag:unity3d.com,2011:
--- !u!687078895 &4343727234628468602
SpriteAtlas:
  m_ObjectHideFlags: 0
  m_PrefabParentObject: {fileID: 0}
  m_PrefabInternal: {fileID: 0}
  m_Name: Icons_Device
  m_EditorData:
    textureSettings:
      serializedVersion: 2
      anisoLevel: 1
      compressionQuality: 50
      maxTextureSize: 1024
      textureCompression: 0
      filterMode: 1
      generateMipMaps: 0
      readable: 0
      crunchedCompression: 0
      sRGB: 0
    platformSettings:
    - m_BuildTarget: Android
      m_MaxTextureSize: 1024
      m_ResizeAlgorithm: 0
      m_TextureFormat: 47
      m_TextureCompression: 1
      m_CompressionQuality: 100
      m_CrunchedCompression: 0
      m_AllowsAlphaSplitting: 0
      m_Overridden: 1
      m_AndroidETC2FallbackOverride: 0
    packingParameters:
      serializedVersion: 2
      padding: 4
      blockOffset: 1
      allowAlphaSplitting: 0
      enableRotation: 1
      enableTightPacking: 0
    variantMultiplier: 1
    packables:
    - {fileID: 102900000, guid: 95493c76bed2bc3428e20fcf8751d3a2, type: 3}
    bindAsDefault: 1
  m_MasterAtlas: {fileID: 0}
  m_PackedSprites:
  - {fileID: 21300000, guid: cdc8b145badb13f47a59d4a9db0cc407, type: 3}
  - {fileID: 21300000, guid: 2b89cc9646c18b342b4519da91f0fdcd, type: 3}
  - {fileID: 21300000, guid: 96cddb8b2edbdab409a9c030d495cd1b, type: 3}
  m_PackedSpriteNamesToIndex:
  - Device_G5S
  - Device_E4P
  - Device_X4
  m_Tag: Icons_Device
  m_IsVariant: 0
