%YAML 1.1
%TAG !u! tag:unity3d.com,2011:
--- !u!687078895 &4343727234628468602
SpriteAtlas:
  m_ObjectHideFlags: 0
  m_PrefabParentObject: {fileID: 0}
  m_PrefabInternal: {fileID: 0}
  m_Name: Icons_Part_E4P
  m_EditorData:
    textureSettings:
      serializedVersion: 2
      anisoLevel: 1
      compressionQuality: 50
      maxTextureSize: 1024
      textureCompression: 0
      filterMode: 1
      generateMipMaps: 0
      readable: 0
      crunchedCompression: 0
      sRGB: 0
    platformSettings:
    - m_BuildTarget: Android
      m_MaxTextureSize: 1024
      m_ResizeAlgorithm: 0
      m_TextureFormat: 47
      m_TextureCompression: 1
      m_CompressionQuality: 100
      m_CrunchedCompression: 0
      m_AllowsAlphaSplitting: 0
      m_Overridden: 1
      m_AndroidETC2FallbackOverride: 0
    packingParameters:
      serializedVersion: 2
      padding: 4
      blockOffset: 1
      allowAlphaSplitting: 0
      enableRotation: 1
      enableTightPacking: 0
    variantMultiplier: 1
    packables:
    - {fileID: 102900000, guid: 5f1219cc27010334fa0de783ad4dc72f, type: 3}
    bindAsDefault: 1
  m_MasterAtlas: {fileID: 0}
  m_PackedSprites:
  - {fileID: 21300000, guid: 9ce982dd030b3aa4eba60501d9cf27e8, type: 3}
  - {fileID: 21300000, guid: 10410d8f23b846346ac433a7f692b61c, type: 3}
  - {fileID: 21300000, guid: 40e7a794d376c44438de81b3f06d0d7c, type: 3}
  - {fileID: 21300000, guid: 44d5bb6599e445a4dabf850de76517ef, type: 3}
  - {fileID: 21300000, guid: 1e441bb3d62dea445a75caaded64094a, type: 3}
  - {fileID: 21300000, guid: 75b27f7bcba1a0c4dbf03ce1fca8fcfa, type: 3}
  - {fileID: 21300000, guid: 47bddd2317b6e3f418f719670292de56, type: 3}
  - {fileID: 21300000, guid: d3dbea0133b05ac42a7be3ee8e36c6b6, type: 3}
  - {fileID: 21300000, guid: 21e70f712db5b2c4784656d02e6cb29f, type: 3}
  - {fileID: 21300000, guid: f67fcbc2bdfd27949b82b49c45afa80c, type: 3}
  - {fileID: 21300000, guid: 359590b4caa75d64b972f0f774cbae49, type: 3}
  - {fileID: 21300000, guid: 192a85c49bdd87645914c298e7494549, type: 3}
  - {fileID: 21300000, guid: 5c0d5b911667f53409263bcb097285d5, type: 3}
  - {fileID: 21300000, guid: 7e0a8828e674a3b43a9446f76868f504, type: 3}
  - {fileID: 21300000, guid: bfc46430cf702934889d8cac7fdb88dc, type: 3}
  - {fileID: 21300000, guid: 3161dbecd88a407449ab949e8dfb8eba, type: 3}
  - {fileID: 21300000, guid: 482e66baa8b11904383d3c35d6d9b2eb, type: 3}
  - {fileID: 21300000, guid: e304a705f8ec5c04bb4b505501bdeea2, type: 3}
  - {fileID: 21300000, guid: 7ef2fb0f8a53c75458beb5d13af61617, type: 3}
  - {fileID: 21300000, guid: 3f9f2e35a2c08754fb02aa20fc6e091a, type: 3}
  - {fileID: 21300000, guid: 039de696a5372834b86d88ec1d0316a1, type: 3}
  - {fileID: 21300000, guid: e1532fa355dbff4418b8eea722a66bad, type: 3}
  - {fileID: 21300000, guid: d7fe5dc1064947847ad490f22ce45564, type: 3}
  - {fileID: 21300000, guid: 2e68e5033e3f86a4e80f72b8b3615d45, type: 3}
  - {fileID: 21300000, guid: d2e9716a21212f6468cd0b082c52ec3c, type: 3}
  - {fileID: 21300000, guid: 79c59b7bd8416f445b98c7c133146bed, type: 3}
  - {fileID: 21300000, guid: 070b2a2717dc8514d9937c01087e8207, type: 3}
  - {fileID: 21300000, guid: 312d100f2d9302247af86ebed02329c5, type: 3}
  - {fileID: 21300000, guid: ddc6e747cc2be22439d6b82dc479b8f0, type: 3}
  m_PackedSpriteNamesToIndex:
  - E4P_Part_BatShield
  - E4P_Part_Display
  - E4P_Part_BatCover
  - E4P_Part_BatAdhes
  - E4P_Part_Bat
  - E4P_Part_DisplayFlex
  - E4P_Part_FPS
  - E4P_Part_PCB
  - E4P_Part_RearHousing
  - E4P_Part_CopFoil
  - E4P_Part_SideKeyZIF
  - E4P_Part_FrontImager
  - E4P_Part_BatB2b
  - E4P_Part_Vibrator
  - E4P_Part_MainFlexB2bA
  - E4P_Part_MainFlex
  - E4P_Part_MicGrom
  - E4P_Part_HeadsetJackGrom
  - E4P_Part_Earpc
  - E4P_Part_Test
  - E4P_Part_FrontImagerGrom
  - E4P_Part_RearImager
  - E4P_Part_MylarTape
  - E4P_Part_Cable
  - E4P_Part_SideKeyFlex
  - E4P_Part_Screw01
  - E4P_Part_DisplayZIF
  - E4P_Part_SubBoard
  - E4P_Part_LowerHousing
  m_Tag: Icons_Part_E4P
  m_IsVariant: 0
