%YAML 1.1
%TAG !u! tag:unity3d.com,2011:
--- !u!114 &11400000
MonoBehaviour:
  m_ObjectHideFlags: 0
  m_PrefabParentObject: {fileID: 0}
  m_PrefabInternal: {fileID: 0}
  m_GameObject: {fileID: 0}
  m_Enabled: 1
  m_EditorHideFlags: 0
  m_Script: {fileID: 11500000, guid: f02dc247205094c4ebde7e8c33a42cab, type: 3}
  m_Name: TipData_10600016
  m_EditorClassIdentifier: 
  id: 10600016
  content: "Do not set the Hot Plate temperature higher than 80 \xB0C (176 \xB0F).
    Damage to the phone may occur."
  actionIds: 10300067,10300164
  imageName: Tip_X4_03
