%YAML 1.1
%TAG !u! tag:unity3d.com,2011:
--- !u!114 &11400000
MonoBehaviour:
  m_ObjectHideFlags: 0
  m_PrefabParentObject: {fileID: 0}
  m_PrefabInternal: {fileID: 0}
  m_GameObject: {fileID: 0}
  m_Enabled: 1
  m_EditorHideFlags: 0
  m_Script: {fileID: 11500000, guid: f02dc247205094c4ebde7e8c33a42cab, type: 3}
  m_Name: TipData_10600003
  m_EditorClassIdentifier: 
  id: 10600003
  content: Place the Lens Adhesive Heating Plate (3-00-R1-10000) on the Hot Plate.
  actionIds: 10300002
  imageName: Tip_X4_02
