%YAML 1.1
%TAG !u! tag:unity3d.com,2011:
--- !u!114 &11400000
MonoBehaviour:
  m_ObjectHideFlags: 0
  m_PrefabParentObject: {fileID: 0}
  m_PrefabInternal: {fileID: 0}
  m_GameObject: {fileID: 0}
  m_Enabled: 1
  m_EditorHideFlags: 0
  m_Script: {fileID: 11500000, guid: 17b2cc0c70ccba0438ab7f136d0664c2, type: 3}
  m_Name: DeviceData_10000003
  m_EditorClassIdentifier: 
  id: 10000003
  model: E4P
  type: 0
