%YAML 1.1
%TAG !u! tag:unity3d.com,2011:
--- !u!114 &11400000
MonoBehaviour:
  m_ObjectHideFlags: 0
  m_PrefabParentObject: {fileID: 0}
  m_PrefabInternal: {fileID: 0}
  m_GameObject: {fileID: 0}
  m_Enabled: 1
  m_EditorHideFlags: 0
  m_Script: {fileID: 11500000, guid: 79562f3d82e07be46953ea650c973235, type: 3}
  m_Name: Constance
  m_EditorClassIdentifier: 
  ActionDataList:
  - {fileID: 11400000, guid: b8b3ef7e0a0645042a63fe423b9b087c, type: 2}
  - {fileID: 11400000, guid: e76a76cdc6fbf2440abf8edbcfc2ef5f, type: 2}
  - {fileID: 11400000, guid: 00805e61ce5bc53479792b9dd9e26a27, type: 2}
  - {fileID: 11400000, guid: 7687e90c64fbcac469e3cf4bcb443d3c, type: 2}
  - {fileID: 11400000, guid: a0c4af8375b59724baa0249b5db630b5, type: 2}
  - {fileID: 11400000, guid: fe398f90873cd244ca7904fcf3dbcfab, type: 2}
  - {fileID: 11400000, guid: f85ff56e5a7aa0a45acdb35420cd527f, type: 2}
  - {fileID: 11400000, guid: f3130d4cf7b1ef240ba32fa03571fd33, type: 2}
  - {fileID: 11400000, guid: d4b4d449869ef054093598aa1040e06c, type: 2}
  - {fileID: 11400000, guid: f8f9ed4bb7a5e6f41863b29b365f5423, type: 2}
  - {fileID: 11400000, guid: 89713e28b90f768428a1d1f7515da93b, type: 2}
  - {fileID: 11400000, guid: 1ffee8bea9cfb4e47b008ed51effe2b8, type: 2}
  - {fileID: 11400000, guid: 249a6597fbf143d49bb975f4c4ec1942, type: 2}
  - {fileID: 11400000, guid: a355b408cfff15b43a28370d926825ae, type: 2}
  - {fileID: 11400000, guid: 3d18dedd16f614e4fa473a7bf85c0994, type: 2}
  - {fileID: 11400000, guid: 349e9cc792064b346b4b6b04465b31f3, type: 2}
  - {fileID: 11400000, guid: 1c9d385ca894f014ab01bf2a62e5a05a, type: 2}
  - {fileID: 11400000, guid: 9685276d51aa363498d4ed35d9eee731, type: 2}
  - {fileID: 11400000, guid: 39b9887a8350f504da56835c1fa418a6, type: 2}
  - {fileID: 11400000, guid: 76f2c59fb984cb141aa84dfef4972f53, type: 2}
  - {fileID: 11400000, guid: c959b0528b45002488f848f3eb4a941e, type: 2}
  - {fileID: 11400000, guid: 18bf1a2a413f53c478eaf849264cb7e6, type: 2}
  - {fileID: 11400000, guid: 2afbd1c19e4062844bd3453767663c34, type: 2}
  - {fileID: 11400000, guid: 44f50f40693114b479b62f0bdaf385cd, type: 2}
  - {fileID: 11400000, guid: bc2ca89954644dc4a9cc4a5dadad3043, type: 2}
  - {fileID: 11400000, guid: f2e2d037a26423a49af0fb11698ea185, type: 2}
  - {fileID: 11400000, guid: 1c3dad78008d5bc4caf272fb387ae71a, type: 2}
  - {fileID: 11400000, guid: c4078337d96e8cc48a3d6bde3416b706, type: 2}
  - {fileID: 11400000, guid: 91c771213b5c9ae4897176d9a4874ce7, type: 2}
  - {fileID: 11400000, guid: 33815ee5fd7f7f54db5cef7202cd97ed, type: 2}
  - {fileID: 11400000, guid: c416cc472c356694d809ec0e534b6801, type: 2}
  - {fileID: 11400000, guid: 9a3282c1eeaa5e34f9403ed02c141cd1, type: 2}
  - {fileID: 11400000, guid: 2277457bba96d7147b947e330deda7ef, type: 2}
  - {fileID: 11400000, guid: 6b721444da1619c4aaa1d4107145a2c2, type: 2}
  - {fileID: 11400000, guid: 64781ea937a5d784897ed0ed3cb71515, type: 2}
  - {fileID: 11400000, guid: 3de3967c36276044695aff6f45256c4c, type: 2}
  - {fileID: 11400000, guid: d7c4b005a4d93b14db79f7bffbe7e258, type: 2}
  - {fileID: 11400000, guid: dca6c717c96e019408ccd8b6c2cd7e0e, type: 2}
  - {fileID: 11400000, guid: 2898389de2486e64fadf0836edfb19d4, type: 2}
  - {fileID: 11400000, guid: 7ef704844d0d60547ab231c232eae690, type: 2}
  - {fileID: 11400000, guid: c56c10fb7c40e3a488c2cb9be4a58e4b, type: 2}
  - {fileID: 11400000, guid: a500480cd3c9f2c4aa6cbcd133258b11, type: 2}
  - {fileID: 11400000, guid: d78b943ff67286643b1060cb6b54ec6f, type: 2}
  - {fileID: 11400000, guid: 57879e21890f1f2418fb2a948287e09e, type: 2}
  - {fileID: 11400000, guid: f1510346f737c0948bf46f2b0ed144f0, type: 2}
  - {fileID: 11400000, guid: 1dc7831dbbf64674d8625ace9ec96d25, type: 2}
  - {fileID: 11400000, guid: a9d9caafcbc26dd4387bd5979c9f9ef6, type: 2}
  - {fileID: 11400000, guid: 36f50fd2cb19688448ab5cec72b88d34, type: 2}
  - {fileID: 11400000, guid: 7e2d924a7bfbf6d45970704001a980d6, type: 2}
  - {fileID: 11400000, guid: 42e468c718d852f4f8a1e720f203e5ef, type: 2}
  - {fileID: 11400000, guid: c5073d5789d84e74492606993e3062d6, type: 2}
  - {fileID: 11400000, guid: 77758a978a124f241a4a6066d81e5042, type: 2}
  - {fileID: 11400000, guid: 26fb4f5aa343e644484c2d3d5fc2df47, type: 2}
  - {fileID: 11400000, guid: 50400f1292615464bb2676e1a7d5764a, type: 2}
  - {fileID: 11400000, guid: f0859c1cdc7974548b978a89b8b23f7c, type: 2}
  - {fileID: 11400000, guid: d1b803c90632efb43aec6fab15dbe36a, type: 2}
  - {fileID: 11400000, guid: 8c1c84c1f77402841b78119d0a9eeb12, type: 2}
  - {fileID: 11400000, guid: 83db9ac99e4e94546a78ac3be6307390, type: 2}
  - {fileID: 11400000, guid: d37308c1f0f3f4d4386d1878c5f24801, type: 2}
  - {fileID: 11400000, guid: 620f75ace6f87864caf3f731e0e22eca, type: 2}
  - {fileID: 11400000, guid: 602e598766b05e14686075b7eb4190d7, type: 2}
  - {fileID: 11400000, guid: 815f25e39c0241f44883ce943b1963e3, type: 2}
  - {fileID: 11400000, guid: c2fa455da12e147428eaa4ade4bb9fe5, type: 2}
  - {fileID: 11400000, guid: a5acd33eb118a544280d4e58d41be32f, type: 2}
  - {fileID: 11400000, guid: 07ca2554d0be9954b9f8deb833802bb9, type: 2}
  - {fileID: 11400000, guid: 08310665c4c5e0c4ca9da080ea616815, type: 2}
  - {fileID: 11400000, guid: b721e0dfa923b664fa8d97c1b5feb59d, type: 2}
  - {fileID: 11400000, guid: 9545f73dd8bd428498ca4621eb3b8961, type: 2}
  - {fileID: 11400000, guid: f71ac0597913c004098657cdb16f4578, type: 2}
  - {fileID: 11400000, guid: c4b5792202b32d345b257e056a77c1af, type: 2}
  - {fileID: 11400000, guid: 1d63433b5cd0f5b4b80bcad70ff016fc, type: 2}
  - {fileID: 11400000, guid: 09bbf9948ca8fba4592c965deb571ebe, type: 2}
  - {fileID: 11400000, guid: 0977c3438ea1f57418081c3c2692e553, type: 2}
  - {fileID: 11400000, guid: 0ab9c3c39f7a5554f9b800b0bf499158, type: 2}
  - {fileID: 11400000, guid: 52a46752c3689cf4d9175cc59082f475, type: 2}
  - {fileID: 11400000, guid: 071c24f4d6a74324f80f13385eeb3880, type: 2}
  - {fileID: 11400000, guid: 91526595ee483074b85b857d3cc1c7a2, type: 2}
  - {fileID: 11400000, guid: b2887aa8f73cc094b986875078e569a2, type: 2}
  - {fileID: 11400000, guid: c95670c91e734c543ad81a78f19082ca, type: 2}
  - {fileID: 11400000, guid: 553c7aa02da9b3e429d87f900a381b5e, type: 2}
  - {fileID: 11400000, guid: c3409a227ae55054ba762ef03b09f80b, type: 2}
  - {fileID: 11400000, guid: 438ebf1ddfaab5d42916d3db1598380b, type: 2}
  - {fileID: 11400000, guid: 67efe7bd6c5691241a9aba920b3ba5b8, type: 2}
  - {fileID: 11400000, guid: 9cb50249829b93a44b74fbb48cf800e9, type: 2}
  - {fileID: 11400000, guid: c575c652229a99249a3d7569ce04fc53, type: 2}
  - {fileID: 11400000, guid: c15f5bccabe4876469a1c03edac4daeb, type: 2}
  - {fileID: 11400000, guid: 6c45472290a1d5f45a43806278e1d479, type: 2}
  - {fileID: 11400000, guid: 443a718d6877e594ebae74eb9fcbe99c, type: 2}
  - {fileID: 11400000, guid: 5058ce820543f264ab8b142c32b6793a, type: 2}
  - {fileID: 11400000, guid: 10edda5d88d3a554f891ad4180d3de7d, type: 2}
  - {fileID: 11400000, guid: b436708b8bad7d54cbb268970c925f98, type: 2}
  - {fileID: 11400000, guid: 2fd9229ad9326d1419984d135942710d, type: 2}
  - {fileID: 11400000, guid: f4abac0adca786b45b333fab59f41972, type: 2}
  - {fileID: 11400000, guid: 8130d22b9cac73f44b7225aac10f494d, type: 2}
  - {fileID: 11400000, guid: bbc75afff2cfa1f489e4f5441d292478, type: 2}
  - {fileID: 11400000, guid: 002beeedad734c94bba4edfa60b03416, type: 2}
  - {fileID: 11400000, guid: f7e2a1c527db52d478cad085719dacc6, type: 2}
  - {fileID: 11400000, guid: 3f28ca6978f0ae94db30cdcea225b30c, type: 2}
  - {fileID: 11400000, guid: 300f5b8fb9ba895439f594a01e2b7594, type: 2}
  - {fileID: 11400000, guid: 8b5ed525cd6a83045aaf571aef1b628a, type: 2}
  - {fileID: 11400000, guid: 0c61f38b575f58343a710270cf8be760, type: 2}
  - {fileID: 11400000, guid: c8e6912b37db80a408a82b1bc09b8370, type: 2}
  - {fileID: 11400000, guid: 0c403301b4fd551448f56c3579a416d6, type: 2}
  - {fileID: 11400000, guid: a56f63b2020ed714d98aa5e4bb56f159, type: 2}
  - {fileID: 11400000, guid: 363f3109842317644967be553f16b3a4, type: 2}
  - {fileID: 11400000, guid: 703b15e61e2b54f4a944a49bb6a65bdd, type: 2}
  - {fileID: 11400000, guid: a4c1e97bca8b66b418abe263bb2b030a, type: 2}
  - {fileID: 11400000, guid: 49f6b4bf680c6ac469c007ddd706a50d, type: 2}
  - {fileID: 11400000, guid: aaea3fedb73f43a4090e2961ad00f61d, type: 2}
  - {fileID: 11400000, guid: 8ed1d5158d4ed2f4994df3e4a29c432b, type: 2}
  - {fileID: 11400000, guid: c55e09e9f992eb04f82d912422dd1287, type: 2}
  - {fileID: 11400000, guid: 63c96b2f91ff11b4ba83dbf0a6ae3871, type: 2}
  - {fileID: 11400000, guid: ae775532a0837834fbe85af8a7d1839c, type: 2}
  - {fileID: 11400000, guid: ef552f4720ae8294d9cf6bfa23f46ec7, type: 2}
  - {fileID: 11400000, guid: 76be792bdad785941a5260cd3466fb22, type: 2}
  - {fileID: 11400000, guid: 084b802cbf0e3a0409fae52fef44feee, type: 2}
  - {fileID: 11400000, guid: f3fcb8b325318524683ee9d4c1ea40e1, type: 2}
  - {fileID: 11400000, guid: a871c1b112feebd4c9831b54c585399e, type: 2}
  - {fileID: 11400000, guid: d2c1f6f893ee9f64086290f58dbaaa30, type: 2}
  - {fileID: 11400000, guid: dc1c0808b9528d74c8742a7145661472, type: 2}
  - {fileID: 11400000, guid: 5af5b79c7c94a5c42957ae2eda320e5c, type: 2}
  - {fileID: 11400000, guid: 41f6fbb3b5d859d47a3a48b6d6aaa341, type: 2}
  - {fileID: 11400000, guid: e459db317c24c48408c5b2220f4203c6, type: 2}
  - {fileID: 11400000, guid: af9a22cc8dd38f14b9f21453751ffbe4, type: 2}
  - {fileID: 11400000, guid: f48a0d8d8eade6040a70cc9ce3642b51, type: 2}
  - {fileID: 11400000, guid: e999705e95038b648addacd0672414c7, type: 2}
  - {fileID: 11400000, guid: e8cd5f86092436f41bd5ba052246553c, type: 2}
  - {fileID: 11400000, guid: 7ae06a5c2a1175044b38a55b7a5496d8, type: 2}
  - {fileID: 11400000, guid: 9a2f772d36e89f845940665ea37bd287, type: 2}
  - {fileID: 11400000, guid: 35825057993975943ba748c62ef1154c, type: 2}
  - {fileID: 11400000, guid: 6953c7d19884b784fbede2ae57e325c3, type: 2}
  - {fileID: 11400000, guid: d005306f1b7578346ad53a2d907fa1b3, type: 2}
  - {fileID: 11400000, guid: 6fd9efe30320384409f2717b10fd6be7, type: 2}
  - {fileID: 11400000, guid: f52e76f118901e74d841cc390ccdc433, type: 2}
  - {fileID: 11400000, guid: 35b28493b707e314ca68cb3877031403, type: 2}
  - {fileID: 11400000, guid: 94cfc646424b2a544bc10be56585aaa7, type: 2}
  - {fileID: 11400000, guid: 2f1149be24a66b449892951e90bbc3b6, type: 2}
  - {fileID: 11400000, guid: e06d5466d91c6f9438fb0cd14ba9b9cf, type: 2}
  - {fileID: 11400000, guid: df657d59b3e26a14fbd3dadc111b7e26, type: 2}
  - {fileID: 11400000, guid: 32cb389028e92ba40be7d2d93553487d, type: 2}
  - {fileID: 11400000, guid: e58be363b337e3e4ab828b6884052622, type: 2}
  - {fileID: 11400000, guid: aeab18d7629080844914afc77dda49a7, type: 2}
  - {fileID: 11400000, guid: 49a177896e5e26042ba67cfb418a3e52, type: 2}
  - {fileID: 11400000, guid: 20b195c99400bca499db85d63752b372, type: 2}
  - {fileID: 11400000, guid: a9d4d067d44b84241a8bf72a7966ada8, type: 2}
  - {fileID: 11400000, guid: 1af30f33cc1e77d4986444eec0ce364a, type: 2}
  - {fileID: 11400000, guid: ba9db8c540f1c4543a46b21b8c5d8928, type: 2}
  - {fileID: 11400000, guid: 394492312b69a7f4db82f61bfd8cdcbc, type: 2}
  - {fileID: 11400000, guid: 0acf093df05d2ff40bbbe245430afa47, type: 2}
  - {fileID: 11400000, guid: e14510364a2ca6a48bde1e4fac23d2f5, type: 2}
  - {fileID: 11400000, guid: 20dfa19494863914eb0b35495fd45046, type: 2}
  - {fileID: 11400000, guid: c2140740a811fef44a622fbaa9449be1, type: 2}
  - {fileID: 11400000, guid: 046d64bd578d5f54ab1b545ffdef089e, type: 2}
  - {fileID: 11400000, guid: 407c645ed1020944898d2bd83575453c, type: 2}
  - {fileID: 11400000, guid: 1fffed85e1fbc6941811c822f3936dc0, type: 2}
  - {fileID: 11400000, guid: e39ea8a529b6fe44fb4d01b234808c67, type: 2}
  - {fileID: 11400000, guid: 1fdc29c6dc1e58a4fa79fe79f4ed7236, type: 2}
  - {fileID: 11400000, guid: fd635e95a4dec9f4cb654c093a7fd813, type: 2}
  - {fileID: 11400000, guid: 6db901de5a991004fbcb1426791be4bd, type: 2}
  - {fileID: 11400000, guid: ca736f92497e3274082d81be510d1dcd, type: 2}
  - {fileID: 11400000, guid: 9d753fd44104c1a4d97102b9ee0eef64, type: 2}
  - {fileID: 11400000, guid: 17128e844f68a864394a343a27453fad, type: 2}
  - {fileID: 11400000, guid: 8b5870b7a76d42a46b25c5b3474f3887, type: 2}
  - {fileID: 11400000, guid: 27e26aed50610174282803db5d85caa3, type: 2}
  - {fileID: 11400000, guid: 969593c69ce124e43b7bc01775e7741f, type: 2}
  - {fileID: 11400000, guid: df370671d10423c4bb9ff774f33a00f4, type: 2}
  - {fileID: 11400000, guid: c3bd6e40bd976ba45aa1ca48d1204daf, type: 2}
  - {fileID: 11400000, guid: 372dba50535c0ce42bf92dc2a81da227, type: 2}
  - {fileID: 11400000, guid: 55f8cf61a99b7e748bc983b41dad8e17, type: 2}
  - {fileID: 11400000, guid: 3766b550f24d9a142adf241ddc1edab1, type: 2}
  - {fileID: 11400000, guid: 10e6589b82438a04cb08015cce362c01, type: 2}
  - {fileID: 11400000, guid: 80192f1751b855b458aae39c5c92b3dd, type: 2}
  - {fileID: 11400000, guid: f6bf1ef23c6162c4fb5642e9c26b8e3e, type: 2}
  - {fileID: 11400000, guid: 80cc93a4633cdbe43b739d2f1ebbc863, type: 2}
  - {fileID: 11400000, guid: 580f5bf7456768f479ddf7e6c78ef662, type: 2}
  - {fileID: 11400000, guid: 4914931e1a517614ea4a31ac73e774a5, type: 2}
  - {fileID: 11400000, guid: 5c3c933239cf2014b8a5e1a5463f86f6, type: 2}
  - {fileID: 11400000, guid: deaff9bfe5912ae49ba4653b75d636e0, type: 2}
  - {fileID: 11400000, guid: 8259c88cbf07b3f47b9bcfd7d97479ed, type: 2}
  - {fileID: 11400000, guid: 6a161afbc49a49f44b6023984936f5f9, type: 2}
  - {fileID: 11400000, guid: d93b295d327fcdc4a8b045fa5999573d, type: 2}
  - {fileID: 11400000, guid: 7c7a7893d61c3c946af2e895297b9663, type: 2}
  - {fileID: 11400000, guid: 49d0a2fe105fd2b429b6b9cc1c2b327e, type: 2}
  - {fileID: 11400000, guid: 965800eebb83d61459135a9b702997c4, type: 2}
  - {fileID: 11400000, guid: 9a70422129c66ce459f8a636f9624371, type: 2}
  - {fileID: 11400000, guid: 0df35b76b6a5490408de951270c72083, type: 2}
  - {fileID: 11400000, guid: 225239951f7b08d45ab136e0f377c370, type: 2}
  - {fileID: 11400000, guid: 6cfb79fa716e44f4b8f37b1a779f8de8, type: 2}
  - {fileID: 11400000, guid: 20f9f77b8f5b1eb4f92d39ddf4044cf5, type: 2}
  - {fileID: 11400000, guid: 72af07f0f4672d84b835ca9c02e5960c, type: 2}
  - {fileID: 11400000, guid: d2c1ab64a0ad29a4899b87bbffd671ab, type: 2}
  - {fileID: 11400000, guid: ce9656e04df443146838c525b44ab79c, type: 2}
  - {fileID: 11400000, guid: 49769f719fb63f0458930cfaf8776d82, type: 2}
  - {fileID: 11400000, guid: 7a79c96f891aa104280b479170e9e683, type: 2}
  - {fileID: 11400000, guid: 97024cd69d5dd004a88f723c23e617cb, type: 2}
  - {fileID: 11400000, guid: a242435e4e95d3e47819525a6b8ce0a0, type: 2}
  - {fileID: 11400000, guid: fe3937d06e57593409e8f51d3748ff4c, type: 2}
  - {fileID: 11400000, guid: ee10303204e8aea4587d7ed4dc8fb3a4, type: 2}
  - {fileID: 11400000, guid: 85c594f0847ef8742ae5765202f9c350, type: 2}
  - {fileID: 11400000, guid: 8e01ee0d0db070e48ab980a166aae2d8, type: 2}
  - {fileID: 11400000, guid: 3005ae151decdca40a0eb01de4599892, type: 2}
  - {fileID: 11400000, guid: 43280553e9a5ee542ae694814526f8a8, type: 2}
  - {fileID: 11400000, guid: c524dd71f2ca7f741a840b27a68e376a, type: 2}
  - {fileID: 11400000, guid: 6b5a0bce762d22340abd2ca3a2b71013, type: 2}
  - {fileID: 11400000, guid: ea13d290ebab7b74aa19048119b4d939, type: 2}
  - {fileID: 11400000, guid: 20c409aabc52d9b4381a34f5521f5000, type: 2}
  - {fileID: 11400000, guid: d797254f5b330f846b432e5ccc459e47, type: 2}
  - {fileID: 11400000, guid: 6f7250dc3ddae8d4d8c8ae94fad50998, type: 2}
  - {fileID: 11400000, guid: ccfb1ecdedcb55c4194398a75d10733b, type: 2}
  - {fileID: 11400000, guid: 4053a32f14d9dc648a5dc25154b09bd3, type: 2}
  - {fileID: 11400000, guid: 986da56678a2f9b42966afa96126d25f, type: 2}
  - {fileID: 11400000, guid: 92f4612d7ac1f92488fa6412c1426be8, type: 2}
  - {fileID: 11400000, guid: e3d4dea6652b046488c642af4bf9fec1, type: 2}
  - {fileID: 11400000, guid: 5e0d23b8e415a804bb729146e3124716, type: 2}
  - {fileID: 11400000, guid: 8bae5c018e381d942b56b25a11644a46, type: 2}
  - {fileID: 11400000, guid: 41f393e30f8516941b2ff7986d21f7c6, type: 2}
  - {fileID: 11400000, guid: 83954f89b8a77d04cbf601b47a5b53b0, type: 2}
  - {fileID: 11400000, guid: 34382b2c94100e44aa5341727ae3cc52, type: 2}
  - {fileID: 11400000, guid: fdf15f81b4186bd4ca243a994827e9fc, type: 2}
  - {fileID: 11400000, guid: 77394495ac651a4408b0186a51511feb, type: 2}
  - {fileID: 11400000, guid: b45455f59c019a344b0577f23721ce7b, type: 2}
  - {fileID: 11400000, guid: 4ba28f31d052ba246a97916736844cbb, type: 2}
  - {fileID: 11400000, guid: 0ea8e5883ec508d43adcb84e3b3922d0, type: 2}
  - {fileID: 11400000, guid: 1e4cc42151820bd4a8cc44f1426fb69a, type: 2}
  - {fileID: 11400000, guid: 1da447c3642ef7042b224e631b3bc3be, type: 2}
  - {fileID: 11400000, guid: e59a6f2aa9c906d4796ef20a184f7600, type: 2}
  - {fileID: 11400000, guid: 9bf6ed6eb9fc0c144b23aa619c533bff, type: 2}
  - {fileID: 11400000, guid: 366752ad0311fcf459a036c0b8eca809, type: 2}
  - {fileID: 11400000, guid: 07033fca87da3ab47a36ffac16faa4d4, type: 2}
  - {fileID: 11400000, guid: 9e70f919122dceb469ce624b07acffe9, type: 2}
  - {fileID: 11400000, guid: 4c6f8e53892845d44b9af795c22f9dcb, type: 2}
  - {fileID: 11400000, guid: 616d021208a6d2649be99e1e93930f27, type: 2}
  - {fileID: 11400000, guid: 26a8cf2cfab770d479bb640a4d796abd, type: 2}
  - {fileID: 11400000, guid: 6770f55dce81c144d92f591120b9afbc, type: 2}
  - {fileID: 11400000, guid: 0db118936b49c9c419e5357e2d3cdcb6, type: 2}
  - {fileID: 11400000, guid: c8b85f693d625424eb6a9d52f676114c, type: 2}
  - {fileID: 11400000, guid: 0226cd92f0f3f3441b45859fed3e2603, type: 2}
  DeviceDataList:
  - {fileID: 11400000, guid: 00d47ab4cc0af1548bd285ffd4f2d2c8, type: 2}
  - {fileID: 11400000, guid: daebe5d08f1bfb94483d21568861befc, type: 2}
  - {fileID: 11400000, guid: 051ecd01a063ee24da20c7c8e61ddbde, type: 2}
  PartDataList:
  - {fileID: 11400000, guid: 59648ae474c19a64ab7cba38bf9cd183, type: 2}
  - {fileID: 11400000, guid: 273fff81a39edb54b8adb5ad79518db9, type: 2}
  - {fileID: 11400000, guid: ca2d10257cce4a148b2029ee15acbf0d, type: 2}
  - {fileID: 11400000, guid: a007c7267680fa94795f60ce949595e4, type: 2}
  - {fileID: 11400000, guid: 134457e895c3e0641bd50c5151ee839d, type: 2}
  - {fileID: 11400000, guid: 5ad3b87cf41530d4abe47245566f4bf5, type: 2}
  - {fileID: 11400000, guid: fa614460a4e97cc4a8ef3387764a1a85, type: 2}
  - {fileID: 11400000, guid: 87bdf1dddf2052c479667ce4367b462f, type: 2}
  - {fileID: 11400000, guid: 7d35d81dee59b9242b3c479b9042a353, type: 2}
  - {fileID: 11400000, guid: 4c537e56eb2479747bbef0e456f1a829, type: 2}
  - {fileID: 11400000, guid: 42c846df8f21e854c888f8fb9b5b1f8c, type: 2}
  - {fileID: 11400000, guid: 402b1790d6b1ac24a8e91beecf2c4f8b, type: 2}
  - {fileID: 11400000, guid: a2b4cc2c33cfbec40bd03f7d04d2c688, type: 2}
  - {fileID: 11400000, guid: bfc0814606ad6954288da3fdceca35ab, type: 2}
  - {fileID: 11400000, guid: f6c78bd970629fe4a97fcac1e5c404a4, type: 2}
  - {fileID: 11400000, guid: 72d7fa8c70548c340ad8e1a06714a30d, type: 2}
  - {fileID: 11400000, guid: 4304f017e61d0d040970134c03e15863, type: 2}
  - {fileID: 11400000, guid: 81c65326449c6f84399d77f22757b078, type: 2}
  - {fileID: 11400000, guid: 206b5574d7b023e468c0e5e34c0771a0, type: 2}
  - {fileID: 11400000, guid: 6c88aceb3d91681479de21f0568513db, type: 2}
  - {fileID: 11400000, guid: d8d304f0f39fece49a5d075fe1d0c984, type: 2}
  - {fileID: 11400000, guid: efbd0166290b04e46a2e8eaf86c97b83, type: 2}
  - {fileID: 11400000, guid: 964adc131e42a454f9b5e29fe8fa8bd7, type: 2}
  - {fileID: 11400000, guid: 3be2a395f3012c84495508e66f64a846, type: 2}
  - {fileID: 11400000, guid: 168b9e9f933dec648bcf88d0264949ac, type: 2}
  - {fileID: 11400000, guid: 786459e37deb1704eb8164ee2fefd070, type: 2}
  - {fileID: 11400000, guid: 01b0737c255547c43928a28477ba262c, type: 2}
  - {fileID: 11400000, guid: 5631ad2e909638548846c3c15057a385, type: 2}
  - {fileID: 11400000, guid: 9039bc55e80df5a4ab9dfe7f635c588d, type: 2}
  - {fileID: 11400000, guid: 9105528243e8abd40be4a6f7e78d6c38, type: 2}
  - {fileID: 11400000, guid: c78f41146161fea4884a22ce2bac4b88, type: 2}
  - {fileID: 11400000, guid: 79c2dc58bc52817479480ebee94166d5, type: 2}
  - {fileID: 11400000, guid: a5fef98dd9877cd4f99d43c2921712c7, type: 2}
  - {fileID: 11400000, guid: 4e0b207f78cedf048be71a540c69ed90, type: 2}
  - {fileID: 11400000, guid: d9eb7ec818b537442b894a894707ab23, type: 2}
  - {fileID: 11400000, guid: 274a18018513d7a4794a257c942f537e, type: 2}
  - {fileID: 11400000, guid: b1b3275c58a0c5241b5a0b8b4524e3da, type: 2}
  - {fileID: 11400000, guid: d06a4522ccac6784bb5f158158052d4a, type: 2}
  - {fileID: 11400000, guid: b1af2fcac684f494182cfcf21fede132, type: 2}
  - {fileID: 11400000, guid: a04a2ce342c3ae54d89bbda48cea4e39, type: 2}
  - {fileID: 11400000, guid: 1beb795f88256f7418ae1b228db70d55, type: 2}
  - {fileID: 11400000, guid: 1da3b4e2953d99449b34cd3d5bd11aab, type: 2}
  - {fileID: 11400000, guid: dc24f1c78c2de684cb10f4d298971aad, type: 2}
  - {fileID: 11400000, guid: 4dd67ebb0bbc6834a88e2bab6092e011, type: 2}
  - {fileID: 11400000, guid: 9b1dd0921993e4c40961b2db8310b3bd, type: 2}
  - {fileID: 11400000, guid: d0f8ca1931d54294e83526fc78328042, type: 2}
  - {fileID: 11400000, guid: 742cc130dd2e80146a6263964afed047, type: 2}
  - {fileID: 11400000, guid: 4ed844df1d6d5984290efb50fc24b42e, type: 2}
  - {fileID: 11400000, guid: 61190a987cbfd384cadedb04964cd8c1, type: 2}
  - {fileID: 11400000, guid: 46f3417ee4209e74e806aacffdc1b9d1, type: 2}
  - {fileID: 11400000, guid: e13d8f7e2b93ac941b5ab0f226978f11, type: 2}
  - {fileID: 11400000, guid: 35655994599fc2f4bae100e5edf39c8c, type: 2}
  - {fileID: 11400000, guid: 9e8dc40ff2697e84d99a09214a0d4152, type: 2}
  - {fileID: 11400000, guid: 6511ccc402a5af04c83b08f6b37506c3, type: 2}
  - {fileID: 11400000, guid: 529eb3d7dfb545245817013b176b8331, type: 2}
  - {fileID: 11400000, guid: d71e118ea53298c418864124cdbf2685, type: 2}
  - {fileID: 11400000, guid: 9f5fb8ba952c00241b674dd8ac6c9c30, type: 2}
  - {fileID: 11400000, guid: 9329613269d03f64bb7cb706130c6140, type: 2}
  - {fileID: 11400000, guid: 34ddc9d13c6bd0b4e9c7bd32738b5483, type: 2}
  - {fileID: 11400000, guid: 33f5fcdfeca066e438d2f64698e57db3, type: 2}
  - {fileID: 11400000, guid: 16170ed538848014180c07cbe0f79e08, type: 2}
  - {fileID: 11400000, guid: f3306fc3484c8784aa98a9c96ac0728f, type: 2}
  - {fileID: 11400000, guid: 19bf48b6698f4384cad5a33dec86371e, type: 2}
  - {fileID: 11400000, guid: c2778222b0d22414dabcc5eb46e16112, type: 2}
  - {fileID: 11400000, guid: 1a09ef2d0e45d174f90bf2be1487c283, type: 2}
  - {fileID: 11400000, guid: 44b163abf25c3a646b1e7251a2a42e1e, type: 2}
  - {fileID: 11400000, guid: 832df05d1d1e1364892206650dda9048, type: 2}
  - {fileID: 11400000, guid: a2fdfdddee9d7ae42a8059f7da092ed5, type: 2}
  - {fileID: 11400000, guid: 8e589c000db4d794290b74f770c125aa, type: 2}
  - {fileID: 11400000, guid: 21233c6788e46bb4e9021d3dec22ada6, type: 2}
  - {fileID: 11400000, guid: 2e02c830e53fe3642b527b3da53d0dd1, type: 2}
  - {fileID: 11400000, guid: 17e5fb5946de54a48928057fe4ffe5d1, type: 2}
  - {fileID: 11400000, guid: ed26d57b113bb5b46840a42e23982b82, type: 2}
  - {fileID: 11400000, guid: 2d576becc1dacdb4cb84655ad8afe9e5, type: 2}
  - {fileID: 11400000, guid: 62a6b166b6530d2469c6e406b937c96e, type: 2}
  - {fileID: 11400000, guid: 5cf781d69a322b04fb543be1af44a22e, type: 2}
  - {fileID: 11400000, guid: 667df36e631050e49bb07ad000aedb99, type: 2}
  - {fileID: 11400000, guid: bc134dbd9e34c0248a61debaa61a42b2, type: 2}
  - {fileID: 11400000, guid: 82152cd3e7742d34f93fce6dd005275d, type: 2}
  - {fileID: 11400000, guid: 870512d3615146044b2cc65fcc796b49, type: 2}
  - {fileID: 11400000, guid: 446a36d94781a5c49ac59d608ed9406a, type: 2}
  - {fileID: 11400000, guid: 72911f52fb0f6df4c8ba9cdd32f64bc6, type: 2}
  - {fileID: 11400000, guid: d1e05ae6ef143ed4d82fd1dc1bcc210e, type: 2}
  - {fileID: 11400000, guid: e6b877cf050613344918c2cadc380b2a, type: 2}
  - {fileID: 11400000, guid: 245cbcd67a3fe5b4694021c4579f67ae, type: 2}
  - {fileID: 11400000, guid: 36397e5eaaf8edc42b97a5686a19384a, type: 2}
  - {fileID: 11400000, guid: b57f1d2dde638d349bfa18d7bfcc570e, type: 2}
  - {fileID: 11400000, guid: 6af8e09a6119ee741b25ca665c3e4018, type: 2}
  - {fileID: 11400000, guid: 90dfa5783db8e56418fa3ed318c08e41, type: 2}
  - {fileID: 11400000, guid: 0a45e0657fd22b94daa238406cc98fa9, type: 2}
  - {fileID: 11400000, guid: b2f81624e5c9ddc44a15cadf04900720, type: 2}
  - {fileID: 11400000, guid: 90184ee128321d341985d665b854562b, type: 2}
  - {fileID: 11400000, guid: 65ba802706cd761428253599c476398d, type: 2}
  - {fileID: 11400000, guid: e474e7f79082ea74eaf7fed9aa429084, type: 2}
  - {fileID: 11400000, guid: 67f5ebd4b2d67c84f93a900f50482b11, type: 2}
  - {fileID: 11400000, guid: 259e3be5eaf9450498637e897b2b4618, type: 2}
  - {fileID: 11400000, guid: cbad23f0acd8cf248977eaaa8a44dedb, type: 2}
  - {fileID: 11400000, guid: 69186eebc1ca8ce439824a041825e9e3, type: 2}
  - {fileID: 11400000, guid: c1a6c155d3fe07e46980002bc845a21a, type: 2}
  - {fileID: 11400000, guid: 7f5da43a58ff5ba44a69c4b2a6b4b809, type: 2}
  - {fileID: 11400000, guid: 570196ce294bbb843b944a51332c7842, type: 2}
  - {fileID: 11400000, guid: 385398707dd0641e6a974f015d39401f, type: 2}
  QuestionDataList:
  - {fileID: 11400000, guid: 5aaae31aed2f9d148ba3aa59a9bbe11d, type: 2}
  - {fileID: 11400000, guid: 30dcf63d2c82f1a40bc2c9fa5cc136a3, type: 2}
  - {fileID: 11400000, guid: e3bf6c2a09aadcd42ae473ef11c3a2ce, type: 2}
  - {fileID: 11400000, guid: 9a7afd5ea6bac5149921e9fe541bd129, type: 2}
  - {fileID: 11400000, guid: 096cced02c14ce44fbbb0ced912ff5f2, type: 2}
  - {fileID: 11400000, guid: 69bc3a2bea5ea0d4491c2b4ad01cc391, type: 2}
  - {fileID: 11400000, guid: ea09a5e9263b5a64bae232d3bda136ac, type: 2}
  - {fileID: 11400000, guid: 8c9110944cee6fc4abc8250b0e250935, type: 2}
  - {fileID: 11400000, guid: 321d99deb613cf84c9173c907b24b453, type: 2}
  - {fileID: 11400000, guid: 58bbee5703dedbe458a729ff20a0c54a, type: 2}
  - {fileID: 11400000, guid: 3ac9c4028e5aabb4d83f2714f10cf1ad, type: 2}
  - {fileID: 11400000, guid: 5d313540eb5da3d4c98191d4f0a004da, type: 2}
  - {fileID: 11400000, guid: 81a572d6755923749953927c1346a2d6, type: 2}
  - {fileID: 11400000, guid: 53032e8135695924899140b4ad5ea1b2, type: 2}
  - {fileID: 11400000, guid: 27312a1604cae194fad4646121b32176, type: 2}
  - {fileID: 11400000, guid: dcc46cb818b3bbd4eb1ce041f44dfdfc, type: 2}
  TipDataList:
  - {fileID: 11400000, guid: bd7c011269f9e4c4dbd3212d587fef0e, type: 2}
  - {fileID: 11400000, guid: bd540b2ccc49b3849ab77091ce83d196, type: 2}
  - {fileID: 11400000, guid: 65eea566f5c2b5942a18cfddd33deae1, type: 2}
  - {fileID: 11400000, guid: 4838626b7dc0063468cf54410a8459f5, type: 2}
  - {fileID: 11400000, guid: 4c1280369aa6db74a8f71f9f075a3948, type: 2}
  - {fileID: 11400000, guid: fa62e28078e81a143a4bc15c082a85e6, type: 2}
  - {fileID: 11400000, guid: 9f13ee361e1ab0347a6563552850dc30, type: 2}
  - {fileID: 11400000, guid: 2f41bd8bab5d1bf418aadd183e9ada07, type: 2}
  - {fileID: 11400000, guid: 9bd7fad30ee534815b01ce61d794e863, type: 2}
  - {fileID: 11400000, guid: f5cbb226712244bd7a291bb0c7a2787e, type: 2}
  - {fileID: 11400000, guid: 61a894678bc2c37458f5abc00820ce70, type: 2}
  - {fileID: 11400000, guid: 48d3e447a971e734c9b67f85724d345d, type: 2}
  - {fileID: 11400000, guid: e987dfe5b1ca546a89e4bad726b5594b, type: 2}
  - {fileID: 11400000, guid: 7171072c795f84fd28fb0e4d7b5dfc93, type: 2}
  - {fileID: 11400000, guid: 24be5ee48e962914082b2167a6a14230, type: 2}
  - {fileID: 11400000, guid: 6d1d1c7c992bd0b4fb82bb5b00644b04, type: 2}
  - {fileID: 11400000, guid: 2e78579478e9b1449840457d3d5d4181, type: 2}
  - {fileID: 11400000, guid: 01569003ca19e144092c7db494d7d6b5, type: 2}
  - {fileID: 11400000, guid: 1a918a4f21a9a2342888e0ecfdaa128a, type: 2}
  - {fileID: 11400000, guid: bf24e3fba7d167c44a75988a16e833c3, type: 2}
  - {fileID: 11400000, guid: 6d22b70414ff58240b94b92351edeb59, type: 2}
  - {fileID: 11400000, guid: 0b359214d1e97ff47bb522d75f70d900, type: 2}
  - {fileID: 11400000, guid: 7368ed380eb21494bbd7d2af32b7d691, type: 2}
  - {fileID: 11400000, guid: 80456eb15f73f5e458927e5e12d0bb6e, type: 2}
  - {fileID: 11400000, guid: cb2bd1cf7e99d584b9d715fa0ef87f28, type: 2}
  - {fileID: 11400000, guid: 55be2fcaa242f5541b24d17cda109d17, type: 2}
  - {fileID: 11400000, guid: d843bcc37009b1445b8e840555be4d7b, type: 2}
  - {fileID: 11400000, guid: 7239df88d4bc8954a93c2a124c042807, type: 2}
  - {fileID: 11400000, guid: 88e37aa3d4e432744abc3dc853c8b1c5, type: 2}
  - {fileID: 11400000, guid: eb5558453cb20f04e97858cfce50cab1, type: 2}
  - {fileID: 11400000, guid: 87d69a39f84c01b45b1aca65ad27e106, type: 2}
  - {fileID: 11400000, guid: d51d606481e9de849b389a4f2c71b67f, type: 2}
  - {fileID: 11400000, guid: a7410c61b760892479423b39bb1d4386, type: 2}
  - {fileID: 11400000, guid: e5de5107e4aaa764cbae276232e86c77, type: 2}
  - {fileID: 11400000, guid: 640a64221154e1f4e91429b3317516ce, type: 2}
  - {fileID: 11400000, guid: 5d0797002b3ed7a42bf95585b94443ec, type: 2}
  - {fileID: 11400000, guid: 37acaeab02c9fca4a8242c640a518826, type: 2}
  - {fileID: 11400000, guid: 9a414bcce0f28d14a8f23579c3917377, type: 2}
  ToolDataList:
  - {fileID: 11400000, guid: e063305e9533e3443817daf1b82cb451, type: 2}
  - {fileID: 11400000, guid: 49047abd192983c43b906f4815772ffe, type: 2}
  - {fileID: 11400000, guid: 6224b17ac4c42104d9e7972b17cf5ef5, type: 2}
  - {fileID: 11400000, guid: 9696f05e3ae51a042bb5c4113a2993a0, type: 2}
  - {fileID: 11400000, guid: 19ed2266f54f6e1449b30cb1cb86f525, type: 2}
  - {fileID: 11400000, guid: 145ea8a76cd8e144e94f0940334212a1, type: 2}
  - {fileID: 11400000, guid: 03ff7e29d70dff9489ae2af32d588164, type: 2}
  - {fileID: 11400000, guid: 5f59545cb876d234db963c87a4697287, type: 2}
  - {fileID: 11400000, guid: 00d19d37227a1f7498193da98b38a079, type: 2}
  - {fileID: 11400000, guid: 3628dddcc62450b48a689c6936085ca4, type: 2}
  - {fileID: 11400000, guid: 8975749cd4d4de042b56dd68aa4128a5, type: 2}
  - {fileID: 11400000, guid: 45be7753bf6b79649ad5a1ab9073c9bd, type: 2}
  - {fileID: 11400000, guid: 7b1b60f54d81ca84b90b94c4128b0ce2, type: 2}
  - {fileID: 11400000, guid: af6af5018d6bb5d4b99303c3d3a4fbc0, type: 2}
  - {fileID: 11400000, guid: 97b4aafddf501d64bb33e0dc610d05fa, type: 2}
  - {fileID: 11400000, guid: 57bfc3f5444fc3346bf350f77328a672, type: 2}
  - {fileID: 11400000, guid: dc360804a0e53d241b583a71234d6118, type: 2}
  - {fileID: 11400000, guid: e87e2093f911257458fff5bc07ccaaf1, type: 2}
  - {fileID: 11400000, guid: 7b280b4f90517cf42a6e96af4fe45a72, type: 2}
