%YAML 1.1
%TAG !u! tag:unity3d.com,2011:
--- !u!114 &11400000
MonoBehaviour:
  m_ObjectHideFlags: 0
  m_PrefabParentObject: {fileID: 0}
  m_PrefabInternal: {fileID: 0}
  m_GameObject: {fileID: 0}
  m_Enabled: 1
  m_EditorHideFlags: 0
  m_Script: {fileID: 11500000, guid: 1e009669962460d47bba648b2466fc9f, type: 3}
  m_Name: ActionData_10300187
  m_EditorClassIdentifier: 
  id: 10300187
  playOrder: 187
  instruction: Use fingers to lift the Main PCB away from the Front Housing as shown.
  listName: Main PCB Removal 8
  isAssembly: 0
  partId: 10100092
  tools: 10200004
  delayTools: 
  deviceId: 10000003
  heatTime: 0
  heatTemperature: 0
  clipName: Uninstall_PCB
