%YAML 1.1
%TAG !u! tag:unity3d.com,2011:
--- !u!114 &11400000
MonoBehaviour:
  m_ObjectHideFlags: 0
  m_PrefabParentObject: {fileID: 0}
  m_PrefabInternal: {fileID: 0}
  m_GameObject: {fileID: 0}
  m_Enabled: 1
  m_EditorHideFlags: 0
  m_Script: {fileID: 11500000, guid: 1e009669962460d47bba648b2466fc9f, type: 3}
  m_Name: ActionData_10300204
  m_EditorClassIdentifier: 
  id: 10300204
  playOrder: 204
  instruction: Use the flat end of the Blackstick to press down on the Earpiece Speaker
    for 5 seconds to secure it to the Front Housing.
  listName: Earpiece Speaker Assembly 2
  isAssembly: 1
  partId: 10100095
  tools: 10200009
  delayTools: 
  deviceId: 10000003
  heatTime: 0
  heatTemperature: 0
  clipName: Install_Earpc02
