%YAML 1.1
%TAG !u! tag:unity3d.com,2011:
--- !u!114 &11400000
MonoBehaviour:
  m_ObjectHideFlags: 0
  m_PrefabParentObject: {fileID: 0}
  m_PrefabInternal: {fileID: 0}
  m_GameObject: {fileID: 0}
  m_Enabled: 1
  m_EditorHideFlags: 0
  m_Script: {fileID: 11500000, guid: 1e009669962460d47bba648b2466fc9f, type: 3}
  m_Name: ActionData_10300047
  m_EditorClassIdentifier: 
  id: 10300047
  playOrder: 47
  instruction: Use fingers to place the Rear-Facing Imager in the opening on the PCB
    and use rolling pressure to connect the BtB connector to the PCB.
  listName: Rear-Facing Imager Assembly
  isAssembly: 1
  partId: 10100018
  tools: 10200004
  delayTools: 
  deviceId: 10000001
  heatTime: 0
  heatTemperature: 0
  clipName: Install_RearFacingCamera
