%YAML 1.1
%TAG !u! tag:unity3d.com,2011:
--- !u!114 &11400000
MonoBehaviour:
  m_ObjectHideFlags: 0
  m_PrefabParentObject: {fileID: 0}
  m_PrefabInternal: {fileID: 0}
  m_GameObject: {fileID: 0}
  m_Enabled: 1
  m_EditorHideFlags: 0
  m_Script: {fileID: 11500000, guid: 1e009669962460d47bba648b2466fc9f, type: 3}
  m_Name: ActionData_10300153
  m_EditorClassIdentifier: 
  id: 10300153
  playOrder: 153
  instruction: Use the Tweezers to place the FPS into the opening on the Display.
  listName: Display Preparation 3
  isAssembly: 1
  partId: 10100037
  tools: 10200001
  delayTools: 10200017
  deviceId: 10000002
  heatTime: 0
  heatTemperature: 0
  clipName: Install_Fps
