%YAML 1.1
%TAG !u! tag:unity3d.com,2011:
--- !u!114 &11400000
MonoBehaviour:
  m_ObjectHideFlags: 0
  m_PrefabParentObject: {fileID: 0}
  m_PrefabInternal: {fileID: 0}
  m_GameObject: {fileID: 0}
  m_Enabled: 1
  m_EditorHideFlags: 0
  m_Script: {fileID: 11500000, guid: 1e009669962460d47bba648b2466fc9f, type: 3}
  m_Name: ActionData_10300146
  m_EditorClassIdentifier: 
  id: 10300146
  playOrder: 146
  instruction: Use the Tweezers to place the Earpiece Speaker into the pocket in the
    Middle Frame. Press down to secure it to the Middle Frame.
  listName: Earpiece Speaker Assembly
  isAssembly: 1
  partId: 10100044
  tools: 10200001,10200009
  delayTools: 
  deviceId: 10000002
  heatTime: 0
  heatTemperature: 0
  clipName: Install_Earpc
