%YAML 1.1
%TAG !u! tag:unity3d.com,2011:
--- !u!114 &11400000
MonoBehaviour:
  m_ObjectHideFlags: 0
  m_PrefabParentObject: {fileID: 0}
  m_PrefabInternal: {fileID: 0}
  m_GameObject: {fileID: 0}
  m_Enabled: 1
  m_EditorHideFlags: 0
  m_Script: {fileID: 11500000, guid: 1e009669962460d47bba648b2466fc9f, type: 3}
  m_Name: ActionData_10300023
  m_EditorClassIdentifier: 
  id: 10300023
  playOrder: 23
  instruction: Use the Tweezers to disconnect the Vibrator connector from the PCB.
  listName: Vibrator Removal
  isAssembly: 0
  partId: 10100019
  tools: 10200001
  delayTools: 
  deviceId: 10000001
  heatTime: 0
  heatTemperature: 0
  clipName: Uninstall_Vibrator
