%YAML 1.1
%TAG !u! tag:unity3d.com,2011:
--- !u!114 &11400000
MonoBehaviour:
  m_ObjectHideFlags: 0
  m_PrefabParentObject: {fileID: 0}
  m_PrefabInternal: {fileID: 0}
  m_GameObject: {fileID: 0}
  m_Enabled: 1
  m_EditorHideFlags: 0
  m_Script: {fileID: 11500000, guid: 1e009669962460d47bba648b2466fc9f, type: 3}
  m_Name: ActionData_10300226
  m_EditorClassIdentifier: 
  id: 10300226
  playOrder: 226
  instruction: Use the Plastic Tweezers to connect the Coax Cable to the Main PCB
    and Sub-Board.
  listName: Coax Cable Assembly 2
  isAssembly: 1
  partId: 10100084
  tools: 10200001
  delayTools: 
  deviceId: 10000003
  heatTime: 0
  heatTemperature: 0
  clipName: Install_Cable02
