%YAML 1.1
%TAG !u! tag:unity3d.com,2011:
--- !u!114 &11400000
MonoBehaviour:
  m_ObjectHideFlags: 0
  m_PrefabParentObject: {fileID: 0}
  m_PrefabInternal: {fileID: 0}
  m_GameObject: {fileID: 0}
  m_Enabled: 1
  m_EditorHideFlags: 0
  m_Script: {fileID: 11500000, guid: 1e009669962460d47bba648b2466fc9f, type: 3}
  m_Name: ActionData_10300196
  m_EditorClassIdentifier: 
  id: 10300196
  playOrder: 196
  instruction: 'Use the Screwdriver #0 to remove the 1 JCIS #0 Machine Screw from
    the Sub-Board.'
  listName: Sub-Board Removal 3
  isAssembly: 0
  partId: 10100099
  tools: 10200006
  delayTools: 
  deviceId: 10000003
  heatTime: 0
  heatTemperature: 0
  clipName: Uninstall_Screw05
