%YAML 1.1
%TAG !u! tag:unity3d.com,2011:
--- !u!114 &11400000
MonoBehaviour:
  m_ObjectHideFlags: 0
  m_PrefabParentObject: {fileID: 0}
  m_PrefabInternal: {fileID: 0}
  m_GameObject: {fileID: 0}
  m_Enabled: 1
  m_EditorHideFlags: 0
  m_Script: {fileID: 11500000, guid: cd6043c63645c3a4ca7ec3daa2968a46, type: 3}
  m_Name: ActionData_10300150
  m_EditorClassIdentifier: 
  id: 10300150
  playOrder: 153
  instruction: "Use the T3 screwdriver to tighten the 20 T3 Torx Machine Screws to
    0.60\xB10.05 kgf-cm (0.52\xB10.04 lbf-in) in the specific order."
  listName: Middle Frame Assembly 2
  isAssembly: 1
  partId: 10100036
  toolId: 10200007
  clickObjectName: 
  deviceId: 10000002
  heatTime: 0
  heatTemperature: 0
