%YAML 1.1
%TAG !u! tag:unity3d.com,2011:
--- !u!114 &11400000
MonoBehaviour:
  m_ObjectHideFlags: 0
  m_PrefabParentObject: {fileID: 0}
  m_PrefabInternal: {fileID: 0}
  m_GameObject: {fileID: 0}
  m_Enabled: 1
  m_EditorHideFlags: 0
  m_Script: {fileID: 11500000, guid: cd6043c63645c3a4ca7ec3daa2968a46, type: 3}
  m_Name: ActionData_10300037
  m_EditorClassIdentifier: 
  id: 10300037
  playOrder: 36
  instruction: Use fingers to position the NFC Antenna in the circular channel and
    apply rolling pressure to secure it to the Rear Housing. Then attach the NFC Antenna
    Connector to the Rear Housing.
  listName: NFC Antenna Assembly
  isAssembly: 1
  partId: 10100017
  toolId: 10200003
  clickObjectName: 
  deviceId: 10000001
  heatTime: 0
  heatTemperature: 0
