%YAML 1.1
%TAG !u! tag:unity3d.com,2011:
--- !u!114 &11400000
MonoBehaviour:
  m_ObjectHideFlags: 0
  m_PrefabParentObject: {fileID: 0}
  m_PrefabInternal: {fileID: 0}
  m_GameObject: {fileID: 0}
  m_Enabled: 1
  m_EditorHideFlags: 0
  m_Script: {fileID: 11500000, guid: cd6043c63645c3a4ca7ec3daa2968a46, type: 3}
  m_Name: ActionData_10300050
  m_EditorClassIdentifier: 
  id: 10300050
  playOrder: 46
  instruction: Use the Plastic Tweezers to connect the Coax Cable to the PCB and position
    the Coax Cable in the clips.
  listName: Coax Cable Assembly
  isAssembly: 1
  partId: 10100021
  toolId: 10200002
  clickObjectName: 
  deviceId: 10000001
  heatTime: 0
  heatTemperature: 0
