%YAML 1.1
%TAG !u! tag:unity3d.com,2011:
--- !u!114 &11400000
MonoBehaviour:
  m_ObjectHideFlags: 0
  m_PrefabParentObject: {fileID: 0}
  m_PrefabInternal: {fileID: 0}
  m_GameObject: {fileID: 0}
  m_Enabled: 1
  m_EditorHideFlags: 0
  m_Script: {fileID: 11500000, guid: cd6043c63645c3a4ca7ec3daa2968a46, type: 3}
  m_Name: ActionData_10300044
  m_EditorClassIdentifier: 
  id: 10300044
  playOrder: 40
  instruction: Use fingers to place the Battery into the pocket on the Rear Housing
    and Press down for 5 seconds.
  listName: Battery Assembly 2
  isAssembly: 1
  partId: 10100003
  toolId: 10200003
  clickObjectName: 
  deviceId: 10000001
  heatTime: 0
  heatTemperature: 0
