%YAML 1.1
%TAG !u! tag:unity3d.com,2011:
--- !u!114 &11400000
MonoBehaviour:
  m_ObjectHideFlags: 0
  m_PrefabParentObject: {fileID: 0}
  m_PrefabInternal: {fileID: 0}
  m_GameObject: {fileID: 0}
  m_Enabled: 1
  m_EditorHideFlags: 0
  m_Script: {fileID: 11500000, guid: cd6043c63645c3a4ca7ec3daa2968a46, type: 3}
  m_Name: ActionData_10300014
  m_EditorClassIdentifier: 
  id: 10300014
  playOrder: 13
  instruction: Use the Thin Plastic Spudger to disengage the Side-Key Flex from the
    side of the Middle Frame.
  listName: Side-Key Flex Removal 1
  isAssembly: 0
  partId: 10100015
  toolId: 10200005
  clickObjectName: 
  deviceId: 10000001
  heatTime: 0
  heatTemperature: 0
