%YAML 1.1
%TAG !u! tag:unity3d.com,2011:
--- !u!114 &11400000
MonoBehaviour:
  m_ObjectHideFlags: 0
  m_PrefabParentObject: {fileID: 0}
  m_PrefabInternal: {fileID: 0}
  m_GameObject: {fileID: 0}
  m_Enabled: 1
  m_EditorHideFlags: 0
  m_Script: {fileID: 11500000, guid: cd6043c63645c3a4ca7ec3daa2968a46, type: 3}
  m_Name: ActionData_10300117
  m_EditorClassIdentifier: 
  id: 10300117
  playOrder: 111
  instruction: Use the Tweezers to lift the USB Port from the pocket in the Rear Housing.
  listName: USB Port Removal 2
  isAssembly: 0
  partId: 10100056
  toolId: 10200001
  clickObjectName: 
  deviceId: 10000002
  heatTime: 0
  heatTemperature: 0
