%YAML 1.1
%TAG !u! tag:unity3d.com,2011:
--- !u!114 &11400000
MonoBehaviour:
  m_ObjectHideFlags: 0
  m_PrefabParentObject: {fileID: 0}
  m_PrefabInternal: {fileID: 0}
  m_GameObject: {fileID: 0}
  m_Enabled: 1
  m_EditorHideFlags: 0
  m_Script: {fileID: 11500000, guid: 0fee02b4a237b3f4693d8b94a8201067, type: 3}
  m_Name: QuestionData_10400014
  m_EditorClassIdentifier: 
  id: 10400014
  deviceId: 10000001
  description: What is the use of Adhesive Promoter?
  type: 1
  options: "Fix the display along with die cut adhesive \nNot required \nHelp to remove
    the Display from Rear Housing"
  isRandomDistribution: 1
  answer: 1
