%YAML 1.1
%TAG !u! tag:unity3d.com,2011:
--- !u!114 &11400000
MonoBehaviour:
  m_ObjectHideFlags: 0
  m_PrefabParentObject: {fileID: 0}
  m_PrefabInternal: {fileID: 0}
  m_GameObject: {fileID: 0}
  m_Enabled: 1
  m_EditorHideFlags: 0
  m_Script: {fileID: 11500000, guid: 0fee02b4a237b3f4693d8b94a8201067, type: 3}
  m_Name: QuestionData_10400007
  m_EditorClassIdentifier: 
  id: 10400007
  deviceId: 10000001
  description: 'Can we reuse the Battery once it has been removed?   '
  type: 1
  options: 'Yes

    No'
  isRandomDistribution: 1
  answer: 1
