%YAML 1.1
%TAG !u! tag:unity3d.com,2011:
--- !u!114 &11400000
MonoBehaviour:
  m_ObjectHideFlags: 0
  m_PrefabParentObject: {fileID: 0}
  m_PrefabInternal: {fileID: 0}
  m_GameObject: {fileID: 0}
  m_Enabled: 1
  m_EditorHideFlags: 0
  m_Script: {fileID: 11500000, guid: 7cfeef62727efd34fa07abcd3515a836, type: 3}
  m_Name: ToolData_10200018
  m_EditorClassIdentifier: 
  id: 10200018
  toolName: Main Board Assembly Fixture
  imageName: Tool_MBFixture_X4
  modelName: Tool_MBFixture_X4
  order: 18
  needParam: 0
