%YAML 1.1
%TAG !u! tag:unity3d.com,2011:
--- !u!114 &11400000
MonoBehaviour:
  m_ObjectHideFlags: 0
  m_PrefabParentObject: {fileID: 0}
  m_PrefabInternal: {fileID: 0}
  m_GameObject: {fileID: 0}
  m_Enabled: 1
  m_EditorHideFlags: 0
  m_Script: {fileID: 11500000, guid: 65356fdf7d6d81d44ab96e181e447c7f, type: 3}
  m_Name: PartData_10100039
  m_EditorClassIdentifier: 
  id: 10100039
  partName: Display Pad
  indexName: DisplayPad
  imageName: DisplayPad
  deviceId: 10000002
  recovery: 0
  pn: 11018504001
  focusIndex: 0
  active: 1
