%YAML 1.1
%TAG !u! tag:unity3d.com,2011:
--- !u!114 &11400000
MonoBehaviour:
  m_ObjectHideFlags: 0
  m_PrefabParentObject: {fileID: 0}
  m_PrefabInternal: {fileID: 0}
  m_GameObject: {fileID: 0}
  m_Enabled: 1
  m_EditorHideFlags: 0
  m_Script: {fileID: 11500000, guid: 8e09d45ffcdd6944bbbc1c82d34dcef1, type: 3}
  m_Name: ToolData_10200011
  m_EditorClassIdentifier: 
  id: 10200011
  toolName: Shim
  imageName: Tool_Shim
  modelName: Tool_Shim
  order: 11
  needParam: 0
